Tx,Ty,Tz,Pitch,Roll,Yaw,Timestamp
-0.002,0.001,0.002,-0.0,-0.0,0.0,1568108518.5809507
-0.001,0.001,0.001,-0.0,0.0,-0.0,1568108518.6438642
-0.0,0.0,0.001,-0.0,0.0,-0.0,1568108518.6992328
-0.0,0.0,0.001,-0.0,0.0,-0.0,1568108518.731767
-0.0,0.0,0.001,-0.0,0.0,0.0,1568108518.7650642
-0.0,0.0,0.001,-0.0,0.0,0.0,1568108518.8327985
-0.0,0.0,0.001,-0.0,0.0,0.0,1568108518.8892653
0.0,0.0,0.001,-0.0,0.0,-0.0,1568108518.95051
0.0,0.0,0.0,-0.0,0.0,-0.0,1568108519.0021205
0.0,0.0,0.0,-0.0,0.0,-0.0,1568108519.067615
0.0,0.0,0.0,-0.0,0.0,-0.0,1568108519.1654773
0.0,0.0,0.0,-0.0,0.0,-0.0,1568108519.2294722
0.0,-0.0,0.0,-0.0,0.0,-0.0,1568108519.3264945
0.0,-0.0,0.0,-0.0,0.0,-0.0,1568108519.3769517
0.0,-0.0,0.0,-0.0,0.0,-0.0,1568108519.41099
0.0,-0.0,0.0,-0.0,0.0,-0.0,1568108519.4666073
0.0,-0.0,0.0,-0.0,0.0,-0.0,1568108519.5242348
0.0,-0.0,0.0,-0.0,0.0,-0.0,1568108519.5566783
0.0,-0.0,0.0,-0.0,0.0,-0.0,1568108519.595362
0.0,-0.0,0.0,-0.0,0.0,-0.0,1568108519.656578
0.0,-0.0,0.0,-0.0,0.0,-0.0,1568108519.714469
0.0,-0.0,0.0,-0.0,0.0,-0.0,1568108519.777074
-0.0,-0.0,0.0,-0.0,0.0,-0.0,1568108519.81173
-0.0,-0.0,0.0,0.0,0.0,-0.0,1568108519.8500261
-0.0,-0.0,-0.0,0.0,0.0,-0.0,1568108519.913281
-0.0,-0.0,-0.0,0.0,0.0,-0.0,1568108519.9793258
-0.0,-0.0,-0.0,0.0,0.0,-0.0,1568108520.0219111
-0.0,-0.0,-0.0,0.0,0.0,-0.0,1568108520.0645566
-0.0,-0.0,-0.0,0.0,0.0,0.0,1568108520.130647
-0.0,-0.0,-0.0,0.0,0.0,-0.0,1568108520.1924427
-0.0,-0.0,-0.0,0.0,0.0,-0.0,1568108520.2535973
-0.0,-0.0,-0.0,0.0,0.0,0.0,1568108520.3160596
-0.0,-0.0,-0.0,0.0,0.0,-0.0,1568108520.385276
-0.0,-0.0,-0.0,0.0,0.0,-0.0,1568108520.4042547
-0.0,-0.0,-0.0,0.0,0.0,-0.0,1568108520.4748461
-0.0,-0.0,-0.0,0.0,0.0,-0.0,1568108520.5269644
-0.0,-0.0,-0.0,0.0,0.0,-0.0,1568108520.588396
-0.0,-0.0,-0.0,0.0,0.0,-0.0,1568108520.6341195
-0.0,-0.0,-0.0,-0.0,0.0,-0.0,1568108520.7059143
-0.0,-0.0,-0.0,0.0,0.0,-0.0,1568108520.775754
-0.0,-0.0,-0.0,0.0,0.0,-0.0,1568108520.8388252
-0.0,-0.0,-0.0,0.0,0.0,-0.0,1568108520.9020805
-0.0,-0.0,-0.0,0.0,0.0,0.0,1568108520.9547207
-0.0,-0.0,-0.0,0.0,0.0,-0.0,1568108521.0318696
-0.0,-0.0,-0.0,0.0,0.0,0.0,1568108521.0512345
-0.0,0.0,-0.0,0.0,0.0,0.0,1568108521.1115105
-0.0,0.0,-0.0,0.0,0.0,-0.0,1568108521.175097
-0.0,0.0,-0.0,0.0,0.0,0.0,1568108521.238563
-0.0,0.0,-0.0,0.0,0.0,-0.0,1568108521.3005164
-0.0,-0.0,-0.0,-0.0,0.0,-0.0,1568108521.3655872
-0.0,-0.0,-0.0,0.0,0.0,-0.0,1568108521.429796
-0.0,-0.0,-0.0,0.0,0.0,-0.0,1568108521.4488957
-0.0,-0.0,-0.0,0.0,0.0,0.0,1568108521.5126774
-0.0,-0.0,-0.0,0.0,0.0,-0.0,1568108521.5788739
-0.0,-0.0,-0.0,0.0,0.0,-0.0,1568108521.646231
-0.0,-0.0,-0.0,0.0,0.0,-0.0,1568108521.709867
-0.0,-0.0,-0.0,0.0,0.0,-0.0,1568108521.772951
-0.0,-0.0,-0.0,0.0,0.0,0.0,1568108521.826124
-0.0,-0.0,-0.0,0.0,0.0,-0.0,1568108521.8641586
-0.0,-0.0,-0.0,0.0,0.0,-0.0,1568108521.9306872
-0.0,-0.0,-0.0,-0.0,0.0,-0.0,1568108521.9974935
-0.0,-0.0,-0.0,0.0,0.0,-0.0,1568108522.0373216
-0.0,-0.0,-0.0,0.0,0.0,-0.0,1568108522.1015875
-0.0,-0.0,-0.0,-0.0,0.0,-0.0,1568108522.1447783
-0.0,-0.0,-0.0,0.0,0.0,-0.0,1568108522.2113438
-0.0,-0.0,-0.0,0.0,0.0,-0.0,1568108522.2807655
-0.0,-0.0,-0.0,0.0,0.0,0.0,1568108522.3244672
-0.0,-0.0,-0.0,0.0,0.0,-0.0,1568108522.3635406
-0.0,-0.0,-0.0,0.0,0.0,0.0,1568108522.4319618
-0.0,-0.0,-0.0,0.0,0.0,-0.0,1568108522.4792554
-0.0,-0.0,-0.0,0.0,0.0,-0.0,1568108522.5174417
-0.0,-0.0,-0.0,0.0,0.0,0.0,1568108522.5808866
-0.0,-0.0,-0.0,0.0,0.0,0.0,1568108522.6472757
-0.0,-0.0,-0.0,0.0,0.0,-0.0,1568108522.714496
-0.0,-0.0,-0.0,0.0,0.0,-0.0,1568108522.7791023
-0.0,-0.0,-0.0,0.0,0.0,-0.0,1568108522.818347
-0.0,-0.0,-0.0,0.0,0.0,-0.0,1568108522.8592339
-0.0,-0.0,-0.0,0.0,0.0,-0.0,1568108522.9310179
-0.0,-0.0,-0.0,0.0,0.0,-0.0,1568108522.9917564
-0.0,-0.0,-0.0,0.0,0.0,-0.0,1568108523.0601616
-0.0,-0.0,-0.0,0.0,0.0,-0.0,1568108523.1216094
-0.0,-0.0,0.001,0.01,0.0,-0.0,1568108523.1813693
0.006,0.001,0.006,0.05,0.01,0.0,1568108523.239414
0.036,0.001,0.012,0.09,0.01,0.0,1568108523.297125
0.078,0.001,0.019,0.09,0.01,0.0,1568108523.3538566
0.152,0.001,0.024,0.01,0.01,0.01,1568108523.3938587
0.195,-0.0,0.035,0.05,0.0,0.0,1568108523.4267337
0.224,0.0,0.036,0.03,0.01,0.01,1568108523.489236
0.284,0.0,0.053,0.06,0.0,0.01,1568108523.5449464
0.315,-0.002,0.053,0.09,0.01,0.01,1568108523.5867698
0.393,-0.001,0.062,0.03,0.01,0.01,1568108523.6411083
0.448,0.0,0.079,0.07,0.02,0.01,1568108523.6741512
0.512,0.0,0.087,0.11,0.02,0.01,1568108523.73662
0.59,-0.003,0.094,0.11,0.02,0.01,1568108523.793033
0.652,-0.005,0.102,0.09,0.01,0.01,1568108523.8528385
0.782,-0.005,0.132,0.08,0.02,0.02,1568108523.910304
0.887,-0.012,0.141,0.1,0.01,0.01,1568108523.9666822
1.038,-0.006,0.167,0.05,0.01,0.02,1568108524.0249023
1.151,-0.011,0.189,0.08,0.01,0.02,1568108524.082732
1.268,-0.015,0.203,0.09,0.01,0.02,1568108524.138637
1.433,-0.02,0.238,0.06,-0.0,0.01,1568108524.1550133
1.553,-0.013,0.253,0.11,0.02,0.01,1568108524.2199237
1.641,-0.017,0.261,0.09,0.01,-0.01,1568108524.281971
1.777,-0.012,0.286,0.04,0.01,-0.02,1568108524.3396153
1.95,-0.018,0.318,0.06,0.0,-0.04,1568108524.3982697
2.083,-0.01,0.337,0.05,0.01,-0.02,1568108524.4120936
2.258,0.0,0.368,0.06,0.0,-0.04,1568108524.4803305
2.398,0.002,0.39,0.06,0.0,-0.05,1568108524.5389159
2.442,0.006,0.397,0.06,0.01,-0.03,1568108524.5809565
2.628,0.011,0.428,0.05,0.0,-0.05,1568108524.6325164
2.819,0.022,0.459,0.05,-0.0,-0.05,1568108524.671687
2.966,0.028,0.484,0.07,-0.0,-0.06,1568108524.7301133
3.165,0.039,0.516,0.06,-0.0,-0.05,1568108524.7881958
3.217,0.039,0.524,0.06,-0.0,-0.06,1568108524.846677
3.366,0.048,0.551,0.06,-0.01,-0.06,1568108524.8840232
3.573,0.056,0.582,0.05,-0.0,-0.05,1568108524.921262
3.729,0.064,0.609,0.07,-0.0,-0.05,1568108524.9841108
3.834,0.069,0.624,0.06,-0.0,-0.05,1568108525.041952
4.003,0.07,0.649,0.04,-0.01,-0.05,1568108525.0854938
4.161,0.074,0.677,0.05,-0.0,-0.04,1568108525.1201982
4.37,0.081,0.721,0.06,-0.01,-0.03,1568108525.1748917
4.537,0.087,0.738,0.09,-0.01,-0.04,1568108525.2350876
4.77,0.09,0.785,0.06,-0.01,-0.03,1568108525.2950282
4.947,0.095,0.81,0.08,-0.0,-0.03,1568108525.349627
5.186,0.103,0.853,0.07,-0.0,-0.03,1568108525.40697
5.369,0.114,0.887,0.07,-0.0,-0.04,1568108525.4706972
5.617,0.127,0.926,0.08,0.01,-0.05,1568108525.529721
5.813,0.125,0.962,0.06,0.01,-0.05,1568108525.5880983
5.936,0.138,0.986,0.08,0.01,-0.06,1568108525.6318157
6.13,0.141,1.02,0.09,0.02,-0.04,1568108525.7054276
6.379,0.151,1.063,0.09,0.01,-0.05,1568108525.7493446
6.565,0.167,1.104,0.09,0.02,-0.04,1568108525.7820413
6.841,0.174,1.148,0.1,0.02,-0.04,1568108525.8394012
6.983,0.184,1.176,0.1,0.02,-0.03,1568108525.8970747
7.13,0.188,1.202,0.11,0.02,-0.02,1568108525.954964
7.436,0.189,1.247,0.12,0.01,-0.04,1568108525.9726942
7.675,0.199,1.291,0.09,0.01,-0.02,1568108526.0497673
7.915,0.208,1.334,0.11,0.0,-0.02,1568108526.089446
8.246,0.216,1.391,0.12,0.0,-0.02,1568108526.1480043
8.499,0.218,1.429,0.12,-0.02,-0.02,1568108526.208905
8.669,0.229,1.458,0.11,0.0,0.01,1568108526.2673454
8.95,0.22,1.507,0.1,-0.0,-0.0,1568108526.2852373
9.33,0.223,1.567,0.12,-0.0,0.02,1568108526.3468635
9.628,0.217,1.613,0.11,-0.01,0.02,1568108526.4055803
9.835,0.218,1.649,0.12,-0.01,0.01,1568108526.4232528
10.149,0.22,1.698,0.13,-0.01,0.0,1568108526.4812005
10.471,0.223,1.753,0.12,-0.02,-0.0,1568108526.540894
10.684,0.224,1.791,0.13,-0.01,-0.01,1568108526.5989249
11.022,0.205,1.844,0.14,-0.02,-0.02,1568108526.6420648
11.48,0.217,1.915,0.09,-0.02,0.0,1568108526.7011995
11.843,0.206,1.984,0.09,-0.02,0.01,1568108526.7340584
12.317,0.199,2.059,0.17,-0.01,0.02,1568108526.7932217
12.679,0.19,2.12,0.11,-0.02,0.01,1568108526.8526268
13.06,0.189,2.195,0.13,-0.02,-0.0,1568108526.9119167
13.314,0.185,2.239,0.16,-0.02,-0.01,1568108526.9698052
13.713,0.172,2.299,0.16,-0.02,-0.03,1568108527.0060542
14.243,0.184,2.403,0.12,-0.01,-0.04,1568108527.0447078
14.651,0.194,2.472,0.14,-0.01,-0.06,1568108527.1027303
15.203,0.197,2.574,0.14,-0.01,-0.07,1568108527.1647239
15.345,0.204,2.6,0.15,-0.03,-0.08,1568108527.2236776
15.77,0.209,2.668,0.17,-0.03,-0.09,1568108527.267259
16.308,0.231,2.767,0.11,-0.01,-0.07,1568108527.318506
16.684,0.276,2.837,0.12,0.01,-0.07,1568108527.3570576
17.159,0.3,2.915,0.12,0.02,-0.1,1568108527.4161098
17.426,0.316,2.964,0.11,0.03,-0.1,1568108527.4740314
17.851,0.362,3.043,0.13,0.03,-0.12,1568108527.5108275
18.289,0.389,3.128,0.17,0.04,-0.12,1568108527.550708
18.555,0.399,3.161,0.16,0.05,-0.12,1568108527.6141121
19.114,0.46,3.268,0.11,0.06,-0.11,1568108527.6580286
19.415,0.494,3.328,0.11,0.04,-0.11,1568108527.7132478
19.822,0.53,3.384,0.01,0.05,-0.1,1568108527.753875
20.369,0.572,3.501,0.04,0.05,-0.11,1568108527.81445
20.631,0.61,3.563,-0.01,0.06,-0.09,1568108527.8737977
21.027,0.646,3.635,0.0,0.08,-0.08,1568108527.9341125
21.412,0.685,3.714,-0.01,0.08,-0.08,1568108527.993101
21.782,0.717,3.776,-0.01,0.07,-0.09,1568108528.052546
22.242,0.761,3.867,-0.01,0.08,-0.08,1568108528.0891469
22.673,0.806,3.956,0.0,0.08,-0.08,1568108528.150096
22.983,0.833,4.002,-0.02,0.09,-0.08,1568108528.190616
23.373,0.861,4.075,0.01,0.08,-0.07,1568108528.2531056
23.56,0.886,4.111,-0.03,0.09,-0.07,1568108528.3126326
23.737,0.906,4.148,-0.02,0.09,-0.06,1568108528.3533497
24.065,0.937,4.21,-0.02,0.1,-0.06,1568108528.3970964
24.365,0.957,4.264,-0.0,0.08,-0.07,1568108528.459252
24.506,0.981,4.294,-0.02,0.09,-0.05,1568108528.4781098
24.705,0.996,4.335,-0.01,0.09,-0.06,1568108528.5357597
24.944,1.018,4.383,-0.01,0.09,-0.05,1568108528.5962436
24.999,1.024,4.392,-0.01,0.09,-0.06,1568108528.6560602
25.156,1.041,4.421,-0.01,0.09,-0.06,1568108528.71969
25.342,1.063,4.458,-0.01,0.11,-0.07,1568108528.7575858
25.464,1.068,4.487,0.0,0.1,-0.07,1568108528.7945335
25.619,1.074,4.51,0.01,0.09,-0.06,1568108528.8570447
25.695,1.084,4.532,0.01,0.09,-0.06,1568108528.9150076
25.808,1.093,4.55,0.03,0.09,-0.07,1568108528.973558
25.923,1.104,4.575,0.01,0.09,-0.06,1568108529.03059
26.068,1.113,4.603,0.02,0.09,-0.05,1568108529.0865128
26.173,1.125,4.627,0.05,0.09,-0.04,1568108529.1012018
26.317,1.136,4.654,0.02,0.08,-0.05,1568108529.1646311
26.383,1.139,4.665,0.04,0.08,-0.05,1568108529.221555
26.453,1.145,4.677,0.04,0.08,-0.05,1568108529.2385378
26.593,1.152,4.707,0.03,0.08,-0.06,1568108529.3028822
26.658,1.157,4.718,0.04,0.07,-0.06,1568108529.3599253
26.724,1.17,4.733,0.03,0.09,-0.05,1568108529.421588
26.854,1.173,4.757,0.04,0.08,-0.05,1568108529.4787238
26.951,1.182,4.78,0.04,0.08,-0.05,1568108529.5368586
27.077,1.193,4.803,0.04,0.08,-0.05,1568108529.5941842
27.199,1.203,4.827,0.04,0.08,-0.06,1568108529.6544716
27.291,1.21,4.846,0.04,0.08,-0.06,1568108529.7115395
27.382,1.214,4.865,0.03,0.07,-0.07,1568108529.7678277
27.495,1.224,4.887,0.05,0.07,-0.06,1568108529.8060224
27.583,1.233,4.908,0.04,0.07,-0.06,1568108529.845594
27.693,1.239,4.924,0.04,0.07,-0.06,1568108529.9031785
27.802,1.253,4.949,0.05,0.07,-0.07,1568108529.9627793
27.828,1.25,4.953,0.05,0.06,-0.08,1568108529.9792252
27.909,1.258,4.973,0.05,0.06,-0.08,1568108530.0393856
28.012,1.268,4.987,0.04,0.06,-0.08,1568108530.1017606
28.083,1.277,5.012,0.08,0.06,-0.08,1568108530.1606033
28.106,1.277,5.011,0.1,0.06,-0.08,1568108530.2174528
28.212,1.287,5.032,0.03,0.06,-0.08,1568108530.2555282
28.278,1.293,5.046,0.06,0.06,-0.08,1568108530.3116434
28.374,1.306,5.062,0.03,0.06,-0.08,1568108530.348862
28.44,1.308,5.074,0.05,0.04,-0.08,1568108530.4061172
28.528,1.312,5.094,0.04,0.04,-0.08,1568108530.4644978
28.547,1.316,5.097,0.05,0.04,-0.08,1568108530.5266929
28.612,1.319,5.105,0.03,0.04,-0.08,1568108530.569124
28.69,1.322,5.12,0.06,0.03,-0.07,1568108530.6230085
28.754,1.325,5.135,0.03,0.04,-0.07,1568108530.6602292
28.829,1.332,5.148,0.04,0.03,-0.06,1568108530.7168713
28.865,1.333,5.156,0.04,0.02,-0.06,1568108530.7765684
28.919,1.334,5.17,0.04,0.03,-0.06,1568108530.8347244
28.973,1.334,5.174,0.04,0.01,-0.06,1568108530.8706293
29.023,1.332,5.194,0.05,0.02,-0.06,1568108530.9383602
29.086,1.34,5.197,0.05,0.01,-0.05,1568108530.992852
29.132,1.339,5.217,0.06,0.01,-0.05,1568108531.035338
29.19,1.338,5.218,0.07,0.01,-0.05,1568108531.097261
29.246,1.343,5.237,0.09,0.02,-0.05,1568108531.153192
29.291,1.343,5.237,0.06,0.02,-0.04,1568108531.2114854
29.341,1.344,5.256,0.09,0.02,-0.05,1568108531.2703042
29.354,1.346,5.256,0.08,0.02,-0.04,1568108531.32981
29.395,1.347,5.266,0.06,0.01,-0.04,1568108531.3845923
29.44,1.345,5.273,0.05,0.01,-0.05,1568108531.4445474
29.47,1.345,5.285,0.08,0.0,-0.05,1568108531.4799352
29.513,1.346,5.286,0.06,0.01,-0.04,1568108531.5326328
29.541,1.347,5.296,0.05,0.01,-0.04,1568108531.571839
29.575,1.35,5.304,0.05,0.02,-0.04,1568108531.6295252
29.597,1.354,5.308,0.06,0.02,-0.03,1568108531.6790872
29.621,1.355,5.313,0.05,0.02,-0.03,1568108531.7363153
29.629,1.355,5.315,0.06,0.02,-0.03,1568108531.7670388
29.65,1.354,5.319,0.05,0.02,-0.04,1568108531.803775
29.668,1.352,5.322,0.05,0.01,-0.04,1568108531.8647046
29.687,1.352,5.328,0.05,0.01,-0.03,1568108531.919955
29.697,1.351,5.329,0.06,0.01,-0.03,1568108531.9597597
29.715,1.351,5.332,0.05,0.01,-0.03,1568108532.033354
29.734,1.351,5.336,0.05,0.01,-0.03,1568108532.0748725
29.748,1.351,5.339,0.05,0.01,-0.03,1568108532.1077547
29.764,1.352,5.342,0.06,0.01,-0.03,1568108532.1618607
29.776,1.352,5.345,0.06,0.01,-0.03,1568108532.216439
29.779,1.352,5.346,0.06,0.01,-0.03,1568108532.2765129
29.789,1.352,5.347,0.06,0.01,-0.02,1568108532.2901328
29.801,1.353,5.349,0.06,0.01,-0.02,1568108532.3466055
29.808,1.353,5.352,0.06,0.01,-0.03,1568108532.4010231
29.809,1.353,5.352,0.06,0.01,-0.02,1568108532.4572916
29.813,1.353,5.354,0.06,0.01,-0.02,1568108532.4977214
29.817,1.353,5.354,0.06,0.01,-0.02,1568108532.527294
29.817,1.353,5.355,0.06,0.01,-0.02,1568108532.5829937
29.818,1.353,5.355,0.06,0.01,-0.02,1568108532.637348
29.818,1.353,5.355,0.06,0.01,-0.02,1568108532.6984186
29.817,1.353,5.355,0.06,0.01,-0.02,1568108532.7559986
29.814,1.353,5.355,0.06,0.01,-0.02,1568108532.7696927
29.81,1.353,5.354,0.06,0.01,-0.02,1568108532.8246348
29.807,1.353,5.353,0.06,0.01,-0.02,1568108532.8809557
29.801,1.353,5.352,0.06,0.01,-0.02,1568108532.9400282
29.8,1.353,5.351,0.06,0.01,-0.02,1568108532.9534998
29.795,1.353,5.351,0.06,0.01,-0.02,1568108533.011195
29.793,1.353,5.35,0.06,0.01,-0.02,1568108533.0724561
29.792,1.353,5.349,0.06,0.01,-0.02,1568108533.1324973
29.79,1.353,5.349,0.06,0.01,-0.02,1568108533.19709
29.79,1.353,5.349,0.06,0.01,-0.02,1568108533.2610872
29.79,1.353,5.348,0.06,0.01,-0.03,1568108533.3212283
29.791,1.353,5.348,0.06,0.01,-0.02,1568108533.381406
29.792,1.353,5.349,0.06,0.01,-0.02,1568108533.4399924
29.793,1.353,5.349,0.06,0.01,-0.02,1568108533.500869
29.795,1.353,5.349,0.06,0.01,-0.02,1568108533.5603771
29.796,1.353,5.349,0.06,0.01,-0.02,1568108533.6163032
