grab_timestamp, write_timestamp
1568108941516191, 1568108941.5361981
15681089415682065, 1568108941.5927215
15681089416214957, 1568108941.6829386
15681089417142227, 1568108941.7439103
15681089417931652, 1568108941.819785
1568108941852952, 1568108941.9020064
15681089419373262, 1568108942.0187783
15681089420692616, 1568108942.1205547
15681089421739516, 1568108942.2236598
15681089422753928, 1568108942.3145626
15681089423504906, 1568108942.4078026
15681089424266531, 1568108942.4725096
15681089425065985, 1568108942.5399373
15681089425889344, 1568108942.6104376
15681089426419053, 1568108942.670278
15681089426981113, 1568108942.7388492
15681089427742639, 1568108942.8019166
15681089428347323, 1568108942.8649895
15681089429417672, 1568108942.9717128
15681089430023463, 1568108943.050472
15681089430858428, 1568108943.114005
1568108943150802, 1568108943.1797588
15681089432289963, 1568108943.2593677
1568108943292156, 1568108943.3375206
15681089433561246, 1568108943.3971567
15681089434320848, 1568108943.4603033
1568108943491898, 1568108943.5184872
15681089435544286, 1568108943.5851984
15681089436207478, 1568108943.6488478
15681089436790612, 1568108943.7210996
15681089437431278, 1568108943.7868197
15681089438232212, 1568108943.849923
15681089438824055, 1568108943.9088721
15681089439411738, 1568108943.9703398
15681089440025644, 1568108944.0299122
15681089440626287, 1568108944.091514
15681089441233613, 1568108944.1707864
15681089442004106, 1568108944.2302523
15681089442636144, 1568108944.2926385
15681089443255455, 1568108944.3523545
1568108944383094, 1568108944.42321
15681089444414775, 1568108944.4825776
15681089445145228, 1568108944.5414698
15681089445706685, 1568108944.5979233
15681089446325958, 1568108944.6641142
1568108944696433, 1568108944.7238688
15681089447578425, 1568108944.7850225
15681089448155591, 1568108944.8435524
15681089448732538, 1568108944.9027152
15681089449356763, 1568108944.9627185
15681089449951222, 1568108945.0208194
15681089450504866, 1568108945.091659
15681089451086197, 1568108945.154051
15681089451845462, 1568108945.2134767
15681089452482579, 1568108945.2759404
15681089453095503, 1568108945.3562164
15681089453915825, 1568108945.4227169
15681089454585006, 1568108945.5018864
1568108945538779, 1568108945.5677736
15681089456003778, 1568108945.628204
15681089456598082, 1568108945.6908422
15681089457221527, 1568108945.7503986
15681089457825058, 1568108945.8300173
15681089458663032, 1568108945.8942862
15681089459289565, 1568108945.9555871
15681089459914563, 1568108946.0338342
15681089460670888, 1568108946.0948434
1568108946126823, 1568108946.1569264
15681089461897135, 1568108946.2181854
15681089462524304, 1568108946.279413
15681089463085277, 1568108946.3362656
1568108946369878, 1568108946.410264
15681089464416153, 1568108946.4696558
15681089464996405, 1568108946.5259767
15681089465574384, 1568108946.5852244
15681089466189537, 1568108946.6452665
15681089466780834, 1568108946.7185538
15681089467528334, 1568108946.7819965
15681089468156784, 1568108946.8456044
15681089468816433, 1568108946.9087405
15681089469437509, 1568108946.9708543
15681089470026731, 1568108947.032427
15681089470620642, 1568108947.0888007
15681089471236982, 1568108947.1707485
15681089472053752, 1568108947.233952
15681089472643542, 1568108947.2908194
1568108947323564, 1568108947.3523023
15681089473864405, 1568108947.4135187
1568108947448327, 1568108947.473937
1568108947509241, 1568108947.5353246
15681089475674417, 1568108947.6102204
1568108947646812, 1568108947.6753247
15681089477088623, 1568108947.7393522
15681089477753623, 1568108947.804921
15681089478383832, 1568108947.8653164
15681089478948905, 1568108947.9224129
15681089479539003, 1568108947.9832869
15681089480171902, 1568108948.0588126
15681089480794342, 1568108948.1201394
1568108948152458, 1568108948.180964
15681089482129467, 1568108948.2456026
1568108948277257, 1568108948.3225167
15681089483555639, 1568108948.3857024
15681089484176745, 1568108948.4454613
15681089484761472, 1568108948.5039105
15681089485362775, 1568108948.5618389
15681089485952656, 1568108948.6242747
1568108948656635, 1568108948.7010992
15681089487186468, 1568108948.756222
1568108948774428, 1568108948.816374
15681089488470185, 1568108948.8902822
1568108948919612, 1568108948.9452214
1568108948978588, 1568108949.0018897
15681089490360076, 1568108949.0593314
15681089490920596, 1568108949.1177812
15681089491463892, 1568108949.1927752
15681089492088032, 1568108949.2476978
15681089492805767, 1568108949.3057983
15681089493396604, 1568108949.3656232
15681089493936665, 1568108949.4215817
15681089494501503, 1568108949.4776087
15681089495072021, 1568108949.5320718
1568108949560842, 1568108949.5898678
15681089496183155, 1568108949.657764
1568108949689996, 1568108949.71438
15681089497462442, 1568108949.7728548
15681089498020415, 1568108949.8450608
15681089498617158, 1568108949.8842971
15681089499130235, 1568108949.9576285
15681089499899, 1568108950.0180402
15681089500454478, 1568108950.0739262
15681089501074915, 1568108950.1335733
15681089501684155, 1568108950.1934721
15681089502248323, 1568108950.2527914
1568108950284456, 1568108950.3109062
15681089503426697, 1568108950.3693504
15681089504016736, 1568108950.4275255
15681089504592693, 1568108950.5006604
15681089505338213, 1568108950.5594926
15681089505913746, 1568108950.6184835
15681089506519425, 1568108950.6776078
15681089507106154, 1568108950.7363505
15681089507698114, 1568108950.7961915
1568108950828686, 1568108950.8693926
1568108950904619, 1568108950.931985
15681089509655297, 1568108950.9922967
15681089510248241, 1568108951.0506783
15681089510842102, 1568108951.1309457
1568108951163706, 1568108951.1904526
15681089512267325, 1568108951.2508225
1568108951283666, 1568108951.3097227
1568108951342876, 1568108951.3693821
15681089514064767, 1568108951.4486465
1568108951483922, 1568108951.511032
15681089515470407, 1568108951.572828
15681089516060383, 1568108951.6324599
15681089516652849, 1568108951.7073855
15681089517424185, 1568108951.7692494
15681089518024447, 1568108951.8285334
15681089518630052, 1568108951.8881154
15681089519212332, 1568108951.9665766
1568108951999449, 1568108952.0258515
15681089520606854, 1568108952.0863636
15681089521214714, 1568108952.1460128
15681089521776738, 1568108952.2041574
15681089522372048, 1568108952.2651463
15681089522981675, 1568108952.3236096
1568108952355991, 1568108952.3823643
1568108952413904, 1568108952.4405062
15681089524734566, 1568108952.4995465
15681089525322669, 1568108952.5586278
15681089525931869, 1568108952.6183732
15681089526703713, 1568108952.697552
1568108952734401, 1568108952.75751
15681089527890658, 1568108952.8152945
15681089528473434, 1568108952.874188
15681089529059525, 1568108952.9480243
15681089529801385, 1568108953.006575
15681089530399163, 1568108953.0649152
15681089531021369, 1568108953.1273894
15681089531635418, 1568108953.1882918
15681089532218182, 1568108953.2496195
15681089532828524, 1568108953.310084
1568108953346664, 1568108953.3691707
1568108953407748, 1568108953.4510417
15681089534879012, 1568108953.513219
15681089535479035, 1568108953.5726817
15681089536067855, 1568108953.630902
15681089536668754, 1568108953.690708
15681089537249026, 1568108953.752553
15681089537906322, 1568108953.815581
15681089538458729, 1568108953.890154
15681089539252493, 1568108953.951222
15681089539844658, 1568108954.0092094
15681089540425422, 1568108954.070399
15681089541054564, 1568108954.1304617
15681089541675, 1568108954.1921515
15681089542243967, 1568108954.2500463
15681089542899368, 1568108954.3108544
15681089543403485, 1568108954.3662496
15681089543991885, 1568108954.4401047
1568108954476287, 1568108954.5139513
15681089545838282, 1568108954.6365237
15681089546757207, 1568108954.7059445
15681089547353091, 1568108954.76127
1568108954793325, 1568108954.8192055
1568108954856103, 1568108954.934916
15681089550027783, 1568108955.045527
15681089551080003, 1568108955.176995
1568108955259289, 1568108955.3295765
1568108955401768, 1568108955.476054
15681089555459397, 1568108955.6341906
15681089556648483, 1568108955.6908288
1568108955720113, 1568108955.7454467
15681089557949252, 1568108955.8209565
15681089558521519, 1568108955.878455
15681089559090316, 1568108955.935979
15681089559684927, 1568108955.995687
15681089560281916, 1568108956.0535626
1568108956082944, 1568108956.1093822
15681089561386404, 1568108956.1662645
15681089562018166, 1568108956.22792
