Tx,Ty,Tz,Pitch,Roll,Yaw,Timestamp
0.0,0.0,0.0,0.0,0.0,0.0,1568108941.555521
-0.0,-0.001,-0.0,-0.0,0.0,-0.0,1568108941.580818
0.0,-0.0,-0.0,-0.0,0.0,-0.0,1568108941.6210775
0.0,-0.0,-0.0,-0.0,-0.0,0.0,1568108941.701659
0.001,-0.0,-0.0,-0.0,-0.0,0.0,1568108941.7725525
0.001,-0.0,-0.0,-0.0,0.0,-0.0,1568108941.8356547
0.001,0.0,-0.0,-0.0,-0.0,0.0,1568108941.893839
0.001,0.0,-0.0,-0.0,-0.0,0.0,1568108941.9372075
0.001,0.0,-0.0,-0.0,-0.0,0.0,1568108942.0366924
0.001,0.0,-0.0,-0.0,-0.0,0.0,1568108942.1369574
0.001,0.0,-0.0,-0.0,-0.0,0.0,1568108942.2402413
0.001,0.0,-0.0,-0.0,-0.0,0.0,1568108942.3313482
0.001,0.0,-0.0,0.0,-0.0,0.0,1568108942.3504236
0.001,0.0,-0.001,0.0,-0.0,0.0,1568108942.42645
0.001,0.0,-0.001,0.0,-0.0,0.0,1568108942.4888248
0.001,0.0,-0.001,0.0,-0.0,0.0,1568108942.555924
0.001,0.0,-0.001,0.0,-0.0,0.0,1568108942.6028636
0.001,0.0,-0.001,0.0,-0.0,0.0,1568108942.6625085
0.001,0.001,-0.001,0.0,0.0,0.0,1568108942.6979723
0.001,0.001,-0.001,0.0,0.0,0.0,1568108942.7577107
0.001,0.001,-0.001,0.0,0.0,0.0,1568108942.81803
0.001,0.001,-0.001,0.0,0.0,0.0,1568108942.8821242
0.001,0.001,-0.001,0.0,0.0,0.0,1568108942.9870803
0.001,0.001,-0.001,0.0,0.0,0.0,1568108943.0022388
0.001,0.001,-0.001,0.0,0.0,0.0,1568108943.0679615
0.001,0.001,-0.001,0.0,0.0,0.0,1568108943.1314728
0.001,0.001,-0.001,0.0,0.0,0.0,1568108943.1723497
0.001,0.001,-0.001,0.0,0.0,0.0,1568108943.2122214
0.001,0.001,-0.001,0.0,0.0,0.0,1568108943.2753434
0.001,0.001,-0.001,0.0,0.0,0.0,1568108943.2920587
0.001,0.001,-0.001,0.0,0.0,0.0,1568108943.3559778
0.001,0.001,-0.001,0.0,0.0,0.0,1568108943.4155235
0.001,0.001,-0.001,0.0,0.0,0.0,1568108943.4757292
0.001,0.001,-0.001,0.0,0.0,0.0,1568108943.5342512
0.001,0.001,-0.001,0.0,0.0,0.0,1568108943.601954
0.001,0.001,-0.001,0.0,0.0,0.0,1568108943.640856
0.001,0.001,-0.001,0.0,0.0,0.0,1568108943.6789675
0.001,0.001,-0.001,0.0,0.0,0.0,1568108943.7429001
0.001,0.001,-0.001,0.0,0.0,0.0,1568108943.802901
0.001,0.001,-0.001,0.0,0.0,0.0,1568108943.8498015
0.001,0.001,-0.001,0.0,0.0,0.0,1568108943.90095
0.001,0.001,-0.001,0.0,0.0,0.0,1568108943.9702277
0.001,0.001,-0.001,0.0,0.0,0.0,1568108944.0216732
0.001,0.001,-0.001,0.0,0.0,0.0,1568108944.0833516
0.001,0.001,-0.001,0.0,0.0,0.0,1568108944.123244
0.001,0.001,-0.001,0.0,0.0,0.0,1568108944.1874003
0.001,0.001,-0.001,0.0,0.0,0.0,1568108944.2460842
0.001,0.001,-0.001,0.0,0.0,0.0,1568108944.310559
0.001,0.001,-0.001,0.0,0.0,0.0,1568108944.352214
0.001,0.001,-0.001,0.0,0.0,0.0,1568108944.3829417
0.001,0.001,-0.001,0.0,0.0,0.0,1568108944.4412704
0.001,0.001,-0.001,0.0,0.0,0.0,1568108944.498527
0.001,0.001,-0.001,0.0,0.0,0.0,1568108944.5564687
0.001,0.001,-0.001,0.0,0.0,0.0,1568108944.6138496
0.001,0.001,-0.001,0.0,0.0,0.0,1568108944.6807237
0.001,0.001,-0.001,0.0,0.0,0.0,1568108944.7403355
0.001,0.001,-0.001,0.0,0.0,0.0,1568108944.800328
0.001,0.001,-0.001,0.0,0.0,0.0,1568108944.8588364
0.001,0.001,-0.001,0.0,0.0,0.0,1568108944.9197507
0.001,0.001,-0.001,0.0,0.0,0.0,1568108944.954689
0.001,0.001,-0.001,0.0,0.0,0.0,1568108945.0126941
0.001,0.001,-0.001,0.0,0.0,0.0,1568108945.0503814
0.001,0.001,-0.001,0.0,0.0,0.0,1568108945.1084335
0.001,0.001,-0.001,0.0,0.0,0.0,1568108945.169104
0.001,0.001,-0.001,0.0,0.0,0.0,1568108945.229967
0.001,0.001,-0.001,0.0,0.0,0.0,1568108945.291693
0.001,0.001,-0.001,0.0,0.0,0.0,1568108945.3094642
0.001,0.001,-0.001,0.0,0.0,0.0,1568108945.3747866
0.001,0.001,-0.001,0.0,0.0,0.0,1568108945.422595
0.001,0.001,-0.001,0.0,0.0,0.0,1568108945.4582982
0.001,0.001,-0.001,0.0,0.0,0.0,1568108945.5197651
0.001,0.001,-0.001,0.0,0.0,0.0,1568108945.5844886
0.001,0.001,-0.001,0.0,0.0,0.0,1568108945.6447463
0.001,0.001,-0.001,0.0,0.0,0.0,1568108945.7061236
0.001,0.001,-0.001,0.0,0.0,0.0,1568108945.765695
0.001,0.001,-0.001,0.0,0.0,0.0,1568108945.7824361
0.001,0.001,-0.001,0.0,0.0,0.0,1568108945.8498926
0.001,0.001,-0.001,0.0,0.0,0.0,1568108945.9101474
0.001,0.001,-0.001,0.0,0.0,0.0,1568108945.9473834
0.001,0.001,-0.001,0.0,0.0,0.0,1568108945.9913874
0.001,0.001,-0.001,0.0,0.0,0.0,1568108946.050846
0.001,0.001,-0.001,0.0,0.0,0.0,1568108946.1110373
0.001,0.001,-0.001,0.0,0.0,0.0,1568108946.1749399
0.001,0.001,-0.001,0.0,0.0,0.0,1568108946.2352726
0.001,0.001,-0.001,0.0,0.0,0.0,1568108946.2947273
0.001,0.001,-0.001,0.0,0.0,0.0,1568108946.3286252
0.001,0.001,-0.001,0.0,0.0,0.0,1568108946.3698165
0.001,0.001,-0.001,0.0,0.0,0.0,1568108946.4274209
0.001,0.001,-0.001,0.0,0.0,0.0,1568108946.4859629
0.001,0.001,-0.002,0.0,0.0,0.0,1568108946.5417933
0.001,0.001,-0.002,0.0,0.0,0.0,1568108946.6025772
0.001,0.001,-0.002,0.0,0.0,0.0,1568108946.64514
0.001,0.001,-0.002,0.0,0.0,0.0,1568108946.677969
0.001,0.001,-0.002,0.0,0.0,0.0,1568108946.7375903
0.001,0.001,-0.001,0.0,0.0,0.0,1568108946.7981875
0.001,0.001,-0.001,0.0,0.0,0.0,1568108946.8617125
0.001,0.001,-0.001,0.0,0.0,0.0,1568108946.9248304
0.001,0.001,-0.001,0.0,0.0,0.0,1568108946.9870443
0.001,0.001,-0.001,0.0,0.0,0.0,1568108947.0476356
0.001,0.001,-0.001,0.0,0.0,0.0,1568108947.1042247
0.001,0.001,-0.001,0.0,0.0,0.0,1568108947.1236331
0.001,0.001,-0.001,0.0,0.0,0.0,1568108947.1877596
0.001,0.001,-0.001,0.0,0.0,0.0,1568108947.2494564
0.001,0.001,-0.001,0.0,0.0,0.0,1568108947.3068473
0.001,0.001,-0.001,0.0,0.0,0.0,1568108947.3682337
0.001,0.001,-0.001,0.0,0.0,0.0,1568108947.4298937
0.001,0.001,-0.001,0.0,0.0,0.0,1568108947.4738255
0.001,0.001,-0.001,0.0,0.0,0.0,1568108947.527263
0.001,0.001,-0.001,0.0,0.0,0.0,1568108947.5670874
0.001,0.001,-0.001,0.0,0.0,0.0,1568108947.6317384
0.001,0.001,-0.001,0.0,0.0,0.0,1568108947.6923695
0.001,0.001,-0.001,0.0,0.0,0.0,1568108947.7562177
0.001,0.001,-0.001,0.0,0.0,0.0,1568108947.8204298
0.001,0.001,-0.001,0.0,0.0,0.0,1568108947.881071
0.001,0.001,-0.001,0.0,0.0,0.0,1568108947.9384954
0.001,0.001,-0.001,0.0,0.0,0.0,1568108947.9994826
0.001,0.001,-0.001,0.0,0.0,0.0,1568108948.0171251
0.001,0.001,-0.001,0.0,0.0,0.0,1568108948.0792801
0.001,0.001,-0.001,0.0,0.0,0.0,1568108948.136469
0.001,0.001,-0.001,0.0,0.0,0.0,1568108948.197402
0.001,0.001,-0.001,0.0,0.0,0.0,1568108948.2608404
0.001,0.001,-0.001,0.0,0.0,0.0,1568108948.2771914
0.001,0.001,-0.001,0.0,0.0,0.0,1568108948.340023
0.001,0.001,-0.001,0.0,0.0,0.0,1568108948.4018075
0.001,0.001,-0.001,0.0,0.0,0.0,1568108948.46141
0.001,0.001,-0.001,0.0,0.0,0.0,1568108948.503794
0.001,0.001,-0.001,0.0,0.0,0.0,1568108948.5778985
0.001,0.001,-0.001,0.0,0.0,0.0,1568108948.6241581
0.001,0.001,-0.001,0.0,0.0,0.0,1568108948.6565187
0.001,0.001,-0.001,0.0,0.0,0.0,1568108948.718535
0.001,0.001,-0.001,0.0,0.0,0.0,1568108948.7743292
0.001,0.001,0.003,0.02,0.0,0.0,1568108948.8328056
0.003,0.001,0.008,0.09,-0.0,0.0,1568108948.9049861
0.013,0.0,0.003,0.11,0.0,0.01,1568108948.9602294
0.049,0.0,0.006,0.04,-0.0,0.0,1568108949.0181482
0.093,-0.003,0.027,0.1,-0.01,0.01,1568108949.0744088
0.155,-0.003,0.025,0.09,-0.01,0.01,1568108949.1118598
0.213,-0.005,0.045,0.04,-0.01,0.01,1568108949.1463232
0.27,-0.006,0.047,0.04,-0.01,0.01,1568108949.2086031
0.317,-0.003,0.063,0.07,-0.0,0.02,1568108949.2626061
0.333,-0.005,0.066,0.09,-0.0,0.02,1568108949.3219814
0.389,-0.004,0.07,0.1,-0.0,0.01,1568108949.3803833
0.481,-0.002,0.086,0.06,0.0,0.01,1568108949.4370415
0.551,-0.005,0.108,0.1,-0.01,0.01,1568108949.492303
0.654,-0.002,0.119,0.16,-0.0,0.02,1568108949.547459
0.755,-0.003,0.133,0.11,-0.0,0.02,1568108949.6045215
0.86,-0.006,0.161,0.07,-0.0,0.02,1568108949.6182492
0.991,-0.017,0.187,0.14,0.01,0.04,1568108949.6732743
1.064,-0.019,0.197,0.14,-0.01,0.03,1568108949.7289922
1.142,-0.022,0.21,0.11,-0.01,0.06,1568108949.7668414
1.263,-0.028,0.239,0.08,-0.01,0.05,1568108949.8019767
1.421,-0.045,0.271,0.15,-0.01,0.05,1568108949.8616126
1.549,-0.054,0.292,0.13,-0.01,0.07,1568108949.912957
1.684,-0.059,0.319,0.1,-0.02,0.07,1568108949.9732995
1.87,-0.082,0.369,0.13,-0.02,0.07,1568108950.032661
1.915,-0.079,0.375,0.16,-0.01,0.09,1568108950.0887644
2.064,-0.089,0.399,0.16,-0.01,0.07,1568108950.1481678
2.283,-0.109,0.445,0.16,-0.01,0.06,1568108950.2084668
2.458,-0.113,0.473,0.13,-0.0,0.05,1568108950.2675345
2.702,-0.116,0.541,0.17,-0.0,0.03,1568108950.3254967
2.897,-0.12,0.567,0.17,-0.0,0.01,1568108950.3841722
3.173,-0.129,0.621,0.15,0.0,0.02,1568108950.4423068
3.388,-0.133,0.671,0.11,-0.0,0.02,1568108950.4591265
3.678,-0.141,0.727,0.13,-0.0,0.02,1568108950.5166142
3.826,-0.144,0.759,0.13,-0.0,0.02,1568108950.5742464
4.052,-0.145,0.805,0.14,0.0,0.02,1568108950.633537
4.287,-0.157,0.851,0.14,0.0,0.02,1568108950.6742022
4.523,-0.162,0.891,0.1,-0.01,0.02,1568108950.736223
4.835,-0.18,0.96,0.08,0.0,0.01,1568108950.7898002
5.068,-0.179,1.006,0.1,-0.0,0.02,1568108950.828619
5.381,-0.184,1.071,0.11,0.01,0.03,1568108950.888581
5.701,-0.186,1.132,0.14,0.02,0.05,1568108950.9485724
5.784,-0.186,1.148,0.12,0.02,0.04,1568108951.007511
6.03,-0.194,1.206,0.11,0.03,0.05,1568108951.0486736
6.351,-0.209,1.275,0.12,0.01,0.04,1568108951.103888
6.584,-0.219,1.328,0.13,0.0,0.05,1568108951.145932
6.758,-0.229,1.365,0.17,0.03,0.07,1568108951.2076209
7.018,-0.237,1.405,0.13,0.01,0.06,1568108951.266521
7.383,-0.259,1.496,0.11,0.01,0.04,1568108951.3250215
7.649,-0.274,1.548,0.18,0.02,0.05,1568108951.3692455
8.0,-0.29,1.613,0.13,0.01,0.06,1568108951.4062319
8.282,-0.309,1.678,0.1,0.0,0.07,1568108951.465363
8.635,-0.323,1.755,0.13,0.01,0.09,1568108951.5288815
8.728,-0.331,1.773,0.14,0.01,0.08,1568108951.572706
9.097,-0.355,1.847,0.14,0.0,0.08,1568108951.6260028
9.391,-0.371,1.901,0.13,-0.0,0.07,1568108951.665174
9.784,-0.413,1.979,0.08,-0.0,0.07,1568108951.725573
10.184,-0.432,2.063,0.14,-0.0,0.08,1568108951.7846415
10.285,-0.443,2.086,0.15,-0.0,0.08,1568108951.8447196
10.585,-0.461,2.137,0.2,-0.01,0.09,1568108951.8813443
11.016,-0.505,2.231,0.13,-0.01,0.07,1568108951.9207888
11.356,-0.516,2.302,0.18,-0.01,0.07,1568108951.9816682
11.629,-0.546,2.349,0.19,0.0,0.04,1568108952.0424838
11.875,-0.551,2.395,0.14,-0.0,0.03,1568108952.1022768
12.353,-0.563,2.509,0.13,0.01,0.03,1568108952.1606944
12.712,-0.586,2.578,0.21,0.01,0.02,1568108952.219303
13.156,-0.596,2.669,0.14,0.01,0.01,1568108952.280768
13.543,-0.6,2.754,0.14,0.01,0.01,1568108952.3393853
14.048,-0.62,2.858,0.21,0.02,-0.0,1568108952.3972366
14.59,-0.632,2.969,0.17,0.02,0.0,1568108952.4562068
15.016,-0.657,3.069,0.17,0.01,0.0,1568108952.514564
15.501,-0.674,3.182,0.22,0.01,0.02,1568108952.5753703
15.933,-0.683,3.273,0.21,0.03,0.05,1568108952.5929697
16.501,-0.712,3.388,0.13,0.02,0.11,1568108952.6507733
16.858,-0.741,3.468,0.1,0.02,0.14,1568108952.7125432
17.08,-0.769,3.515,0.14,0.02,0.15,1568108952.7718418
17.437,-0.777,3.585,0.18,0.01,0.16,1568108952.8305135
17.977,-0.825,3.699,0.19,0.01,0.14,1568108952.8885767
18.426,-0.859,3.786,0.16,0.02,0.13,1568108952.9058301
18.873,-0.898,3.884,0.12,0.02,0.13,1568108952.9639006
19.306,-0.95,3.97,0.05,0.01,0.1,1568108953.02194
19.589,-0.981,4.038,0.04,0.01,0.09,1568108953.0824616
19.994,-1.017,4.138,0.02,0.01,0.09,1568108953.1434247
20.491,-1.052,4.248,0.03,0.02,0.08,1568108953.203991
20.958,-1.097,4.362,0.02,0.02,0.05,1568108953.2656038
21.303,-1.123,4.446,0.02,0.03,0.04,1568108953.3098824
21.739,-1.156,4.542,0.01,0.03,0.03,1568108953.3465824
22.141,-1.193,4.633,0.01,0.04,0.01,1568108953.407681
22.431,-1.215,4.697,0.01,0.03,0.0,1568108953.4679537
22.793,-1.244,4.779,-0.01,0.04,-0.02,1568108953.5299616
22.876,-1.246,4.805,0.0,0.04,-0.02,1568108953.588195
23.194,-1.269,4.876,0.01,0.04,-0.05,1568108953.6468709
23.419,-1.277,4.919,-0.0,0.05,-0.08,1568108953.7066395
23.684,-1.288,4.983,-0.01,0.06,-0.11,1568108953.7686777
23.86,-1.29,5.022,-0.0,0.08,-0.13,1568108953.8322432
24.07,-1.298,5.068,0.0,0.08,-0.18,1568108953.845705
24.253,-1.305,5.108,-0.0,0.09,-0.21,1568108953.9079585
24.372,-1.306,5.133,0.01,0.09,-0.24,1568108953.9666588
24.444,-1.306,5.152,-0.0,0.09,-0.26,1568108954.0265965
24.596,-1.308,5.185,0.0,0.1,-0.3,1568108954.086886
24.648,-1.308,5.196,0.0,0.1,-0.32,1568108954.1480756
24.712,-1.308,5.209,0.01,0.1,-0.34,1568108954.2092707
24.773,-1.304,5.227,0.0,0.1,-0.37,1568108954.2665215
24.813,-1.303,5.232,0.0,0.11,-0.4,1568108954.3026376
24.829,-1.3,5.237,0.01,0.12,-0.4,1568108954.3660243
24.831,-1.295,5.239,0.01,0.12,-0.4,1568108954.4175932
24.825,-1.293,5.239,0.02,0.13,-0.4,1568108954.4578843
24.82,-1.293,5.239,0.03,0.13,-0.4,1568108954.530571
24.817,-1.296,5.239,0.03,0.13,-0.4,1568108954.651717
24.815,-1.298,5.239,0.03,0.12,-0.4,1568108954.7214162
24.851,-1.314,5.238,0.04,0.12,-0.4,1568108954.7529824
24.821,-1.304,5.238,0.03,0.12,-0.4,1568108954.8120468
24.814,-1.3,5.239,0.03,0.12,-0.4,1568108954.8560412
24.813,-1.298,5.239,0.03,0.13,-0.4,1568108954.9518354
24.814,-1.297,5.239,0.03,0.13,-0.4,1568108955.0607395
24.814,-1.297,5.239,0.03,0.13,-0.4,1568108955.1937037
24.814,-1.296,5.24,0.03,0.13,-0.4,1568108955.346803
24.814,-1.296,5.24,0.04,0.12,-0.4,1568108955.4681768
24.814,-1.296,5.24,0.04,0.12,-0.4,1568108955.5457556
24.814,-1.296,5.24,0.04,0.13,-0.4,1568108955.6507034
24.814,-1.296,5.24,0.04,0.13,-0.4,1568108955.7064836
24.814,-1.296,5.24,0.04,0.12,-0.4,1568108955.7624722
24.814,-1.296,5.24,0.04,0.12,-0.4,1568108955.7767305
24.814,-1.296,5.24,0.04,0.12,-0.4,1568108955.8367796
24.814,-1.296,5.24,0.04,0.12,-0.4,1568108955.8944397
24.814,-1.296,5.24,0.04,0.12,-0.4,1568108955.9515
24.814,-1.296,5.24,0.04,0.12,-0.4,1568108956.0135214
24.814,-1.296,5.24,0.04,0.13,-0.4,1568108956.069488
24.814,-1.296,5.24,0.04,0.13,-0.4,1568108956.125249
24.814,-1.296,5.24,0.04,0.12,-0.4,1568108956.1842582
24.814,-1.296,5.24,0.04,0.12,-0.4,1568108956.2434263
