grab_timestamp, write_timestamp
1568109208732033, 1568109208.7728891
1568109208803279, 1568109208.8412752
15681092088771162, 1568109208.9131045
15681092089388828, 1568109208.9724689
15681092090103946, 1568109209.0359323
15681092090651593, 1568109209.1070154
1568109209138541, 1568109209.1750584
15681092092053254, 1568109209.274303
15681092092923336, 1568109209.3630626
15681092093974552, 1568109209.4282317
1568109209475274, 1568109209.5135949
15681092095555887, 1568109209.610427
15681092096409848, 1568109209.674854
15681092097061195, 1568109209.7408745
15681092097735827, 1568109209.8163388
1568109209864129, 1568109209.906308
15681092099513795, 1568109209.9925857
15681092100406437, 1568109210.111008
15681092101298807, 1568109210.192375
15681092102376506, 1568109210.2790453
15681092103255155, 1568109210.366407
15681092104131217, 1568109210.4821866
15681092105023375, 1568109210.563714
15681092106087582, 1568109210.649284
1568109210694771, 1568109210.7365794
15681092107871904, 1568109210.8279896
15681092108730462, 1568109210.9132335
15681092109580376, 1568109211.0262866
15681092110432498, 1568109211.1074512
15681092111532953, 1568109211.194512
1568109211241839, 1568109211.2834275
15681092113267248, 1568109211.3682659
1568109211411872, 1568109211.4533825
15681092114981985, 1568109211.565918
15681092116135497, 1568109211.6539428
15681092116994872, 1568109211.7405102
15681092117868695, 1568109211.8545337
156810921189957, 1568109211.94107
15681092119852536, 1568109212.0274298
1568109212072233, 1568109212.1128135
15681092121588335, 1568109212.19951
15681092122464635, 1568109212.2879808
1568109212332151, 1568109212.4003763
15681092124484355, 1568109212.4908867
1568109212538081, 1568109212.5834665
15681092126284711, 1568109212.6696339
15681092127143707, 1568109212.7789524
1568109212824444, 1568109212.8658068
15681092129093337, 1568109212.9500263
15681092129935462, 1568109213.0343194
15681092130774846, 1568109213.1469254
15681092131931, 1568109213.2335002
1568109213277906, 1568109213.3188426
15681092133632934, 1568109213.4008863
15681092134306726, 1568109213.4561982
15681092134859142, 1568109213.5131605
1568109213543967, 1568109213.5832422
15681092136202707, 1568109213.643478
15681092136773307, 1568109213.7038047
15681092137343395, 1568109213.7636633
15681092137941394, 1568109213.8341553
15681092138761322, 1568109213.9010668
1568109213934192, 1568109213.9626296
15681092140137153, 1568109214.0380025
15681092140715878, 1568109214.095203
15681092141285095, 1568109214.1541545
15681092141820374, 1568109214.2097669
15681092142380872, 1568109214.2663398
15681092142946239, 1568109214.321595
1568109214353473, 1568109214.3789394
15681092144323053, 1568109214.4584665
15681092144912508, 1568109214.5165057
15681092145483, 1568109214.57384
1568109214605911, 1568109214.6316442
15681092146637733, 1568109214.705901
1568109214739343, 1568109214.7649581
15681092147964032, 1568109214.8229773
15681092148564456, 1568109214.8824794
156810921491532, 1568109214.9407687
15681092149737003, 1568109214.9982326
15681092150297127, 1568109215.0725222
15681092150891364, 1568109215.1321251
15681092151643693, 1568109215.1904812
15681092152217643, 1568109215.2478065
15681092152801416, 1568109215.306182
15681092153395882, 1568109215.364405
1568109215396737, 1568109215.4385777
15681092154575193, 1568109215.5007102
1568109215532607, 1568109215.5586896
15681092155899384, 1568109215.6163847
15681092156495836, 1568109215.6758225
1568109215707681, 1568109215.7334256
15681092157659917, 1568109215.7920818
15681092158242333, 1568109215.8508503
15681092158825934, 1568109215.9250762
15681092159572022, 1568109215.9833817
1568109216017442, 1568109216.0431988
15681092160757456, 1568109216.1012483
15681092161337073, 1568109216.1596553
15681092161942425, 1568109216.2336998
15681092162679672, 1568109216.2936459
15681092163277223, 1568109216.3529298
1568109216386531, 1568109216.4125636
15681092164470806, 1568109216.4725246
15681092165053484, 1568109216.5320768
15681092165650263, 1568109216.6081102
15681092166253014, 1568109216.6643474
1568109216680421, 1568109216.7189624
156810921673664, 1568109216.779782
15681092168119297, 1568109216.8388898
15681092168717184, 1568109216.897797
15681092169322224, 1568109216.973452
15681092169916444, 1568109217.031063
15681092170661345, 1568109217.0929408
15681092171336272, 1568109217.1565583
15681092171912944, 1568109217.2182024
1568109217251257, 1568109217.2768521
15681092173123574, 1568109217.3400552
15681092173776662, 1568109217.402049
15681092174368744, 1568109217.4632711
15681092174991887, 1568109217.5248437
1568109217554607, 1568109217.587922
15681092176221008, 1568109217.667327
15681092177072613, 1568109217.7335684
15681092177691553, 1568109217.7951157
15681092178337374, 1568109217.8558416
1568109217897968, 1568109217.9236596
1568109217964647, 1568109217.9892004
15681092180527413, 1568109218.0937984
15681092181167412, 1568109218.154612
1568109218178198, 1568109218.2212825
15681092182572374, 1568109218.2895498
15681092183214462, 1568109218.3521557
15681092183871057, 1568109218.417815
15681092184525313, 1568109218.480088
15681092185128925, 1568109218.5398645
15681092185725203, 1568109218.6048455
15681092186449046, 1568109218.667392
15681092187054446, 1568109218.7290592
15681092187627015, 1568109218.8124976
15681092188566298, 1568109218.8995917
15681092189187608, 1568109218.9615793
15681092189822788, 1568109219.020464
15681092190551627, 1568109219.0831263
15681092191134832, 1568109219.14533
15681092191750705, 1568109219.204104
1568109219240013, 1568109219.2664728
15681092193027012, 1568109219.3299
1568109219366169, 1568109219.389569
15681092194247608, 1568109219.4717562
1568109219504741, 1568109219.53324
15681092195695736, 1568109219.5940707
15681092196162145, 1568109219.656106
15681092196894484, 1568109219.7202928
15681092197528007, 1568109219.779458
15681092198131194, 1568109219.8446605
15681092198779674, 1568109219.9059756
1568109219937196, 1568109219.983577
15681092200168705, 1568109220.0421143
1568109220061497, 1568109220.1047087
15681092201362317, 1568109220.1637895
1568109220198076, 1568109220.2240179
15681092202576075, 1568109220.2960389
156810922033337, 1568109220.3602507
15681092203924642, 1568109220.4195378
1568109220452053, 1568109220.477601
15681092205113971, 1568109220.5393462
15681092205689275, 1568109220.5952187
15681092206269834, 1568109220.6588595
1568109220689379, 1568109220.731703
15681092207505407, 1568109220.786482
15681092208071306, 1568109220.842967
15681092208794568, 1568109220.9049032
1568109220936367, 1568109220.9611883
15681092209957554, 1568109221.0233736
15681092210592484, 1568109221.083402
1568109221137361, 1568109221.1644888
15681092212019267, 1568109221.239952
15681092212593434, 1568109221.2939687
1568109221315256, 1568109221.3557425
15681092213867161, 1568109221.4261496
15681092214458706, 1568109221.4830384
15681092215015163, 1568109221.5418355
