grab_timestamp, write_timestamp
15681089842630818, 1568108984.2882159
1568108984319386, 1568108984.3523278
15681089843823614, 1568108984.4153214
15681089844651551, 1568108984.4897783
15681089845255601, 1568108984.553043
15681089845869412, 1568108984.6165192
15681089846344259, 1568108984.6758034
15681089846943412, 1568108984.7336116
15681089847518134, 1568108984.7787712
15681089848120852, 1568108984.842619
15681089848604045, 1568108984.9290395
15681089849464374, 1568108984.9905741
15681089850366528, 1568108985.0622141
1568108985096177, 1568108985.1215487
15681089851521733, 1568108985.1775026
15681089852079494, 1568108985.2444332
15681089852747884, 1568108985.3008294
15681089853319771, 1568108985.3571253
15681089853893375, 1568108985.4143336
1568108985445501, 1568108985.4754555
15681089855077035, 1568108985.5582683
1568108985596151, 1568108985.6401618
15681089856599255, 1568108985.7082229
1568108985743038, 1568108985.7699444
15681089858062963, 1568108985.849918
15681089858878787, 1568108985.9168231
15681089859525359, 1568108985.981778
15681089860141087, 1568108986.0419316
15681089860741467, 1568108986.1239257
15681089861560116, 1568108986.1863213
1568108986217835, 1568108986.2478456
15681089862841847, 1568108986.309725
156810898634624, 1568108986.3786547
15681089864145951, 1568108986.4453137
15681089864816566, 1568108986.5116746
15681089865475347, 1568108986.5982275
15681089866327522, 1568108986.6624668
15681089866961029, 1568108986.7267413
15681089867550104, 1568108986.783251
1568108986818051, 1568108986.8528109
15681089868999069, 1568108986.927927
15681089869852738, 1568108987.0122733
15681089870425334, 1568108987.0855227
15681089871243684, 1568108987.1540906
15681089871865284, 1568108987.2295063
15681089872609906, 1568108987.2865996
15681089873225763, 1568108987.351034
15681089874039464, 1568108987.4302697
15681089874656258, 1568108987.5044615
15681089875355682, 1568108987.5827415
15681089876174047, 1568108987.648416
15681089876811335, 1568108987.712131
15681089877465718, 1568108987.7752583
1568108987806429, 1568108987.8354194
15681089878664162, 1568108987.911708
15681089879452302, 1568108987.9717026
1568108988000376, 1568108988.0288665
1568108988058975, 1568108988.0871065
1568108988124981, 1568108988.1524174
15681089881850848, 1568108988.2320387
15681089882492645, 1568108988.290108
1568108988325382, 1568108988.3513124
15681089883867667, 1568108988.416386
15681089884500432, 1568108988.475178
15681089885177581, 1568108988.5407896
15681089885732253, 1568108988.6056857
15681089886355686, 1568108988.6644864
15681089886988204, 1568108988.723441
1568108988755025, 1568108988.7814112
15681089888097057, 1568108988.8371322
15681089888694878, 1568108988.8947914
15681089889235346, 1568108988.952495
15681089889817376, 1568108989.021851
15681089890384817, 1568108989.080006
1568108989112671, 1568108989.136516
1568108989170454, 1568108989.1947978
1568108989223277, 1568108989.251751
1568108989280458, 1568108989.3075747
1568108989337857, 1568108989.3765833
15681089894098482, 1568108989.4361615
1568108989471836, 1568108989.4955192
15681089895261781, 1568108989.5535305
1568108989588452, 1568108989.614336
15681089896469266, 1568108989.6886668
15681089897213705, 1568108989.748181
15681089897822633, 1568108989.808095
15681089898413846, 1568108989.8681493
15681089899039884, 1568108989.9308648
15681089899629688, 1568108989.9900804
1568108990024061, 1568108990.0674078
15681089900840423, 1568108990.126852
1568108990143098, 1568108990.166296
1568108990201099, 1568108990.22467
1568108990258794, 1568108990.2842832
15681089903198547, 1568108990.3451676
15681089903777106, 1568108990.4044783
15681089904413264, 1568108990.4633713
1568108990495834, 1568108990.52251
15681089905550148, 1568108990.582181
15681089906148179, 1568108990.6415823
15681089906755252, 1568108990.701909
15681089907364225, 1568108990.7623422
1568108990795566, 1568108990.821952
15681089908546216, 1568108990.881275
15681089909146295, 1568108990.958111
15681089909753146, 1568108991.0135171
1568108991049042, 1568108991.0758662
15681089911109328, 1568108991.1379437
15681089911719074, 1568108991.1957242
15681089912472878, 1568108991.2748458
15681089913086917, 1568108991.3350587
1568108991371424, 1568108991.39548
1568108991429941, 1568108991.4564102
15681089914905708, 1568108991.5328465
1568108991569008, 1568108991.596205
15681089916305842, 1568108991.657982
15681089916924057, 1568108991.718137
15681089917553148, 1568108991.781912
1568108991814973, 1568108991.8417866
1568108991875574, 1568108991.903153
15681089919370756, 1568108991.962604
1568108991994421, 1568108992.0374665
15681089920546217, 1568108992.0937977
15681089921104512, 1568108992.1548603
15681089921887047, 1568108992.213977
15681089922465887, 1568108992.2730849
15681089923062403, 1568108992.3333063
15681089923657928, 1568108992.3923888
15681089924286518, 1568108992.4506633
15681089924838758, 1568108992.5100944
15681089925627847, 1568108992.5899825
1568108992623336, 1568108992.6489005
1568108992681811, 1568108992.7081962
156810899274196, 1568108992.7694223
15681089928027475, 1568108992.8296006
15681089928626788, 1568108992.8906143
15681089929265943, 1568108992.9510815
15681089929849315, 1568108993.0104814
1568108993043637, 1568108993.0704567
15681089931043208, 1568108993.130011
15681089931647227, 1568108993.1918662
15681089932256162, 1568108993.2501647
15681089932888947, 1568108993.3110254
15681089933455086, 1568108993.3710659
15681089934057376, 1568108993.4288318
15681089934618244, 1568108993.4894345
15681089935202413, 1568108993.5481234
15681089935798287, 1568108993.619947
15681089936365933, 1568108993.6585355
15681089937093675, 1568108993.7379134
15681089937679498, 1568108993.7936015
15681089938277435, 1568108993.852418
15681089938825722, 1568108993.9105287
15681089939428053, 1568108993.972192
15681089940039973, 1568108994.049973
1568108994081383, 1568108994.1081398
1568108994139433, 1568108994.1664941
15681089941976702, 1568108994.2258873
1568108994259744, 1568108994.285715
15681089943320465, 1568108994.360375
15681089943912973, 1568108994.4170024
1568108994447559, 1568108994.474199
15681089945030146, 1568108994.5297437
15681089945586882, 1568108994.5849068
1568108994613888, 1568108994.6402278
15681089946694272, 1568108994.6945252
15681089947235103, 1568108994.7494235
15681089947828975, 1568108994.808338
15681089948380315, 1568108994.8644555
1568108994892622, 1568108994.9182243
15681089949487016, 1568108994.9743626
15681089950030758, 1568108995.0297432
15681089950602598, 1568108995.0863554
