Tx,Ty,Tz,Pitch,Roll,Yaw,Timestamp
0.0,0.0,0.0,0.0,0.0,0.0,1568108984.3108718
-0.001,0.0,-0.0,-0.0,-0.0,0.0,1568108984.372391
-0.002,0.001,-0.0,0.0,-0.0,0.0,1568108984.4470522
-0.002,0.001,-0.0,0.0,-0.0,0.0,1568108984.5110192
-0.002,0.001,-0.0,0.0,-0.0,0.0,1568108984.5527031
-0.003,0.001,-0.0,0.0,0.0,0.0,1568108984.6338542
-0.003,0.001,-0.0,0.0,-0.0,0.0,1568108984.6942158
-0.003,0.001,-0.0,0.0,-0.0,0.0,1568108984.7957113
-0.003,0.001,-0.0,0.0,-0.0,0.0,1568108984.8598895
-0.003,0.001,-0.0,0.0,-0.0,0.0,1568108984.946041
-0.003,0.001,-0.0,0.0,-0.0,0.0,1568108985.0079923
-0.003,0.001,-0.0,0.0,-0.0,0.0,1568108985.0620394
-0.003,0.001,-0.0,0.0,-0.0,0.0,1568108985.1135056
-0.004,0.001,-0.0,0.0,-0.0,0.0,1568108985.1690392
-0.004,0.001,-0.001,0.0,0.0,0.0,1568108985.2077837
-0.004,0.001,-0.001,0.0,0.0,0.0,1568108985.2618
-0.005,0.002,-0.001,0.0,0.0,0.0,1568108985.317313
-0.005,0.002,-0.001,0.0,0.0,0.0,1568108985.3749495
-0.005,0.002,-0.001,0.0,0.0,0.0,1568108985.430736
-0.005,0.002,-0.001,0.0,0.0,0.0,1568108985.4914653
-0.005,0.002,-0.001,0.0,0.0,0.0,1568108985.574756
-0.005,0.001,-0.001,0.0,-0.0,0.0,1568108985.5959945
-0.004,0.001,-0.001,0.0,0.0,0.0,1568108985.6598039
-0.004,0.001,-0.001,0.0,-0.0,0.0,1568108985.7244947
-0.004,0.001,-0.001,0.0,0.0,0.0,1568108985.786701
-0.004,0.001,-0.001,0.0,0.0,0.0,1568108985.8062334
-0.004,0.001,-0.0,0.0,0.0,0.0,1568108985.867199
-0.004,0.001,-0.0,0.0,0.0,0.0,1568108985.9340367
-0.004,0.002,-0.0,0.0,0.0,0.0,1568108985.997017
-0.004,0.002,-0.0,0.0,0.0,0.0,1568108986.0588472
-0.004,0.002,-0.0,0.0,0.0,0.0,1568108986.0739915
-0.004,0.002,-0.0,0.0,0.0,0.0,1568108986.1407752
-0.004,0.002,-0.0,0.0,0.0,0.0,1568108986.2021956
-0.004,0.002,-0.0,0.0,0.0,0.0,1568108986.2642493
-0.004,0.002,-0.0,0.0,0.0,0.0,1568108986.326179
-0.004,0.002,-0.0,0.0,0.0,0.0,1568108986.3784623
-0.004,0.002,-0.0,0.0,0.0,0.0,1568108986.445157
-0.004,0.002,-0.0,0.0,0.0,0.0,1568108986.5031092
-0.004,0.002,-0.0,0.0,0.0,0.0,1568108986.5473456
-0.004,0.002,-0.0,0.0,0.0,0.0,1568108986.6142275
-0.004,0.002,-0.0,0.0,0.0,0.0,1568108986.6782157
-0.004,0.002,-0.0,0.0,0.0,0.0,1568108986.7418773
-0.005,0.002,-0.001,0.0,0.0,0.0,1568108986.7985458
-0.004,0.002,-0.001,0.0,0.0,0.0,1568108986.8684006
-0.004,0.002,-0.001,0.0,0.0,0.0,1568108986.9451368
-0.004,0.002,-0.0,0.0,0.0,0.0,1568108986.9640589
-0.004,0.002,-0.0,0.0,0.0,0.0,1568108987.02771
-0.004,0.002,-0.0,0.0,0.0,0.0,1568108987.0424392
-0.004,0.002,-0.0,0.0,0.0,0.0,1568108987.1046853
-0.004,0.002,-0.0,0.0,-0.0,0.0,1568108987.1690524
-0.004,0.002,-0.0,0.0,0.0,0.0,1568108987.1864154
-0.004,0.002,-0.0,0.0,0.0,0.0,1568108987.2472558
-0.004,0.002,-0.0,0.0,0.0,0.0,1568108987.3025434
-0.005,0.002,-0.001,0.0,0.0,0.0,1568108987.3661397
-0.004,0.002,-0.001,0.0,0.0,0.0,1568108987.383676
-0.005,0.002,-0.001,0.0,0.0,0.0,1568108987.4465497
-0.005,0.002,-0.001,0.0,0.0,0.0,1568108987.5199194
-0.005,0.002,-0.001,0.0,0.0,0.0,1568108987.5355008
-0.004,0.002,-0.001,0.0,-0.0,0.0,1568108987.599037
-0.004,0.002,-0.001,0.0,0.0,0.0,1568108987.664134
-0.004,0.002,-0.001,0.0,0.0,0.0,1568108987.727642
-0.004,0.002,-0.0,0.0,0.0,0.0,1568108987.7908132
-0.004,0.002,-0.0,0.0,0.0,0.0,1568108987.8269863
-0.004,0.002,-0.0,0.0,0.0,0.0,1568108987.866349
-0.004,0.002,-0.0,0.0,0.0,0.0,1568108987.9279182
-0.004,0.002,-0.0,0.0,0.0,0.0,1568108987.98754
-0.004,0.002,-0.001,0.0,0.0,0.0,1568108988.0445862
-0.004,0.002,-0.001,0.0,0.0,0.0,1568108988.103818
-0.004,0.002,-0.001,0.0,0.0,0.0,1568108988.1454928
-0.004,0.002,-0.001,0.0,0.0,0.0,1568108988.1849968
-0.004,0.002,-0.001,0.0,0.0,0.0,1568108988.2490258
-0.005,0.002,-0.001,0.0,0.0,0.0,1568108988.3054724
-0.005,0.002,-0.001,0.0,0.0,0.0,1568108988.3672118
-0.005,0.002,-0.001,0.0,0.0,0.0,1568108988.4324985
-0.005,0.002,-0.001,-0.01,0.0,0.0,1568108988.4914749
-0.004,0.001,0.011,0.1,0.0,0.01,1568108988.5558043
0.017,0.001,0.006,0.12,0.01,0.01,1568108988.621135
0.08,-0.003,0.016,0.05,0.0,0.02,1568108988.681227
0.143,-0.009,0.033,0.11,0.0,0.02,1568108988.738292
0.205,-0.01,0.031,0.12,0.0,0.03,1568108988.7959418
0.311,-0.014,0.054,0.04,0.0,0.03,1568108988.8525426
0.41,-0.012,0.072,0.13,0.01,0.04,1568108988.9095862
0.572,-0.012,0.098,0.04,0.0,0.02,1568108988.968225
0.606,-0.019,0.115,0.08,-0.0,0.01,1568108988.9816713
0.737,-0.01,0.112,0.14,0.01,-0.0,1568108989.038279
0.86,-0.005,0.139,0.04,0.02,-0.01,1568108989.0955184
0.928,-0.009,0.16,0.08,0.01,-0.02,1568108989.1512253
1.031,-0.005,0.174,0.14,0.01,-0.02,1568108989.2100055
1.151,-0.002,0.193,0.11,0.01,-0.01,1568108989.2450318
1.277,-0.001,0.212,0.07,-0.0,-0.02,1568108989.2803934
1.444,0.002,0.255,0.11,0.01,0.01,1568108989.337791
1.568,0.003,0.266,0.14,0.01,-0.0,1568108989.3928206
1.661,0.003,0.277,0.09,0.01,0.02,1568108989.4514294
1.806,0.001,0.317,0.07,-0.0,0.02,1568108989.5117493
1.944,-0.007,0.334,0.13,0.0,-0.0,1568108989.547886
2.09,-0.018,0.36,0.11,-0.0,0.01,1568108989.6076877
2.293,-0.011,0.397,0.06,-0.01,0.01,1568108989.646855
2.442,-0.021,0.428,0.11,-0.01,0.01,1568108989.7050495
2.597,-0.018,0.452,0.12,-0.01,0.03,1568108989.7635083
2.707,-0.023,0.469,0.11,-0.0,0.03,1568108989.8231006
2.88,-0.028,0.5,0.1,-0.02,0.04,1568108989.885577
3.119,-0.044,0.544,0.12,-0.01,0.04,1568108989.9456756
3.374,-0.048,0.588,0.11,-0.03,0.03,1568108989.9899595
3.574,-0.05,0.626,0.14,-0.02,0.04,1568108990.0239916
3.848,-0.059,0.673,0.15,-0.01,0.05,1568108990.0839362
4.149,-0.073,0.725,0.09,-0.01,0.02,1568108990.1430342
4.378,-0.072,0.768,0.09,-0.01,0.02,1568108990.2393482
4.614,-0.064,0.815,0.1,-0.01,0.0,1568108990.3011448
4.942,-0.064,0.872,0.14,0.01,-0.01,1568108990.3606534
5.274,-0.063,0.935,0.14,0.0,-0.04,1568108990.419404
5.538,-0.034,0.975,0.13,0.02,-0.04,1568108990.4785194
5.905,-0.037,1.052,0.11,0.02,-0.05,1568108990.537907
6.166,-0.025,1.092,0.14,0.01,-0.07,1568108990.5970688
6.686,0.027,1.195,0.12,0.03,-0.07,1568108990.658013
6.789,0.007,1.211,0.13,0.02,-0.09,1568108990.7168863
7.154,0.046,1.282,0.1,0.04,-0.05,1568108990.7622218
7.536,0.055,1.358,0.1,0.03,-0.06,1568108990.8217592
7.831,0.072,1.416,0.12,0.03,-0.04,1568108990.8811548
8.218,0.08,1.482,0.1,0.03,0.0,1568108990.9145608
8.527,0.087,1.542,0.09,0.03,0.03,1568108990.975251
8.918,0.099,1.614,0.13,0.02,0.05,1568108991.0316372
9.233,0.104,1.663,0.11,0.02,0.05,1568108991.0920415
9.447,0.093,1.697,0.07,0.02,0.06,1568108991.1532805
9.77,0.092,1.766,0.06,0.02,0.06,1568108991.2108495
10.186,0.08,1.836,0.14,-0.0,0.03,1568108991.2286818
10.507,0.066,1.886,0.13,-0.01,0.04,1568108991.2904236
10.729,0.066,1.925,0.09,-0.01,0.06,1568108991.3521354
11.065,0.049,1.997,0.08,-0.01,0.05,1568108991.4112647
11.389,0.031,2.057,0.14,0.0,0.06,1568108991.449889
11.83,0.007,2.123,0.1,0.01,0.07,1568108991.4904027
12.275,-0.013,2.213,0.08,-0.0,0.08,1568108991.5517857
12.603,-0.039,2.269,0.13,-0.0,0.08,1568108991.613538
12.824,-0.052,2.307,0.13,0.0,0.09,1568108991.67312
13.172,-0.081,2.367,0.11,0.0,0.09,1568108991.73705
13.622,-0.112,2.462,0.15,0.01,0.07,1568108991.797389
13.975,-0.148,2.524,0.17,0.01,0.07,1568108991.8572934
14.463,-0.173,2.616,0.12,0.01,0.07,1568108991.8958054
14.966,-0.21,2.722,0.16,0.0,0.07,1568108991.9560938
15.352,-0.255,2.788,0.19,0.01,0.06,1568108991.994355
15.845,-0.293,2.894,0.19,0.0,0.06,1568108992.0544646
16.376,-0.331,2.988,0.12,0.01,0.06,1568108992.110133
16.76,-0.365,3.065,0.1,0.01,0.06,1568108992.1702769
16.892,-0.362,3.094,0.11,0.01,0.07,1568108992.2290187
17.407,-0.391,3.179,0.17,0.02,0.06,1568108992.287897
17.827,-0.425,3.258,0.13,0.03,0.06,1568108992.3331368
18.347,-0.464,3.367,0.16,0.04,0.07,1568108992.40644
18.729,-0.484,3.435,0.17,0.03,0.05,1568108992.4441733
19.264,-0.511,3.535,0.14,0.03,0.05,1568108992.5099711
19.686,-0.54,3.622,0.11,0.04,0.06,1568108992.5423205
20.088,-0.553,3.692,0.04,0.04,0.08,1568108992.6057315
20.49,-0.589,3.788,0.03,0.03,0.07,1568108992.6646008
20.871,-0.623,3.885,0.03,0.02,0.07,1568108992.7238057
21.237,-0.641,3.948,0.04,0.02,0.07,1568108992.7848208
21.702,-0.664,4.06,0.02,0.02,0.06,1568108992.845665
22.046,-0.686,4.134,0.0,0.03,0.05,1568108992.9078248
22.468,-0.709,4.219,-0.0,0.04,0.04,1568108992.966335
22.87,-0.723,4.298,-0.01,0.05,0.02,1568108993.0260346
23.151,-0.74,4.363,-0.0,0.05,0.0,1568108993.0861151
23.499,-0.754,4.435,-0.0,0.06,-0.01,1568108993.1468444
23.752,-0.776,4.48,-0.03,0.05,-0.04,1568108993.2075603
24.05,-0.781,4.541,-0.02,0.05,-0.06,1568108993.2657595
24.327,-0.793,4.6,-0.03,0.06,-0.07,1568108993.3268602
24.513,-0.802,4.636,-0.01,0.06,-0.1,1568108993.3862722
24.736,-0.809,4.686,-0.01,0.07,-0.12,1568108993.4444113
24.928,-0.812,4.727,-0.0,0.08,-0.14,1568108993.506495
25.055,-0.814,4.756,-0.0,0.08,-0.15,1568108993.5417883
25.168,-0.817,4.781,-0.01,0.09,-0.17,1568108993.600591
25.292,-0.817,4.808,-0.0,0.09,-0.18,1568108993.6364884
25.394,-0.817,4.83,-0.01,0.09,-0.19,1568108993.6935234
25.414,-0.817,4.834,-0.0,0.09,-0.19,1568108993.753751
25.485,-0.817,4.844,-0.01,0.08,-0.2,1568108993.8090606
25.51,-0.814,4.853,-0.01,0.09,-0.2,1568108993.8682373
25.542,-0.809,4.859,-0.01,0.09,-0.19,1568108993.9283063
25.55,-0.804,4.859,-0.01,0.09,-0.19,1568108993.9720435
25.548,-0.801,4.861,-0.0,0.1,-0.2,1568108994.0039024
25.543,-0.801,4.861,0.01,0.1,-0.2,1568108994.065699
25.539,-0.801,4.861,0.01,0.1,-0.19,1568108994.1235979
25.536,-0.801,4.861,0.02,0.1,-0.19,1568108994.1820512
25.532,-0.803,4.861,0.02,0.1,-0.19,1568108994.2174704
25.53,-0.804,4.861,0.02,0.1,-0.19,1568108994.2775922
25.528,-0.805,4.86,0.02,0.1,-0.19,1568108994.3143888
25.527,-0.805,4.86,0.02,0.1,-0.19,1568108994.3772023
25.527,-0.806,4.86,0.02,0.1,-0.19,1568108994.4329338
25.526,-0.806,4.86,0.02,0.1,-0.19,1568108994.489311
25.526,-0.806,4.86,0.02,0.1,-0.19,1568108994.5453207
25.527,-0.806,4.86,0.02,0.1,-0.19,1568108994.6006656
25.528,-0.805,4.86,0.02,0.1,-0.19,1568108994.6554744
25.529,-0.805,4.86,0.02,0.1,-0.19,1568108994.710255
25.529,-0.804,4.86,0.02,0.1,-0.19,1568108994.7679248
25.53,-0.804,4.86,0.02,0.1,-0.19,1568108994.824039
25.531,-0.803,4.86,0.02,0.1,-0.19,1568108994.8799458
25.531,-0.803,4.861,0.02,0.1,-0.19,1568108994.9341443
25.531,-0.802,4.861,0.02,0.1,-0.19,1568108994.989576
25.532,-0.802,4.861,0.02,0.1,-0.19,1568108995.0456517
25.532,-0.802,4.861,0.02,0.1,-0.19,1568108995.1028166
