grab_timestamp, write_timestamp
15681094849328902, 1568109484.9531305
15681094849838488, 1568109485.0163069
15681094850477622, 1568109485.0859277
15681094851160316, 1568109485.1540902
15681094852011275, 1568109485.2315588
15681094852626083, 1568109485.2915757
15681094853092859, 1568109485.3492923
15681094853814297, 1568109485.4089997
15681094854631913, 1568109485.5127766
15681094855662608, 1568109485.5959146
15681094856665814, 1568109485.6968303
15681094857300742, 1568109485.759989
15681094857903426, 1568109485.8214662
15681094858558402, 1568109485.8862205
15681094859239686, 1568109485.9712412
15681094860205526, 1568109486.0495522
1568109486105492, 1568109486.1584508
1568109486185746, 1568109486.2119706
15681094862408473, 1568109486.2692049
15681094863046985, 1568109486.3333619
15681094863655052, 1568109486.3935995
15681094864256096, 1568109486.4543695
15681094864844658, 1568109486.5125854
156810948654601, 1568109486.5754716
15681094866089694, 1568109486.6388483
15681094866710136, 1568109486.7014184
1568109486734929, 1568109486.7785923
1568109486810596, 1568109486.8386123
15681094868754573, 1568109486.901342
15681094869322038, 1568109486.960568
156810948699237, 1568109487.0195842
15681094870491743, 1568109487.0906718
1568109487127983, 1568109487.1602895
15681094871953056, 1568109487.221287
15681094872508206, 1568109487.2792137
15681094873131003, 1568109487.3406193
15681094873733773, 1568109487.4240966
15681094874550617, 1568109487.4836686
15681094875157435, 1568109487.5437353
15681094875735688, 1568109487.600377
1568109487633384, 1568109487.6620488
15681094876942632, 1568109487.7254338
15681094877564998, 1568109487.782709
15681094878152945, 1568109487.8566782
15681094878892002, 1568109487.9170809
15681094879492328, 1568109487.9771757
15681094880108738, 1568109488.0373533
15681094880667682, 1568109488.095934
15681094881310198, 1568109488.1586077
15681094881923797, 1568109488.224315
1568109488258105, 1568109488.2895763
15681094883439374, 1568109488.3720746
15681094884029496, 1568109488.4303741
15681094884642282, 1568109488.4931316
15681094885289278, 1568109488.5600107
15681094885919204, 1568109488.62028
15681094886532466, 1568109488.6803668
15681094887155457, 1568109488.7425508
1568109488775605, 1568109488.8095202
1568109488844052, 1568109488.8767307
15681094889107273, 1568109488.9382722
15681094889705772, 1568109488.9961786
15681094890242894, 1568109489.0514925
15681094890796437, 1568109489.1071918
15681094891365817, 1568109489.1819515
15681094891986198, 1568109489.2324002
15681094892487326, 1568109489.2861733
15681094893145082, 1568109489.3428802
15681094893705428, 1568109489.3984802
15681094894291425, 1568109489.4560733
15681094894847884, 1568109489.5122137
15681094895413084, 1568109489.580032
15681094896128647, 1568109489.6379285
15681094896698947, 1568109489.696663
15681094897271078, 1568109489.7553272
15681094897846544, 1568109489.8122509
1568109489842145, 1568109489.8706737
1568109489901995, 1568109489.9299705
15681094899589603, 1568109489.9853542
15681094900146577, 1568109490.0413492
15681094900698698, 1568109490.1098988
15681094901434662, 1568109490.1690383
15681094901994152, 1568109490.2263913
15681094902558205, 1568109490.2844818
15681094903173246, 1568109490.343662
15681094903758404, 1568109490.402606
15681094904349651, 1568109490.4595091
15681094904909146, 1568109490.5181115
15681094905492597, 1568109490.575542
15681094906069267, 1568109490.63332
15681094906659665, 1568109490.6919327
15681094907245605, 1568109490.766116
15681094907994902, 1568109490.8249083
15681094908589919, 1568109490.884755
15681094909167838, 1568109490.9579108
1568109490973821, 1568109491.016987
15681094910498633, 1568109491.075052
15681094911071184, 1568109491.1501224
15681094911828313, 1568109491.2107773
15681094912428563, 1568109491.268268
15681094913014112, 1568109491.3277779
15681094913601766, 1568109491.4017532
15681094914350483, 1568109491.4618683
15681094914940898, 1568109491.5191865
15681094915533705, 1568109491.5797722
15681094916118858, 1568109491.6375859
1568109491669655, 1568109491.7120168
15681094917448292, 1568109491.7708707
1568109491805478, 1568109491.8291998
15681094918619366, 1568109491.8874543
15681094919192383, 1568109491.944742
15681094919776664, 1568109492.002284
15681094920361469, 1568109492.0786152
15681094921102448, 1568109492.1373568
15681094921716568, 1568109492.1971443
15681094922292554, 1568109492.2563307
15681094922890801, 1568109492.315621
1568109492348138, 1568109492.373952
15681094924063053, 1568109492.4316936
15681094924648414, 1568109492.505261
1568109492522213, 1568109492.566897
15681094926044805, 1568109492.62598
15681094926579325, 1568109492.6859124
1568109492722454, 1568109492.7487948
15681094928003616, 1568109492.8282564
1568109492856919, 1568109492.8834102
15681094929117653, 1568109492.9400067
15681094929762259, 1568109493.0145655
15681094930314226, 1568109493.069408
15681094931039772, 1568109493.1280234
1568109493160813, 1568109493.1874993
15681094932238748, 1568109493.2458527
15681094932793095, 1568109493.3253028
15681094933608186, 1568109493.3861954
1568109493419572, 1568109493.4456522
15681094934791296, 1568109493.5049462
15681094935431173, 1568109493.5652144
15681094935993876, 1568109493.6243312
15681094936576934, 1568109493.6836402
15681094937167375, 1568109493.742061
15681094937777243, 1568109493.8011103
1568109493834227, 1568109493.8596523
1568109493894919, 1568109493.918158
15681094939521642, 1568109493.9773397
15681094940114596, 1568109494.0380852
1568109494071995, 1568109494.0968301
15681094941304896, 1568109494.1582582
15681094941900856, 1568109494.2181783
15681094942482963, 1568109494.2763755
15681094943113942, 1568109494.3595781
15681094943962162, 1568109494.4178255
1568109494447553, 1568109494.4754446
1568109494505314, 1568109494.5320678
15681094945617828, 1568109494.5894587
15681094946184154, 1568109494.6603212
15681094946921473, 1568109494.7186317
15681094947482855, 1568109494.7767994
1568109494809139, 1568109494.8379097
15681094948675852, 1568109494.893895
15681094949266791, 1568109494.9644277
15681094949967234, 1568109495.023003
15681094950532804, 1568109495.0795906
15681094951109164, 1568109495.148583
1568109495172635, 1568109495.2067463
15681094952380738, 1568109495.2653902
15681094952962434, 1568109495.3338203
1568109495355721, 1568109495.395243
15681094954261456, 1568109495.4518375
1568109495482312, 1568109495.508841
15681094955578368, 1568109495.584873
1568109495615866, 1568109495.6413827
1568109495671895, 1568109495.6978047
15681094957279456, 1568109495.7554991
1568109495785073, 1568109495.8224983
15681094958541288, 1568109495.8810928
15681094958984623, 1568109495.9323788
15681094959680445, 1568109495.993104
15681094960397203, 1568109496.066454
1568109496095476, 1568109496.121397
15681094961526072, 1568109496.176584
1568109496208187, 1568109496.2331243
15681094962621777, 1568109496.2880228
15681094963181975, 1568109496.344041
15681094963739364, 1568109496.3993185
15681094964283633, 1568109496.4543636
15681094964839888, 1568109496.5105255
15681094965417721, 1568109496.5669956
1568109496596385, 1568109496.6225207
15681094966522415, 1568109496.6779652
1568109496708088, 1568109496.7341206
15681094967643988, 1568109496.8015518
15681094968327296, 1568109496.859589
15681094968893101, 1568109496.9144442
15681094969441187, 1568109496.9692621
15681094969998188, 1568109497.0366647
15681094970556056, 1568109497.0952377
15681094971253943, 1568109497.1514287
15681094971809893, 1568109497.2070684
1568109497239273, 1568109497.2630875
15681094972922149, 1568109497.3369467
15681094973682303, 1568109497.406021
15681094974243615, 1568109497.463475
1568109497493244, 1568109497.5189638
15681094975485613, 1568109497.5742679
15681094976043284, 1568109497.6297047
1568109497659384, 1568109497.6955175
15681094977262123, 1568109497.7527413
15681094977817729, 1568109497.807866
15681094978379886, 1568109497.8633444
15681094978924134, 1568109497.9178815
15681094979466896, 1568109497.9841805
1568109498016876, 1568109498.0426447
15681094980723038, 1568109498.1094332
15681094981400733, 1568109498.166104
