grab_timestamp, write_timestamp
15681100895550618, 1568110089.5747097
15681100896020904, 1568110089.6293576
15681100896721365, 1568110089.7367964
1568110089766591, 1568110089.7951705
15681100898481262, 1568110089.884385
15681100899163668, 1568110089.9433122
15681100899838455, 1568110090.0251808
15681100900639138, 1568110090.1019123
15681100901443975, 1568110090.186688
15681100902306447, 1568110090.2728267
1568110090317295, 1568110090.357166
15681100904010954, 1568110090.433838
15681100904805396, 1568110090.5300465
1568110090548852, 1568110090.601361
15681100906444533, 1568110090.6856492
15681100907430456, 1568110090.8064325
15681100908515372, 1568110090.8909755
15681100909357002, 1568110090.9776897
15681100910211549, 1568110091.0652633
15681100911093023, 1568110091.1520627
15681100912040524, 1568110091.246522
15681100912940176, 1568110091.3381257
15681100913825972, 1568110091.427021
15681100914760435, 1568110091.5200198
15681100915695949, 1568110091.6368103
15681100916808946, 1568110091.724479
15681100917702577, 1568110091.8081362
15681100918512359, 1568110091.8936791
15681100919375842, 1568110091.9765522
1568110092020615, 1568110092.0590596
1568110092109842, 1568110092.1798239
156811009222308, 1568110092.26288
1568110092306144, 1568110092.3444314
15681100923865626, 1568110092.4490304
15681100924909286, 1568110092.529799
156811009257384, 1568110092.6121087
15681100926580544, 1568110092.6963303
1568110092738322, 1568110092.8010492
15681100928421803, 1568110092.8809392
15681100929224796, 1568110092.9616237
15681100930022683, 1568110093.042016
15681100930855782, 1568110093.1244328
15681100931699083, 1568110093.2081673
1568110093249893, 1568110093.3134468
15681100933624306, 1568110093.4026134
15681100934461942, 1568110093.4847467
15681100935273905, 1568110093.6000402
1568110093618017, 1568110093.6765354
15681100937200081, 1568110093.7586753
15681100938019934, 1568110093.8398726
15681100938818977, 1568110093.9202967
1568110093957214, 1568110093.9963439
15681100940400662, 1568110094.092111
15681100941268156, 1568110094.151549
15681100941923041, 1568110094.2120297
15681100942451613, 1568110094.269472
15681100943034065, 1568110094.3281038
15681100943565364, 1568110094.3836787
15681100944114473, 1568110094.4390664
15681100944682066, 1568110094.4950395
15681100945253017, 1568110094.5653808
15681100946011837, 1568110094.6265078
15681100946553495, 1568110094.683626
15681100947135239, 1568110094.7418718
15681100947716446, 1568110094.81131
15681100948468816, 1568110094.870889
15681100949047663, 1568110094.9287398
1568110094957559, 1568110094.9855247
15681100950193498, 1568110095.044175
1568110095078103, 1568110095.1034737
15681100951375284, 1568110095.1624093
15681100952019565, 1568110095.2279952
15681100952600462, 1568110095.2874377
15681100953242486, 1568110095.353391
15681100953862822, 1568110095.412433
15681100954458325, 1568110095.4722943
1568110095508127, 1568110095.548394
15681100955659742, 1568110095.5888166
15681100956425655, 1568110095.6691139
1568110095702197, 1568110095.7288535
15681100957616649, 1568110095.7895
15681100958210323, 1568110095.8635368
15681100958981235, 1568110095.9265342
15681100959594362, 1568110095.98435
1568110096019624, 1568110096.0453334
1568110096077713, 1568110096.1037343
15681100961375973, 1568110096.1629624
15681100961945908, 1568110096.2214181
15681100962580392, 1568110096.2833807
1568110096320052, 1568110096.3479729
15681100963800962, 1568110096.4061642
15681100964385087, 1568110096.463785
15681100964988396, 1568110096.525751
15681100965581338, 1568110096.5874772
15681100966241405, 1568110096.6506076
15681100966832378, 1568110096.7276113
15681100967626216, 1568110096.7881405
15681100968225436, 1568110096.8495018
1568110096883812, 1568110096.910534
1568110096943969, 1568110096.9716177
15681100970051243, 1568110097.031625
15681100970697663, 1568110097.1196485
1568110097152468, 1568110097.1789849
1568110097211212, 1568110097.2365277
15681100972697897, 1568110097.2956507
1568110097330991, 1568110097.3569078
15681100973931158, 1568110097.4179869
1568110097450758, 1568110097.4763093
15681100975096827, 1568110097.535431
15681100975698793, 1568110097.6124158
15681100976289346, 1568110097.651454
15681100976841416, 1568110097.7262647
15681100977608693, 1568110097.7875476
15681100978215082, 1568110097.8469675
15681100978832924, 1568110097.9032521
1568110097937241, 1568110097.9788792
15681100980136898, 1568110098.0427308
15681100980858462, 1568110098.112051
15681100981466537, 1568110098.1760433
15681100982117302, 1568110098.2381124
1568110098275646, 1568110098.3016713
15681100983406484, 1568110098.3670707
15681100984126713, 1568110098.4375055
1568110098480636, 1568110098.5055792
15681100985614355, 1568110098.5894132
15681100986254904, 1568110098.6527803
15681100986910071, 1568110098.7226722
15681100987680292, 1568110098.7928603
15681100988368967, 1568110098.8874488
1568110098924829, 1568110098.9561005
15681100990000005, 1568110099.0266232
15681100990479865, 1568110099.098973
15681100991184828, 1568110099.1395614
1568110099178807, 1568110099.2267005
15681100992706494, 1568110099.296365
15681100993339162, 1568110099.3602438
15681100993984432, 1568110099.4229774
15681100994582126, 1568110099.4897597
1568110099525145, 1568110099.551894
1568110099586074, 1568110099.612764
1568110099657974, 1568110099.687198
15681100997215855, 1568110099.7610383
15681100997800312, 1568110099.81867
15681100998380756, 1568110099.8712904
1568110099907707, 1568110099.934534
15681100999662888, 1568110099.9933302
15681101000278704, 1568110100.0568507
1568110100088534, 1568110100.1334283
15681101001528285, 1568110100.1874766
1568110100208878, 1568110100.2523162
15681101002853262, 1568110100.3116996
15681101003493245, 1568110100.3739762
15681101003926823, 1568110100.4348373
1568110100453484, 1568110100.487653
1568110100506573, 1568110100.545488
15681101005649, 1568110100.608344
15681101006625533, 1568110100.6878157
15681101007221203, 1568110100.7512696
15681101007838242, 1568110100.8224049
15681101008544257, 1568110100.8834352
15681101009185638, 1568110100.9480245
1568110100978756, 1568110101.005213
15681101010356946, 1568110101.060892
15681101010930603, 1568110101.1211278
15681101011529214, 1568110101.1904294
15681101012095163, 1568110101.245111
15681101012797015, 1568110101.3055527
15681101013373601, 1568110101.3629293
15681101013993452, 1568110101.4282951
15681101014633255, 1568110101.4883196
1568110101521753, 1568110101.5477633
156811010158128, 1568110101.6112578
15681101016463573, 1568110101.6955674
15681101017276497, 1568110101.7549696
15681101017893636, 1568110101.8170168
15681101018515348, 1568110101.8773541
15681101019090426, 1568110101.936306
15681101019669201, 1568110101.9942617
1568110102025867, 1568110102.0572147
156811010209083, 1568110102.117089
15681101021534166, 1568110102.199526
15681101022182229, 1568110102.2598698
15681101022905643, 1568110102.3173654
15681101023348858, 1568110102.371051
