Tx,Ty,Tz,Pitch,Roll,Yaw,Timestamp
0.0,0.0,0.0,0.0,0.0,0.0,1568110089.5930417
-0.016,-0.016,0.0,-0.0,0.0,-0.0,1568110089.652113
-0.018,-0.018,0.0,0.0,0.0,-0.0,1568110089.697744
-0.018,-0.018,0.0,0.0,0.0,-0.0,1568110089.72864
-0.018,-0.018,0.0,-0.0,0.0,-0.0,1568110089.7571735
-0.018,-0.018,0.0,0.0,0.0,-0.0,1568110089.8236756
-0.018,-0.018,0.0,-0.0,0.0,-0.0,1568110089.8480031
-0.018,-0.018,0.0,0.0,0.0,-0.0,1568110089.9007027
-0.019,-0.019,0.0,-0.0,0.0,-0.0,1568110089.9592307
-0.019,-0.019,0.0,0.0,0.0,-0.0,1568110090.041183
-0.019,-0.019,0.0,-0.0,0.0,-0.0,1568110090.1181424
-0.019,-0.019,0.0,0.0,0.0,-0.0,1568110090.2034955
-0.019,-0.019,0.0,0.0,0.0,-0.0,1568110090.2892764
-0.019,-0.019,0.0,0.0,0.0,-0.0,1568110090.3740275
-0.019,-0.019,0.0,0.0,0.0,-0.0,1568110090.4507275
-0.019,-0.019,0.0,0.0,0.0,-0.0,1568110090.4804726
-0.018,-0.019,0.0,0.0,0.0,-0.0,1568110090.5486326
-0.018,-0.019,-0.0,0.0,0.0,-0.0,1568110090.6179972
-0.018,-0.019,-0.0,0.0,0.0,-0.0,1568110090.7135422
-0.018,-0.019,-0.0,0.0,0.0,-0.0,1568110090.7429261
-0.018,-0.019,-0.0,0.0,0.0,-0.0,1568110090.824942
-0.018,-0.019,-0.0,0.0,0.0,-0.0,1568110090.908118
-0.018,-0.019,-0.0,0.0,0.0,-0.0,1568110090.9937897
-0.018,-0.019,-0.001,0.0,0.0,-0.0,1568110091.0822299
-0.018,-0.019,-0.001,0.0,0.0,-0.0,1568110091.1708958
-0.018,-0.019,-0.001,0.0,0.0,-0.0,1568110091.2629337
-0.018,-0.019,-0.001,0.0,0.0,-0.0,1568110091.354738
-0.018,-0.019,-0.001,0.0,0.0,-0.0,1568110091.4269059
-0.018,-0.019,-0.001,0.0,0.0,-0.0,1568110091.512403
-0.018,-0.019,-0.001,0.0,0.0,-0.0,1568110091.5695248
-0.018,-0.019,-0.001,0.0,0.0,-0.0,1568110091.6544538
-0.018,-0.019,-0.001,0.0,0.0,-0.0,1568110091.742552
-0.018,-0.019,-0.001,0.0,0.0,-0.0,1568110091.824275
-0.018,-0.019,-0.001,0.0,0.0,-0.0,1568110091.9102683
-0.018,-0.019,-0.001,0.0,0.0,-0.0,1568110091.9947762
-0.018,-0.019,-0.001,0.0,0.0,-0.0,1568110092.0770347
-0.018,-0.019,-0.001,0.0,0.0,-0.0,1568110092.1097653
-0.018,-0.019,-0.001,0.0,0.0,-0.0,1568110092.1964033
-0.018,-0.019,-0.001,0.0,0.0,-0.0,1568110092.2785275
-0.018,-0.019,-0.001,0.0,0.0,-0.0,1568110092.3599622
-0.018,-0.019,-0.001,0.0,0.0,-0.0,1568110092.3864594
-0.018,-0.019,-0.001,0.0,0.0,-0.0,1568110092.4660583
-0.018,-0.019,-0.001,0.0,0.0,-0.0,1568110092.546525
-0.018,-0.019,-0.001,0.0,0.0,-0.0,1568110092.629865
-0.018,-0.019,-0.001,0.0,0.0,-0.0,1568110092.6881804
-0.018,-0.019,-0.001,0.0,0.0,-0.0,1568110092.7382047
-0.018,-0.019,-0.001,0.0,0.0,-0.0,1568110092.817914
-0.018,-0.019,-0.001,0.0,0.0,-0.0,1568110092.8965676
-0.018,-0.019,-0.001,0.0,0.0,-0.0,1568110092.977348
-0.018,-0.019,-0.001,0.0,0.0,-0.0,1568110093.058821
-0.018,-0.019,-0.001,0.0,0.0,-0.0,1568110093.1425195
-0.018,-0.019,-0.001,0.0,0.0,-0.0,1568110093.2080536
-0.018,-0.019,-0.001,0.0,0.0,-0.0,1568110093.2498267
-0.018,-0.019,-0.001,0.0,0.0,-0.0,1568110093.3321395
-0.018,-0.019,-0.001,0.0,0.0,-0.0,1568110093.4189694
-0.018,-0.019,-0.001,0.0,0.0,-0.0,1568110093.5007641
-0.018,-0.019,-0.001,0.0,0.0,-0.0,1568110093.527309
-0.018,-0.019,-0.001,0.0,0.0,-0.0,1568110093.6179109
-0.018,-0.019,-0.001,0.0,0.0,-0.0,1568110093.6944482
-0.018,-0.019,-0.001,0.0,0.0,-0.0,1568110093.7753117
-0.018,-0.019,-0.001,0.0,0.0,-0.0,1568110093.8554657
-0.018,-0.019,-0.001,0.0,0.0,-0.0,1568110093.9360492
-0.018,-0.019,-0.001,0.0,0.0,-0.0,1568110093.9884331
-0.017,-0.021,0.002,0.0,0.0,-0.0,1568110094.039965
-0.016,-0.02,0.01,0.15,0.01,0.01,1568110094.1090775
0.017,-0.017,0.009,0.09,0.01,0.01,1568110094.1680775
0.061,-0.02,0.02,0.03,0.0,0.0,1568110094.227073
0.108,-0.021,0.037,0.14,0.0,0.01,1568110094.2847455
0.162,-0.021,0.034,0.13,0.0,0.01,1568110094.327984
0.25,-0.026,0.055,0.04,-0.01,0.01,1568110094.3984933
0.299,-0.025,0.058,0.08,-0.0,0.02,1568110094.4544
0.376,-0.026,0.075,0.06,-0.01,0.02,1568110094.5112295
0.434,-0.028,0.085,0.1,-0.0,0.02,1568110094.5251508
0.5,-0.029,0.096,0.1,0.0,0.03,1568110094.5834641
0.603,-0.036,0.115,0.13,-0.01,0.03,1568110094.6415966
0.631,-0.042,0.12,0.12,0.0,0.04,1568110094.7001748
0.723,-0.044,0.136,0.12,0.0,0.05,1568110094.7577062
0.823,-0.049,0.152,0.13,0.0,0.06,1568110094.7715514
0.971,-0.063,0.19,0.16,0.01,0.07,1568110094.8302963
1.052,-0.069,0.193,0.18,0.0,0.08,1568110094.8859005
1.192,-0.088,0.219,0.1,-0.0,0.09,1568110094.9437833
1.336,-0.101,0.247,0.13,0.0,0.12,1568110095.000304
1.592,-0.14,0.295,0.14,-0.0,0.14,1568110095.0599427
1.701,-0.157,0.315,0.14,-0.01,0.15,1568110095.118803
1.873,-0.182,0.341,0.11,-0.01,0.15,1568110095.180298
2.111,-0.206,0.396,0.15,-0.01,0.15,1568110095.243112
2.303,-0.232,0.428,0.16,-0.01,0.11,1568110095.305941
2.568,-0.258,0.474,0.12,0.01,0.07,1568110095.3532755
2.843,-0.273,0.528,0.1,0.02,0.06,1568110095.4123087
3.054,-0.284,0.567,0.09,0.02,0.05,1568110095.4650445
3.336,-0.301,0.623,0.09,0.02,0.05,1568110095.5080304
3.618,-0.318,0.667,0.12,0.03,0.07,1568110095.5658636
3.844,-0.332,0.701,0.07,0.02,0.08,1568110095.6224349
3.994,-0.344,0.728,0.05,0.02,0.07,1568110095.6843362
4.289,-0.355,0.781,0.08,0.01,0.09,1568110095.7445815
4.44,-0.375,0.806,0.09,0.02,0.1,1568110095.7893918
4.748,-0.405,0.852,0.1,0.01,0.06,1568110095.820905
5.066,-0.411,0.91,0.08,0.03,0.06,1568110095.881158
5.278,-0.424,0.953,0.08,0.02,0.04,1568110095.941594
5.438,-0.424,0.982,0.1,0.03,0.04,1568110096.0013852
5.687,-0.431,1.029,0.09,0.02,0.03,1568110096.0603547
5.938,-0.444,1.081,0.18,0.03,0.03,1568110096.119109
6.29,-0.467,1.136,0.12,0.02,0.05,1568110096.1775963
6.651,-0.483,1.211,0.1,0.03,0.06,1568110096.239364
6.927,-0.497,1.263,0.11,0.02,0.07,1568110096.2983215
7.299,-0.517,1.331,0.11,0.01,0.05,1568110096.363375
7.585,-0.537,1.381,0.12,0.01,0.03,1568110096.421112
7.966,-0.548,1.459,0.11,0.01,0.03,1568110096.4791555
8.355,-0.562,1.524,0.15,0.01,0.02,1568110096.5408459
8.659,-0.583,1.581,0.13,0.01,0.02,1568110096.6042347
9.068,-0.592,1.654,0.12,0.02,0.03,1568110096.6654336
9.378,-0.608,1.714,0.11,0.02,0.03,1568110096.6830544
9.783,-0.618,1.795,0.14,0.02,0.04,1568110096.7453127
10.103,-0.639,1.85,0.15,0.03,0.05,1568110096.80389
10.326,-0.648,1.887,0.14,0.02,0.05,1568110096.8647401
10.762,-0.663,1.979,0.1,0.03,0.05,1568110096.9267473
11.089,-0.679,2.042,0.15,0.04,0.07,1568110096.9871018
11.528,-0.712,2.125,0.15,0.04,0.06,1568110097.0254889
11.862,-0.723,2.195,0.13,0.03,0.06,1568110097.0696995
12.312,-0.752,2.279,0.13,0.03,0.06,1568110097.1350448
12.546,-0.765,2.321,0.14,0.03,0.06,1568110097.1940663
12.911,-0.795,2.387,0.12,0.02,0.06,1568110097.252035
13.391,-0.814,2.479,0.13,0.03,0.05,1568110097.310789
13.759,-0.834,2.538,0.14,0.01,0.04,1568110097.3739898
14.267,-0.859,2.622,0.08,0.02,0.01,1568110097.4337597
14.78,-0.867,2.714,0.09,0.03,0.0,1568110097.4924998
15.146,-0.883,2.783,0.14,0.04,0.0,1568110097.5506449
15.641,-0.899,2.857,0.16,0.04,0.04,1568110097.5697832
16.036,-0.905,2.929,0.12,0.04,0.06,1568110097.6288257
16.576,-0.941,3.03,0.11,0.03,0.07,1568110097.684022
16.991,-0.956,3.105,0.14,0.02,0.07,1568110097.7437553
17.536,-0.971,3.198,0.15,0.03,0.07,1568110097.8032494
17.683,-0.989,3.221,0.14,0.03,0.08,1568110097.8621697
18.077,-1.006,3.303,0.14,0.02,0.08,1568110097.918947
18.655,-1.042,3.405,0.17,0.03,0.08,1568110097.93716
19.104,-1.076,3.498,0.14,0.03,0.07,1568110097.9956222
19.637,-1.107,3.594,0.14,0.02,0.08,1568110098.0638757
19.797,-1.128,3.623,0.15,0.01,0.06,1568110098.1292338
20.412,-1.171,3.738,0.16,0.02,0.05,1568110098.192009
20.976,-1.189,3.827,0.02,0.01,0.01,1568110098.2545514
21.391,-1.2,3.91,-0.03,0.04,-0.01,1568110098.3202066
21.8,-1.214,4.0,-0.01,0.05,-0.05,1568110098.3893218
22.308,-1.239,4.07,-0.02,0.05,-0.11,1568110098.4558158
22.769,-1.246,4.168,-0.01,0.06,-0.15,1568110098.499314
23.182,-1.255,4.245,-0.04,0.07,-0.21,1568110098.542233
23.493,-1.257,4.302,-0.05,0.09,-0.24,1568110098.6056714
23.843,-1.267,4.369,-0.03,0.09,-0.29,1568110098.670963
24.03,-1.271,4.406,-0.03,0.1,-0.31,1568110098.7407892
24.359,-1.271,4.47,-0.03,0.11,-0.35,1568110098.7854044
24.666,-1.264,4.529,-0.02,0.1,-0.39,1568110098.8368325
24.959,-1.253,4.585,-0.04,0.1,-0.44,1568110098.9080014
25.285,-1.235,4.647,-0.03,0.11,-0.51,1568110098.975671
25.344,-1.228,4.658,-0.03,0.12,-0.51,1568110099.0475235
25.704,-1.184,4.735,-0.03,0.13,-0.59,1568110099.1394355
25.872,-1.163,4.77,-0.02,0.14,-0.62,1568110099.1786792
26.021,-1.146,4.8,-0.03,0.15,-0.64,1568110099.24771
26.111,-1.128,4.816,-0.03,0.15,-0.65,1568110099.3145158
26.191,-1.118,4.832,-0.03,0.15,-0.67,1568110099.378089
26.273,-1.098,4.846,-0.04,0.15,-0.69,1568110099.4398313
26.321,-1.087,4.856,-0.03,0.15,-0.7,1568110099.5080957
26.363,-1.064,4.864,-0.04,0.15,-0.72,1568110099.571164
26.383,-1.043,4.867,-0.05,0.16,-0.75,1568110099.6325588
26.386,-1.022,4.868,-0.04,0.17,-0.76,1568110099.7052586
26.386,-1.01,4.868,-0.02,0.18,-0.77,1568110099.721458
26.39,-1.005,4.869,-0.02,0.18,-0.78,1568110099.7799084
26.392,-1.002,4.87,-0.02,0.18,-0.78,1568110099.837948
26.392,-1.001,4.87,-0.02,0.18,-0.78,1568110099.8915064
26.392,-1.001,4.87,-0.02,0.18,-0.78,1568110099.9510443
26.391,-1.002,4.87,-0.02,0.18,-0.78,1568110099.9931927
26.39,-1.004,4.87,-0.01,0.18,-0.78,1568110100.0489998
26.389,-1.006,4.87,-0.02,0.18,-0.78,1568110100.0884361
26.388,-1.009,4.87,-0.01,0.18,-0.77,1568110100.1525793
26.386,-1.012,4.87,-0.01,0.18,-0.77,1568110100.2087631
26.384,-1.015,4.87,-0.01,0.18,-0.77,1568110100.270196
26.383,-1.017,4.87,-0.01,0.18,-0.77,1568110100.3309133
26.382,-1.019,4.87,-0.01,0.18,-0.77,1568110100.392175
26.379,-1.023,4.87,-0.01,0.17,-0.77,1568110100.4533203
26.379,-1.024,4.87,-0.01,0.17,-0.77,1568110100.5064318
26.378,-1.025,4.87,-0.01,0.17,-0.76,1568110100.5646062
26.378,-1.025,4.87,-0.01,0.17,-0.76,1568110100.625681
26.377,-1.025,4.87,-0.01,0.17,-0.77,1568110100.641038
26.377,-1.025,4.87,-0.01,0.17,-0.77,1568110100.70633
26.377,-1.025,4.87,-0.01,0.17,-0.77,1568110100.7448118
26.378,-1.025,4.87,-0.01,0.17,-0.77,1568110100.7836888
26.378,-1.024,4.87,-0.01,0.17,-0.77,1568110100.8404403
26.378,-1.024,4.87,-0.01,0.17,-0.77,1568110100.9012046
26.378,-1.024,4.87,-0.01,0.17,-0.77,1568110100.964166
26.378,-1.023,4.87,-0.01,0.17,-0.77,1568110101.020774
26.379,-1.023,4.87,-0.01,0.17,-0.77,1568110101.077066
26.379,-1.023,4.87,-0.01,0.17,-0.77,1568110101.1210024
26.379,-1.023,4.87,-0.01,0.17,-0.77,1568110101.1528552
26.379,-1.023,4.87,-0.01,0.17,-0.77,1568110101.2093613
26.378,-1.023,4.87,-0.01,0.17,-0.77,1568110101.2620356
26.378,-1.023,4.87,-0.01,0.17,-0.77,1568110101.2973945
26.378,-1.023,4.87,-0.01,0.17,-0.77,1568110101.3627903
26.378,-1.023,4.87,-0.01,0.17,-0.77,1568110101.4281673
26.378,-1.023,4.87,-0.01,0.17,-0.77,1568110101.50654
26.378,-1.024,4.87,-0.01,0.17,-0.77,1568110101.5656085
26.378,-1.024,4.87,-0.01,0.17,-0.77,1568110101.611009
26.378,-1.024,4.87,-0.01,0.17,-0.77,1568110101.6461494
26.378,-1.024,4.87,-0.01,0.17,-0.77,1568110101.7127008
26.378,-1.024,4.87,-0.01,0.17,-0.77,1568110101.7717288
26.378,-1.023,4.87,-0.01,0.17,-0.77,1568110101.8350124
26.378,-1.023,4.87,-0.01,0.17,-0.77,1568110101.8944952
26.378,-1.023,4.87,-0.01,0.17,-0.77,1568110101.9535542
26.378,-1.023,4.87,-0.01,0.17,-0.77,1568110102.0106974
26.378,-1.023,4.87,-0.01,0.17,-0.77,1568110102.0759017
26.378,-1.024,4.87,-0.01,0.17,-0.77,1568110102.1169548
26.378,-1.024,4.87,-0.01,0.17,-0.77,1568110102.1713476
26.378,-1.024,4.87,-0.01,0.17,-0.77,1568110102.218004
26.378,-1.024,4.87,-0.01,0.17,-0.77,1568110102.277152
26.378,-1.024,4.87,-0.01,0.17,-0.77,1568110102.3346705
26.378,-1.024,4.87,-0.01,0.17,-0.77,1568110102.3896399
