Tx,Ty,Tz,Pitch,Roll,Yaw,Timestamp
-0.0,-0.0,0.0,0.0,0.0,0.0,1568108861.4209733
-0.001,0.002,0.001,-0.0,-0.0,0.0,1568108861.4592438
-0.003,0.003,0.001,-0.0,0.0,0.0,1568108861.5039828
-0.003,0.003,0.001,-0.0,0.0,0.0,1568108861.5869892
-0.003,0.003,0.001,-0.0,0.0,0.0,1568108861.5968244
-0.004,0.003,0.001,-0.0,0.0,0.0,1568108861.6570861
-0.004,0.003,0.001,-0.0,0.0,0.0,1568108861.7199996
-0.004,0.004,0.001,-0.0,0.0,0.0,1568108861.78445
-0.004,0.004,0.001,-0.0,0.0,0.0,1568108861.8653593
-0.004,0.004,0.001,-0.0,0.0,0.0,1568108861.9612136
-0.004,0.004,0.001,-0.0,0.0,0.0,1568108862.0555825
-0.004,0.004,0.001,0.0,0.0,0.0,1568108862.1526563
-0.004,0.004,0.001,0.0,0.0,0.0,1568108862.2331228
-0.004,0.004,0.001,0.0,0.0,0.0,1568108862.268304
-0.004,0.004,0.001,0.0,0.0,0.0,1568108862.3558264
-0.004,0.004,0.001,0.0,0.0,0.0,1568108862.428795
-0.004,0.004,0.001,0.0,0.0,0.0,1568108862.5162084
-0.005,0.005,0.0,0.0,0.0,0.0,1568108862.606802
-0.005,0.005,0.0,0.0,0.0,0.0,1568108862.6827118
-0.005,0.005,0.0,0.0,0.0,0.0,1568108862.7113326
-0.005,0.005,0.0,0.0,0.0,0.0,1568108862.7662814
-0.005,0.005,0.0,0.0,0.0,0.0,1568108862.8200533
-0.005,0.005,0.0,0.0,0.0,0.0,1568108862.8858418
-0.005,0.005,0.0,0.0,0.0,0.0,1568108862.9527807
-0.005,0.005,0.0,0.0,0.0,0.0,1568108863.0159073
-0.005,0.005,0.0,0.0,0.0,0.0,1568108863.0527902
-0.005,0.005,0.0,0.0,0.0,0.0,1568108863.095375
-0.005,0.005,0.0,0.0,0.0,0.0,1568108863.1597104
-0.005,0.005,0.0,0.0,0.0,0.0,1568108863.2276242
-0.005,0.005,0.0,0.0,0.0,0.0,1568108863.2987747
-0.005,0.005,0.0,0.0,0.0,0.0,1568108863.3700507
-0.005,0.005,0.0,0.0,0.0,0.0,1568108863.4329903
-0.005,0.005,0.0,0.0,0.0,0.0,1568108863.472473
-0.005,0.005,0.0,0.0,0.0,0.0,1568108863.5143692
-0.005,0.005,0.0,0.0,0.0,0.0,1568108863.5824044
-0.005,0.005,0.0,0.0,0.0,0.0,1568108863.6457095
-0.005,0.005,0.0,0.0,0.0,0.0,1568108863.708187
-0.005,0.005,0.0,0.0,0.0,0.0,1568108863.7717469
-0.005,0.005,0.0,0.0,0.0,0.0,1568108863.8379636
-0.005,0.005,0.0,0.0,0.0,0.0,1568108863.9029827
-0.004,0.005,0.0,0.0,0.0,0.0,1568108863.9669414
-0.005,0.005,0.0,0.0,0.0,0.0,1568108864.0346224
-0.004,0.005,0.0,0.0,0.0,0.0,1568108864.1017175
-0.004,0.005,0.0,0.0,0.0,0.0,1568108864.169041
-0.004,0.005,0.0,0.0,0.0,0.0,1568108864.2350671
-0.005,0.005,0.0,0.0,0.0,0.0,1568108864.2986772
-0.005,0.005,0.0,0.0,0.0,0.0,1568108864.316593
-0.005,0.005,0.0,0.0,0.0,0.0,1568108864.3892813
-0.005,0.005,0.0,0.0,0.0,0.0,1568108864.4536166
-0.005,0.005,0.0,0.0,0.0,0.0,1568108864.5180027
-0.005,0.005,0.0,0.0,0.0,0.0,1568108864.5788934
-0.005,0.005,0.0,0.0,0.0,0.0,1568108864.6418505
-0.005,0.005,0.0,0.0,0.0,0.0,1568108864.7054105
-0.005,0.005,0.0,0.0,0.0,0.0,1568108864.7677608
-0.005,0.005,0.0,0.0,0.0,0.0,1568108864.8316553
-0.005,0.005,0.0,0.0,0.0,0.0,1568108864.898483
-0.005,0.005,0.0,0.0,0.0,0.0,1568108864.9161
-0.005,0.005,0.0,0.0,0.0,0.0,1568108864.9795237
-0.005,0.005,0.0,0.0,0.0,0.0,1568108865.0379388
-0.005,0.005,0.0,0.0,0.0,0.0,1568108865.101538
-0.005,0.005,0.0,0.0,0.0,0.0,1568108865.1651216
-0.005,0.005,0.0,0.0,0.0,0.0,1568108865.2101004
-0.005,0.005,0.0,0.0,0.0,0.0,1568108865.2627943
-0.005,0.005,0.0,0.0,0.0,0.0,1568108865.3051512
-0.005,0.005,0.0,0.0,0.0,0.0,1568108865.3731635
-0.005,0.005,0.0,0.0,0.0,0.0,1568108865.4360943
-0.005,0.005,0.0,0.0,0.0,0.0,1568108865.454603
-0.005,0.005,0.0,0.0,0.0,0.0,1568108865.5245304
-0.005,0.005,0.0,0.0,0.0,0.0,1568108865.5889668
-0.005,0.005,0.0,0.0,0.0,0.0,1568108865.6560497
-0.005,0.005,0.0,0.0,0.0,0.0,1568108865.723389
-0.005,0.005,0.0,0.0,0.0,0.0,1568108865.7418103
-0.005,0.005,0.0,0.0,0.0,0.0,1568108865.8057764
-0.005,0.005,0.0,0.0,0.0,0.0,1568108865.8703253
-0.005,0.005,0.0,0.0,0.0,0.0,1568108865.9235835
-0.005,0.005,0.0,0.0,0.0,0.0,1568108865.9574513
-0.005,0.005,0.0,0.0,0.0,0.0,1568108866.0258486
-0.005,0.005,0.0,0.0,0.0,0.0,1568108866.068145
-0.005,0.005,0.0,0.0,0.0,0.0,1568108866.1100035
-0.005,0.005,0.0,0.0,0.0,0.0,1568108866.1743948
-0.005,0.005,0.0,0.0,0.0,0.0,1568108866.240796
-0.005,0.005,0.0,0.0,0.0,0.0,1568108866.3057313
-0.005,0.005,0.0,0.0,0.0,0.0,1568108866.369435
-0.005,0.005,0.0,0.0,0.0,0.0,1568108866.4380977
-0.005,0.005,0.0,0.0,0.0,0.0,1568108866.5022218
-0.005,0.005,0.0,0.0,0.0,0.0,1568108866.572249
-0.005,0.005,0.0,0.0,0.0,0.0,1568108866.6363356
-0.005,0.005,0.0,0.0,0.0,0.0,1568108866.7009175
-0.005,0.005,0.0,0.0,0.0,0.0,1568108866.7630148
-0.005,0.005,0.0,0.0,0.0,0.0,1568108866.8242042
-0.005,0.005,0.0,0.0,0.0,0.0,1568108866.8868306
-0.005,0.005,0.0,0.0,0.0,0.0,1568108866.9495337
-0.005,0.005,0.0,0.0,0.0,0.0,1568108867.0141628
-0.005,0.005,0.0,0.0,0.0,0.0,1568108867.080164
-0.005,0.005,0.0,0.0,0.0,0.0,1568108867.144464
-0.005,0.005,0.0,0.0,0.0,0.0,1568108867.2079887
-0.005,0.005,0.0,0.0,0.0,0.0,1568108867.2718806
-0.005,0.005,0.0,0.0,0.0,0.0,1568108867.321329
-0.004,0.004,0.004,0.02,0.0,0.0,1568108867.3555167
-0.001,-0.001,0.009,0.12,0.01,0.01,1568108867.422749
0.027,0.001,0.007,0.09,0.01,0.03,1568108867.486326
0.056,0.001,0.013,0.05,0.0,0.03,1568108867.5303686
0.107,-0.004,0.034,0.09,0.0,0.03,1568108867.5798364
0.167,-0.006,0.03,0.1,-0.0,0.03,1568108867.622299
0.233,-0.011,0.056,0.08,-0.0,0.03,1568108867.6803975
0.272,-0.01,0.055,0.14,0.0,0.03,1568108867.733186
0.334,-0.01,0.057,0.05,0.01,0.04,1568108867.787193
0.388,-0.016,0.08,0.08,-0.0,0.03,1568108867.8437877
0.42,-0.014,0.08,0.11,0.0,0.03,1568108867.9020483
0.482,-0.017,0.082,0.06,-0.0,0.03,1568108867.9439228
0.542,-0.02,0.104,0.07,-0.0,0.03,1568108867.9726615
0.623,-0.02,0.11,0.07,-0.0,0.03,1568108868.0295076
0.694,-0.017,0.13,0.08,0.01,0.03,1568108868.0823505
0.768,-0.018,0.141,0.11,0.01,0.03,1568108868.138895
0.826,-0.023,0.144,0.11,0.01,0.02,1568108868.1961954
0.924,-0.019,0.16,0.06,0.01,0.01,1568108868.2545638
1.023,-0.016,0.182,0.07,0.01,0.01,1568108868.3102138
1.125,-0.021,0.195,0.07,0.01,0.0,1568108868.3676105
1.268,-0.009,0.219,0.06,0.02,0.0,1568108868.4087677
1.376,-0.008,0.237,0.06,0.01,-0.0,1568108868.438823
1.526,-0.01,0.267,0.1,0.02,0.0,1568108868.4970515
1.65,-0.008,0.282,0.12,0.01,-0.0,1568108868.5526276
1.694,-0.013,0.289,0.1,0.01,0.0,1568108868.6113427
1.832,-0.007,0.314,0.1,0.02,0.01,1568108868.6693714
2.033,-0.007,0.345,0.09,0.01,-0.0,1568108868.713866
2.193,-0.005,0.37,0.1,0.01,0.01,1568108868.7481217
2.423,-0.013,0.398,0.07,0.01,-0.0,1568108868.8054087
2.543,-0.011,0.421,0.03,-0.0,-0.01,1568108868.863684
2.571,0.007,0.434,0.07,0.01,0.01,1568108868.9049664
2.89,-0.007,0.471,0.09,0.01,-0.0,1568108868.9375198
3.077,-0.002,0.503,0.04,0.01,0.0,1568108868.9997249
3.263,-0.006,0.539,0.06,0.02,0.01,1568108869.0583699
3.388,-0.013,0.557,0.07,-0.0,-0.01,1568108869.0960052
3.639,-0.01,0.596,0.08,0.01,-0.01,1568108869.1339695
3.818,-0.001,0.632,0.05,0.02,0.01,1568108869.1944835
4.077,-0.006,0.686,0.09,0.01,-0.01,1568108869.2545161
4.142,-0.003,0.697,0.12,0.01,0.0,1568108869.31276
4.349,0.001,0.721,0.13,0.01,-0.01,1568108869.3719733
4.644,-0.004,0.772,0.08,0.01,-0.03,1568108869.4337068
4.865,0.006,0.818,0.09,0.01,-0.02,1568108869.471874
5.154,0.016,0.861,0.1,0.02,-0.02,1568108869.5159638
5.461,0.021,0.92,0.08,0.02,-0.02,1568108869.570682
5.693,0.029,0.957,0.11,0.02,-0.02,1568108869.6344438
5.929,0.035,0.996,0.07,0.02,-0.01,1568108869.692825
6.093,0.04,1.028,0.07,0.01,-0.02,1568108869.7505233
6.412,0.048,1.085,0.1,0.02,-0.01,1568108869.7949293
6.656,0.056,1.125,0.1,0.02,-0.02,1568108869.8468907
6.989,0.068,1.18,0.08,0.03,-0.02,1568108869.8862283
7.247,0.066,1.227,0.04,0.01,-0.04,1568108869.9482005
7.404,0.087,1.255,0.08,0.03,-0.02,1568108870.006815
7.658,0.091,1.293,0.1,0.03,-0.02,1568108870.0654905
7.918,0.098,1.329,0.05,0.04,0.0,1568108870.0848837
8.255,0.101,1.399,0.11,0.04,-0.0,1568108870.145569
8.421,0.114,1.422,0.13,0.05,0.01,1568108870.20507
8.681,0.116,1.465,0.08,0.05,0.03,1568108870.222241
8.941,0.114,1.515,0.07,0.04,0.03,1568108870.2869606
9.197,0.106,1.566,0.1,0.05,0.03,1568108870.3460176
9.373,0.094,1.597,0.11,0.04,0.02,1568108870.4043763
9.727,0.092,1.658,0.08,0.04,0.06,1568108870.4636636
9.994,0.075,1.711,0.09,0.04,0.07,1568108870.5004766
10.349,0.056,1.768,0.09,0.03,0.08,1568108870.5382144
10.623,0.046,1.819,0.07,0.02,0.07,1568108870.597961
10.878,0.03,1.865,0.07,0.02,0.07,1568108870.6553829
11.063,0.028,1.902,0.08,0.03,0.09,1568108870.7150056
11.337,0.005,1.947,0.09,0.03,0.08,1568108870.7746432
11.688,-0.023,2.013,0.08,0.02,0.07,1568108870.7919097
11.956,-0.041,2.054,0.1,0.03,0.08,1568108870.8505723
12.34,-0.067,2.118,0.05,0.0,0.08,1568108870.908642
12.44,-0.09,2.138,0.05,0.01,0.07,1568108870.9673233
12.729,-0.107,2.194,0.12,0.01,0.09,1568108871.024469
13.103,-0.141,2.237,0.16,0.0,0.09,1568108871.0830336
13.757,-0.19,2.36,0.13,0.0,0.11,1568108871.141772
13.87,-0.2,2.384,0.14,0.01,0.1,1568108871.2001157
14.207,-0.227,2.429,0.18,-0.0,0.1,1568108871.2597206
14.685,-0.273,2.507,0.07,-0.01,0.07,1568108871.3194826
15.045,-0.291,2.58,0.13,-0.01,0.07,1568108871.3788204
15.53,-0.336,2.66,0.16,-0.01,0.05,1568108871.4386842
16.034,-0.381,2.749,0.12,-0.0,0.04,1568108871.497493
16.417,-0.393,2.824,0.13,0.01,0.03,1568108871.515223
16.944,-0.427,2.914,0.16,0.01,0.03,1568108871.57769
17.221,-0.452,2.965,0.14,0.01,0.02,1568108871.6355247
17.503,-0.465,3.021,0.13,0.0,0.02,1568108871.6940649
18.052,-0.509,3.127,0.16,-0.0,0.03,1568108871.752899
18.62,-0.553,3.236,0.16,-0.01,0.03,1568108871.8109977
19.042,-0.574,3.31,0.17,-0.01,0.04,1568108871.8690488
19.555,-0.6,3.4,0.08,-0.0,0.05,1568108871.9265933
19.967,-0.61,3.481,0.13,0.01,0.05,1568108871.987463
20.397,-0.638,3.547,0.12,0.02,0.04,1568108872.0242145
20.961,-0.651,3.658,0.15,0.02,0.04,1568108872.062233
21.557,-0.687,3.745,0.11,0.02,0.04,1568108872.1209795
21.984,-0.698,3.839,0.0,0.03,0.02,1568108872.1758766
22.396,-0.716,3.902,-0.0,0.02,-0.0,1568108872.2355046
22.659,-0.721,3.974,0.01,0.03,-0.01,1568108872.2953093
23.012,-0.731,4.025,0.02,0.02,-0.03,1568108872.3529282
23.386,-0.741,4.122,0.0,0.03,-0.05,1568108872.3896346
23.838,-0.745,4.207,-0.01,0.04,-0.08,1568108872.4518037
24.164,-0.747,4.275,0.0,0.05,-0.1,1568108872.489841
24.576,-0.748,4.365,-0.01,0.06,-0.14,1568108872.5491035
24.772,-0.748,4.397,-0.01,0.07,-0.15,1568108872.607208
25.058,-0.749,4.456,-0.02,0.07,-0.19,1568108872.666612
25.323,-0.746,4.506,-0.04,0.08,-0.22,1568108872.7054431
25.646,-0.75,4.57,-0.03,0.09,-0.26,1568108872.7637324
25.867,-0.747,4.615,-0.02,0.1,-0.28,1568108872.8020658
26.077,-0.747,4.654,-0.04,0.09,-0.32,1568108872.8629618
26.27,-0.744,4.695,-0.03,0.11,-0.34,1568108872.9213698
26.395,-0.745,4.715,-0.04,0.1,-0.35,1568108872.980378
26.623,-0.742,4.759,-0.04,0.12,-0.37,1568108873.0412562
26.821,-0.736,4.795,-0.05,0.11,-0.4,1568108873.1010334
26.951,-0.731,4.82,-0.04,0.12,-0.4,1568108873.157539
27.105,-0.724,4.85,-0.04,0.12,-0.43,1568108873.196053
27.2,-0.715,4.867,-0.04,0.12,-0.44,1568108873.2599478
27.307,-0.707,4.888,-0.04,0.12,-0.46,1568108873.2960155
27.371,-0.698,4.899,-0.04,0.12,-0.47,1568108873.3553221
27.436,-0.692,4.911,-0.04,0.13,-0.48,1568108873.41036
27.468,-0.688,4.917,-0.04,0.13,-0.48,1568108873.4640412
27.488,-0.678,4.922,-0.04,0.13,-0.49,1568108873.5213766
27.492,-0.678,4.923,-0.04,0.13,-0.49,1568108873.5826533
27.493,-0.673,4.924,-0.04,0.13,-0.49,1568108873.5967054
27.488,-0.672,4.925,-0.03,0.13,-0.49,1568108873.6578743
27.482,-0.672,4.925,-0.01,0.14,-0.49,1568108873.7126691
27.478,-0.673,4.926,-0.01,0.14,-0.49,1568108873.7439754
27.475,-0.676,4.926,-0.01,0.14,-0.49,1568108873.7840173
27.473,-0.677,4.926,-0.01,0.14,-0.49,1568108873.8448396
27.472,-0.678,4.926,-0.0,0.14,-0.49,1568108873.9014413
27.47,-0.678,4.926,-0.0,0.14,-0.49,1568108873.9565306
27.47,-0.679,4.926,-0.0,0.14,-0.49,1568108874.0112457
27.469,-0.679,4.926,-0.0,0.14,-0.49,1568108874.043337
27.469,-0.68,4.926,-0.0,0.14,-0.49,1568108874.0806465
27.469,-0.679,4.926,-0.0,0.14,-0.49,1568108874.142008
27.469,-0.679,4.926,-0.0,0.14,-0.49,1568108874.1967845
27.469,-0.679,4.926,-0.0,0.14,-0.49,1568108874.2517474
27.47,-0.678,4.926,-0.0,0.14,-0.49,1568108874.2950232
