Tx,Ty,Tz,Pitch,Roll,Yaw,Timestamp
-0.006,0.005,0.003,-0.0,-0.0,0.0,1568109892.333906
-0.006,0.005,0.003,-0.0,-0.0,0.0,1568109892.397239
-0.006,0.005,0.003,-0.0,-0.0,0.0,1568109892.4167178
-0.006,0.005,0.003,-0.0,-0.0,0.0,1568109892.491402
-0.006,0.005,0.003,-0.0,-0.0,0.0,1568109892.5543795
-0.006,0.005,0.003,-0.0,-0.0,0.0,1568109892.586741
-0.006,0.005,0.003,-0.0,-0.0,0.0,1568109892.664264
-0.006,0.006,0.003,-0.0,-0.0,0.0,1568109892.7206366
-0.006,0.006,0.003,-0.0,-0.0,0.0,1568109892.779385
-0.006,0.006,0.003,-0.0,-0.0,0.0,1568109892.837698
-0.006,0.006,0.003,-0.0,-0.0,0.0,1568109892.8731587
-0.006,0.006,0.003,-0.0,-0.0,0.0,1568109892.9282613
-0.006,0.006,0.003,-0.0,-0.0,0.0,1568109892.9721832
0.028,0.041,0.001,0.0,-0.0,0.0,1568109893.0518734
0.029,0.042,0.001,0.0,-0.0,0.0,1568109893.1038775
0.029,0.043,0.001,0.0,0.0,0.0,1568109893.1584365
0.03,0.043,0.001,0.0,-0.0,0.0,1568109893.1984966
0.03,0.043,0.001,0.0,-0.0,0.0,1568109893.2488594
0.03,0.043,0.0,0.0,0.0,0.0,1568109893.305439
0.03,0.043,0.0,0.0,0.0,0.0,1568109893.342974
0.03,0.043,-0.0,0.0,0.0,0.0,1568109893.4015725
0.03,0.043,-0.0,0.0,-0.0,0.0,1568109893.462753
0.03,0.043,-0.0,0.0,0.0,0.0,1568109893.518316
0.03,0.043,-0.0,0.0,-0.0,0.0,1568109893.5507603
0.03,0.043,-0.0,0.0,-0.0,0.0,1568109893.5905561
0.03,0.043,-0.0,0.0,-0.0,0.0,1568109893.6499672
0.03,0.043,-0.0,0.0,-0.0,0.0,1568109893.714943
0.03,0.043,-0.0,0.0,-0.0,0.0,1568109893.7859526
0.03,0.043,-0.0,0.0,-0.0,0.0,1568109893.8697278
0.03,0.044,-0.0,0.0,-0.0,0.0,1568109894.0084867
0.03,0.044,-0.0,0.0,-0.0,0.0,1568109894.148277
0.03,0.044,-0.0,0.0,-0.0,0.0,1568109894.2545936
0.031,0.044,-0.0,0.0,-0.0,0.0,1568109894.344185
0.031,0.044,-0.0,0.0,-0.0,0.0,1568109894.504136
0.031,0.044,-0.0,0.0,-0.0,0.0,1568109894.6436603
0.031,0.044,-0.0,0.0,-0.0,0.0,1568109894.7812312
0.031,0.044,-0.0,0.0,-0.0,0.0,1568109894.9259834
0.031,0.044,-0.0,0.0,-0.0,0.0,1568109895.0559483
0.031,0.044,-0.001,0.0,-0.0,0.0,1568109895.1700492
0.031,0.044,-0.001,0.0,-0.0,0.0,1568109895.3114212
0.031,0.044,-0.0,0.0,-0.0,0.0,1568109895.4398377
0.031,0.044,-0.001,0.0,-0.0,0.0,1568109895.5094886
0.031,0.044,-0.0,0.0,-0.0,0.0,1568109895.6507664
0.031,0.044,-0.0,0.0,-0.0,0.0,1568109895.793141
0.031,0.044,-0.0,0.0,-0.0,0.0,1568109895.884989
0.031,0.044,-0.001,0.0,-0.0,0.0,1568109895.946035
0.031,0.044,-0.001,0.0,-0.0,0.0,1568109896.0767357
0.031,0.044,-0.001,0.0,-0.0,0.0,1568109896.2141938
0.031,0.044,-0.001,0.0,-0.0,0.0,1568109896.2857456
0.031,0.044,-0.001,0.0,-0.0,0.0,1568109896.424583
0.031,0.044,-0.001,0.0,-0.0,0.0,1568109896.5613172
0.031,0.044,-0.001,0.0,-0.0,0.0,1568109896.709931
0.031,0.044,-0.0,0.0,-0.0,0.0,1568109896.825141
0.042,0.044,0.004,0.06,0.01,0.01,1568109896.903979
0.149,0.039,0.019,0.05,0.0,0.02,1568109896.9655373
0.279,0.029,0.042,0.0,-0.0,0.02,1568109897.025501
0.29,0.029,0.046,0.03,0.0,0.04,1568109897.0830355
0.346,0.028,0.049,0.1,0.0,0.03,1568109897.1403491
0.409,0.023,0.057,0.06,0.0,0.05,1568109897.181961
0.501,0.019,0.063,0.03,-0.01,0.06,1568109897.2136579
0.572,0.01,0.081,0.02,-0.01,0.05,1568109897.2773137
0.617,0.004,0.089,0.04,-0.02,0.05,1568109897.3337848
0.689,0.003,0.105,0.09,-0.01,0.06,1568109897.378208
0.772,-0.007,0.109,0.11,0.01,0.07,1568109897.4294927
0.905,-0.01,0.13,0.03,-0.01,0.06,1568109897.4663217
1.0,-0.016,0.154,0.09,-0.02,0.05,1568109897.5237398
1.134,-0.022,0.155,0.11,0.0,0.06,1568109897.574785
1.255,-0.027,0.184,0.01,-0.0,0.05,1568109897.6401374
1.358,-0.035,0.195,0.07,-0.0,0.05,1568109897.7013185
1.432,-0.038,0.206,0.07,-0.01,0.03,1568109897.7418358
1.552,-0.041,0.222,0.06,-0.0,0.02,1568109897.8214982
1.717,-0.03,0.245,0.02,0.01,0.03,1568109897.8611803
1.925,-0.039,0.276,0.06,0.01,0.02,1568109897.9276218
2.059,-0.054,0.29,0.03,-0.0,0.01,1568109897.9971044
2.191,-0.053,0.317,0.04,-0.01,0.03,1568109898.0321112
2.322,-0.055,0.329,0.05,-0.0,0.04,1568109898.092731
2.51,-0.076,0.351,0.04,-0.0,0.05,1568109898.1317945
2.654,-0.088,0.373,0.01,-0.0,0.07,1568109898.1864786
2.749,-0.091,0.387,0.04,-0.03,0.05,1568109898.2451222
2.891,-0.094,0.399,0.04,-0.01,0.06,1568109898.286387
3.044,-0.102,0.418,0.01,-0.02,0.06,1568109898.3455105
3.194,-0.122,0.439,0.02,-0.02,0.05,1568109898.3841317
3.399,-0.127,0.47,0.05,0.01,0.07,1568109898.4391475
3.61,-0.135,0.489,0.03,0.0,0.06,1568109898.494465
3.775,-0.142,0.514,0.03,-0.02,0.04,1568109898.5548816
3.887,-0.149,0.532,0.05,0.0,0.05,1568109898.6120067
4.054,-0.154,0.547,0.06,-0.01,0.03,1568109898.6704001
4.23,-0.154,0.572,0.05,-0.0,0.04,1568109898.71379
4.41,-0.164,0.596,0.05,-0.01,0.03,1568109898.767152
4.655,-0.173,0.635,0.08,-0.0,0.02,1568109898.8070555
4.847,-0.169,0.66,0.1,-0.01,0.01,1568109898.8677022
5.054,-0.174,0.691,0.11,-0.0,-0.02,1568109898.9242518
5.196,-0.169,0.707,0.11,0.01,-0.02,1568109898.9434295
5.499,-0.17,0.753,0.09,0.01,-0.06,1568109899.0000145
5.729,-0.158,0.782,0.08,0.01,-0.05,1568109899.0613415
5.809,-0.156,0.797,0.06,0.01,-0.05,1568109899.1226497
6.126,-0.143,0.849,0.11,0.01,-0.06,1568109899.1797724
6.373,-0.131,0.879,0.12,0.01,-0.05,1568109899.2392697
6.714,-0.113,0.927,0.06,0.03,-0.03,1568109899.2844918
6.973,-0.113,0.971,0.03,0.02,-0.01,1568109899.3175738
7.309,-0.107,1.022,0.09,0.0,0.02,1568109899.3799593
7.485,-0.115,1.051,0.12,0.02,0.04,1568109899.3978753
7.756,-0.113,1.062,0.09,0.01,0.04,1568109899.4609942
8.042,-0.123,1.118,-0.01,0.02,0.04,1568109899.517736
8.218,-0.12,1.145,0.05,0.02,0.04,1568109899.5766075
8.486,-0.128,1.173,0.11,0.02,0.03,1568109899.6352427
8.861,-0.123,1.224,0.05,0.03,0.04,1568109899.694899
9.149,-0.142,1.259,0.02,0.02,0.03,1568109899.7558527
9.52,-0.14,1.331,0.13,0.02,0.02,1568109899.813975
9.807,-0.143,1.349,0.11,0.05,0.05,1568109899.8721824
10.192,-0.158,1.43,0.08,0.04,0.07,1568109899.9093497
10.474,-0.186,1.456,0.13,0.05,0.09,1568109899.9467158
10.856,-0.207,1.514,0.02,0.03,0.14,1568109900.0086792
11.046,-0.231,1.551,0.06,0.02,0.14,1568109900.0673003
11.339,-0.268,1.587,0.1,0.02,0.16,1568109900.131498
11.642,-0.311,1.628,0.07,0.0,0.16,1568109900.1898086
12.054,-0.352,1.694,0.03,-0.0,0.17,1568109900.2482045
12.349,-0.405,1.736,0.1,0.01,0.15,1568109900.2663808
12.731,-0.458,1.778,0.08,0.0,0.14,1568109900.3239064
13.057,-0.501,1.819,0.06,-0.01,0.14,1568109900.3825643
13.271,-0.543,1.85,0.06,-0.01,0.14,1568109900.4410563
13.601,-0.578,1.894,0.09,-0.02,0.15,1568109900.4998586
13.939,-0.623,1.934,0.12,-0.02,0.14,1568109900.5639803
14.405,-0.694,1.994,0.1,-0.02,0.14,1568109900.6215405
14.892,-0.76,2.064,0.13,-0.02,0.12,1568109900.6585863
15.268,-0.802,2.093,0.1,-0.01,0.13,1568109900.719469
15.781,-0.875,2.174,0.06,-0.03,0.12,1568109900.7586174
16.168,-0.928,2.222,0.11,-0.03,0.11,1568109900.8173292
16.671,-0.985,2.281,0.12,-0.03,0.12,1568109900.876651
17.08,-1.042,2.338,0.09,-0.03,0.1,1568109900.9342804
17.355,-1.075,2.378,0.09,-0.02,0.1,1568109900.9922237
17.765,-1.126,2.433,0.11,-0.03,0.1,1568109901.0489447
18.331,-1.192,2.506,0.1,-0.02,0.08,1568109901.106475
18.759,-1.245,2.569,0.1,-0.02,0.08,1568109901.168242
19.603,-1.345,2.691,0.13,-0.04,0.09,1568109901.2279093
19.757,-1.354,2.708,0.13,-0.05,0.09,1568109901.2978575
20.356,-1.429,2.784,0.05,-0.05,0.09,1568109901.3644962
20.818,-1.477,2.857,0.07,-0.02,0.1,1568109901.4061723
21.559,-1.548,2.926,-0.03,-0.01,0.1,1568109901.446275
21.848,-1.589,2.984,-0.07,-0.03,0.07,1568109901.5140631
22.336,-1.625,3.058,-0.06,-0.02,0.05,1568109901.5775228
22.601,-1.65,3.092,-0.02,-0.01,0.04,1568109901.6446354
23.11,-1.708,3.166,-0.07,-0.02,-0.0,1568109901.6632912
23.398,-1.725,3.201,-0.07,0.01,-0.02,1568109901.7207916
23.382,-1.728,3.194,-0.05,0.0,-0.06,1568109901.7782574
23.504,-1.744,3.214,-0.03,0.01,-0.1,1568109901.8395748
23.794,-1.773,3.25,-0.07,-0.0,-0.14,1568109901.9035294
24.142,-1.792,3.304,-0.04,-0.02,-0.18,1568109901.9930325
24.389,-1.805,3.354,-0.07,0.01,-0.18,1568109902.0761554
24.685,-1.817,3.395,-0.07,0.02,-0.21,1568109902.140672
24.951,-1.829,3.44,-0.07,0.02,-0.23,1568109902.2028975
25.188,-1.834,3.476,-0.07,0.04,-0.24,1568109902.2672431
25.399,-1.841,3.508,-0.08,0.04,-0.25,1568109902.334024
25.579,-1.841,3.533,-0.07,0.05,-0.26,1568109902.4000478
25.698,-1.837,3.553,-0.07,0.05,-0.27,1568109902.4169858
25.862,-1.826,3.577,-0.07,0.06,-0.3,1568109902.4854994
25.941,-1.814,3.59,-0.07,0.07,-0.32,1568109902.5446103
26.03,-1.796,3.602,-0.08,0.07,-0.35,1568109902.606882
26.09,-1.772,3.607,-0.07,0.08,-0.39,1568109902.6679757
26.105,-1.769,3.608,-0.08,0.08,-0.39,1568109902.729275
26.156,-1.728,3.622,-0.08,0.09,-0.44,1568109902.791237
26.16,-1.721,3.623,-0.07,0.09,-0.45,1568109902.8518438
26.178,-1.698,3.623,-0.07,0.1,-0.47,1568109902.907992
26.19,-1.683,3.626,-0.05,0.1,-0.49,1568109902.9675553
26.201,-1.673,3.627,-0.06,0.11,-0.5,1568109903.0261664
26.207,-1.664,3.627,-0.06,0.11,-0.51,1568109903.0845594
26.209,-1.661,3.628,-0.05,0.11,-0.51,1568109903.1235404
26.215,-1.656,3.628,-0.05,0.11,-0.52,1568109903.156413
26.217,-1.653,3.628,-0.05,0.11,-0.52,1568109903.218275
26.22,-1.65,3.628,-0.05,0.11,-0.53,1568109903.2758026
26.222,-1.647,3.629,-0.05,0.11,-0.53,1568109903.337456
26.222,-1.647,3.629,-0.05,0.11,-0.53,1568109903.399314
26.224,-1.645,3.629,-0.05,0.11,-0.53,1568109903.4389026
26.226,-1.642,3.629,-0.05,0.11,-0.53,1568109903.4823155
26.227,-1.642,3.629,-0.05,0.11,-0.53,1568109903.546232
26.227,-1.641,3.629,-0.05,0.11,-0.53,1568109903.6076787
26.228,-1.641,3.628,-0.05,0.11,-0.53,1568109903.666485
26.228,-1.641,3.629,-0.05,0.11,-0.53,1568109903.6986246
26.228,-1.641,3.629,-0.05,0.11,-0.53,1568109903.7418778
26.228,-1.641,3.629,-0.05,0.11,-0.53,1568109903.8086712
26.228,-1.641,3.629,-0.05,0.11,-0.53,1568109903.8715165
26.228,-1.64,3.629,-0.05,0.11,-0.53,1568109903.9197018
26.228,-1.64,3.629,-0.05,0.11,-0.53,1568109903.95322
26.228,-1.64,3.629,-0.05,0.11,-0.53,1568109904.0153155
26.229,-1.64,3.628,-0.05,0.11,-0.53,1568109904.0963192
26.229,-1.64,3.628,-0.05,0.11,-0.53,1568109904.1753507
26.229,-1.64,3.628,-0.05,0.11,-0.53,1568109904.211096
26.229,-1.64,3.628,-0.05,0.11,-0.53,1568109904.2540495
26.229,-1.64,3.628,-0.05,0.11,-0.53,1568109904.3187332
26.229,-1.64,3.628,-0.05,0.12,-0.53,1568109904.3752406
26.229,-1.641,3.628,-0.05,0.12,-0.53,1568109904.4318452
26.229,-1.641,3.629,-0.05,0.12,-0.52,1568109904.4929473
26.229,-1.641,3.629,-0.05,0.12,-0.53,1568109904.534963
26.228,-1.641,3.629,-0.05,0.12,-0.53,1568109904.5893545
26.228,-1.641,3.629,-0.05,0.12,-0.53,1568109904.6330357
26.228,-1.641,3.629,-0.05,0.12,-0.52,1568109904.7022238
26.228,-1.641,3.629,-0.05,0.12,-0.53,1568109904.7586632
26.228,-1.641,3.629,-0.05,0.12,-0.53,1568109904.816545
26.228,-1.641,3.629,-0.05,0.12,-0.52,1568109904.874812
26.228,-1.641,3.629,-0.05,0.12,-0.53,1568109904.9312582
26.228,-1.641,3.629,-0.05,0.12,-0.53,1568109904.9460618
26.228,-1.642,3.629,-0.05,0.12,-0.53,1568109905.0112352
26.228,-1.642,3.629,-0.05,0.12,-0.53,1568109905.0722792
26.228,-1.642,3.629,-0.05,0.12,-0.53,1568109905.129765
26.228,-1.641,3.629,-0.05,0.12,-0.53,1568109905.1718497
26.228,-1.641,3.629,-0.05,0.12,-0.53,1568109905.2281196
26.228,-1.642,3.629,-0.05,0.12,-0.53,1568109905.2629921
26.228,-1.641,3.629,-0.05,0.12,-0.53,1568109905.3221633
26.228,-1.641,3.629,-0.05,0.12,-0.52,1568109905.3847547
26.228,-1.641,3.629,-0.05,0.12,-0.53,1568109905.4278948
26.228,-1.641,3.629,-0.05,0.12,-0.53,1568109905.459672
26.228,-1.641,3.629,-0.05,0.12,-0.53,1568109905.5215118
26.228,-1.641,3.629,-0.05,0.12,-0.53,1568109905.576499
26.228,-1.641,3.629,-0.05,0.12,-0.53,1568109905.632552
