grab_timestamp, write_timestamp
15681090535702856, 1568109053.592972
15681090536272202, 1568109053.656303
15681090537077394, 1568109053.7448478
15681090537708232, 1568109053.8010197
1568109053830556, 1568109053.865509
15681090538851178, 1568109053.9058769
15681090539371407, 1568109053.9762173
1568109053995429, 1568109054.0156472
15681090540466237, 1568109054.0723643
1568109054108547, 1568109054.1341639
15681090541685603, 1568109054.223627
15681090542598567, 1568109054.2856038
1568109054321819, 1568109054.3459442
15681090543758883, 1568109054.4016514
15681090544317467, 1568109054.469396
15681090545007176, 1568109054.5267863
15681090545578237, 1568109054.5820625
15681090546123664, 1568109054.6375601
15681090546674151, 1568109054.705251
15681090547231236, 1568109054.763024
1568109054793161, 1568109054.8260746
1568109054855675, 1568109054.8821032
15681090549122384, 1568109054.9383202
15681090549705296, 1568109054.996497
15681090550272412, 1568109055.0580115
15681090550900502, 1568109055.1175404
15681090551472661, 1568109055.1737237
15681090552091794, 1568109055.2329047
15681090552626686, 1568109055.2889485
15681090553187466, 1568109055.367993
156810905540193, 1568109055.4285588
15681090554620824, 1568109055.4917624
15681090555276535, 1568109055.5736432
15681090556040323, 1568109055.635405
15681090556649046, 1568109055.6956787
15681090557297754, 1568109055.786462
15681090558052876, 1568109055.8455637
15681090558622553, 1568109055.89725
15681090559276092, 1568109055.9601903
15681090559906225, 1568109056.0510209
15681090560889637, 1568109056.1183608
1568109056149374, 1568109056.182422
15681090562136083, 1568109056.2504451
156810905629674, 1568109056.3197005
15681090563515687, 1568109056.380415
1568109056434298, 1568109056.4610367
1568109056497592, 1568109056.5173204
15681090565459392, 1568109056.5736752
1568109056605514, 1568109056.6326308
15681090566619143, 1568109056.687395
156810905671647, 1568109056.7561913
15681090567863505, 1568109056.8151107
15681090568453171, 1568109056.8709545
15681090569006088, 1568109056.9281273
15681090569566793, 1568109056.9827754
15681090570113385, 1568109057.0396464
15681090570679862, 1568109057.0942903
15681090571244762, 1568109057.1508007
15681090571802511, 1568109057.2075772
1568109057236106, 1568109057.277475
15681090573075764, 1568109057.3331008
15681090573636703, 1568109057.3896594
15681090574196622, 1568109057.4627385
15681090574793804, 1568109057.5144556
15681090575441961, 1568109057.5702498
1568109057599911, 1568109057.626532
15681090576572995, 1568109057.6842537
1568109057714561, 1568109057.7404604
15681090577697475, 1568109057.7952042
15681090578264723, 1568109057.8507333
15681090578829837, 1568109057.9095554
15681090579402082, 1568109057.9660735
15681090580006797, 1568109058.0258288
15681090580548007, 1568109058.100995
15681090581290567, 1568109058.1555855
15681090581844735, 1568109058.2098794
15681090582412865, 1568109058.265366
1568109058293951, 1568109058.3211489
15681090583493896, 1568109058.375294
15681090584043758, 1568109058.4299495
15681090584593215, 1568109058.4839969
15681090585124745, 1568109058.5376863
1568109058566884, 1568109058.5925314
1568109058620915, 1568109058.646175
15681090586929095, 1568109058.718772
1568109058746828, 1568109058.7728162
15681090588022652, 1568109058.83225
156810905886223, 1568109058.8990579
156810905891578, 1568109058.9483554
15681090589656408, 1568109059.005057
15681090590373101, 1568109059.0638745
1568109059095692, 1568109059.1203737
15681090591516774, 1568109059.18902
15681090592246416, 1568109059.2519011
15681090592828822, 1568109059.3108854
15681090593433394, 1568109059.3685102
15681090594179645, 1568109059.4427598
15681090594732766, 1568109059.500132
15681090595343156, 1568109059.5751867
1568109059592388, 1568109059.6338472
15681090596626856, 1568109059.6911309
15681090597193, 1568109059.7474427
15681090597781334, 1568109059.8057907
15681090598343804, 1568109059.8628604
15681090598911235, 1568109059.931001
1568109059946891, 1568109059.9875877
15681090600199049, 1568109060.046906
15681090600762477, 1568109060.1056778
15681090601381686, 1568109060.1646116
1568109060197564, 1568109060.245366
1568109060279747, 1568109060.3025563
15681090603373501, 1568109060.3617303
15681090603936386, 1568109060.4364104
1568109060473909, 1568109060.4959476
15681090605279024, 1568109060.553938
15681090605862944, 1568109060.612142
15681090606444795, 1568109060.6706915
15681090607057369, 1568109060.7285244
15681090607613473, 1568109060.7870905
15681090608193712, 1568109060.846155
15681090608825555, 1568109060.9092853
15681090609418728, 1568109060.9844224
15681090610011363, 1568109061.0395033
1568109061056878, 1568109061.1017544
15681090611362987, 1568109061.1625834
15681090611955836, 1568109061.2223926
15681090612550433, 1568109061.2823076
15681090613165011, 1568109061.3423834
15681090613730948, 1568109061.4020064
1568109061436853, 1568109061.4627922
15681090615164392, 1568109061.543264
15681090615763593, 1568109061.6030676
15681090616364746, 1568109061.6633456
1568109061697696, 1568109061.7238345
15681090617574623, 1568109061.7836113
1568109061818051, 1568109061.8432934
15681090618784819, 1568109061.9038782
156810906194474, 1568109061.9667807
15681090620017407, 1568109062.0282183
1568109062062934, 1568109062.0890536
15681090621214113, 1568109062.169525
15681090622041914, 1568109062.2312129
15681090622642307, 1568109062.2907844
15681090623240082, 1568109062.3506904
15681090623856041, 1568109062.4109251
15681090624438498, 1568109062.4694967
15681090625019321, 1568109062.527965
1568109062561285, 1568109062.5870483
1568109062619765, 1568109062.6453454
15681090626783948, 1568109062.7208412
15681090627398188, 1568109062.7844026
15681090628193877, 1568109062.8445868
15681090628776467, 1568109062.9036593
15681090629364936, 1568109062.9787014
15681090629949534, 1568109063.033182
15681090630493777, 1568109063.0884404
1568109063105212, 1568109063.1482875
15681090631815221, 1568109063.2070413
1568109063242599, 1568109063.2638671
15681090632979584, 1568109063.3224921
1568109063355904, 1568109063.3816814
15681090634160163, 1568109063.4404533
15681090634742064, 1568109063.5003633
15681090635563579, 1568109063.5840974
1568109063618814, 1568109063.6441052
15681090636780095, 1568109063.7032192
15681090637350483, 1568109063.7627316
1568109063794022, 1568109063.8228643
15681090638561952, 1568109063.8843136
1568109063914881, 1568109063.9416454
1568109063973432, 1568109064.0017114
15681090640411246, 1568109064.0835679
15681090641005447, 1568109064.1413045
15681090641709335, 1568109064.1995049
1568109064229907, 1568109064.2563548
15681090642866604, 1568109064.3121014
15681090643430157, 1568109064.3687787
15681090643971603, 1568109064.4229047
15681090644528728, 1568109064.4783986
15681090645090172, 1568109064.5343142
15681090645660574, 1568109064.590758
1568109064624194, 1568109064.6615813
15681090646843014, 1568109064.7236915
15681090647547693, 1568109064.781141
15681090648119452, 1568109064.8373826
15681090648687258, 1568109064.893308
15681090649244769, 1568109064.9659264
15681090649853618, 1568109065.0253606
15681090650570796, 1568109065.0836885
1568109065115857, 1568109065.1418931
15681090651721458, 1568109065.1990342
15681090652282197, 1568109065.2547343
15681090652849991, 1568109065.3103168
156810906534039, 1568109065.3656666
15681090653955429, 1568109065.433453
15681090654643342, 1568109065.493257
15681090655247684, 1568109065.5634139
15681090655930088, 1568109065.619241
15681090656479769, 1568109065.6746354
15681090657030685, 1568109065.7416952
15681090657727325, 1568109065.7973073
