grab_timestamp, write_timestamp
15681094103393655, 1568109410.3672814
1568109410399343, 1568109410.4295034
1568109410454376, 1568109410.4856799
15681094105219376, 1568109410.5491798
156810941059206, 1568109410.61943
1568109410649296, 1568109410.6748035
15681094107107308, 1568109410.7542555
1568109410805387, 1568109410.8500407
15681094108980336, 1568109410.927863
15681094109768639, 1568109411.0211096
15681094110701327, 1568109411.113423
15681094111610808, 1568109411.2029555
15681094112479563, 1568109411.3194451
15681094113700728, 1568109411.4136434
15681094114622366, 1568109411.506543
15681094115565083, 1568109411.6014378
1568109411651327, 1568109411.6962929
15681094117437658, 1568109411.787879
15681094118352594, 1568109411.879405
15681094119273605, 1568109412.0029037
15681094120516253, 1568109412.0962384
15681094132143044, 1568109413.2578764
15681094133064594, 1568109413.3503509
1568109413398487, 1568109413.4820266
1568109413529158, 1568109413.5727496
15681094136200294, 1568109413.6638076
15681094137118292, 1568109413.7562091
15681094138033457, 1568109413.8788488
15681094138960521, 1568109413.9648292
1568109414012913, 1568109414.0574732
15681094141050684, 1568109414.1495576
15681094141971629, 1568109414.2416632
15681094142923121, 1568109414.3193107
15681094143487694, 1568109414.3770049
15681094144064782, 1568109414.4326892
15681094144626157, 1568109414.5014095
15681094145185094, 1568109414.5419943
1568109414574219, 1568109414.5974455
15681094146293411, 1568109414.6672888
15681094146841083, 1568109414.7180736
15681094147523334, 1568109414.7794924
15681094148080606, 1568109414.8469143
15681094148839955, 1568109414.9077082
15681094149426842, 1568109414.965656
1568109414998647, 1568109415.0252
1568109415057258, 1568109415.084982
15681094151174505, 1568109415.1440809
15681094151773944, 1568109415.2185378
15681094152536428, 1568109415.28281
15681094153139803, 1568109415.339827
15681094153740346, 1568109415.3989844
15681094154312527, 1568109415.4739957
15681094154938827, 1568109415.5371184
15681094155727515, 1568109415.5994885
1568109415632262, 1568109415.6589131
1568109415690571, 1568109415.7179978
15681094157521236, 1568109415.7778928
15681094158123395, 1568109415.837115
15681094158696065, 1568109415.8962111
1568109415930255, 1568109415.9585135
15681094159933777, 1568109416.0174959
15681094160486865, 1568109416.0748293
15681094161067383, 1568109416.1490264
1568109416165042, 1568109416.2026532
15681094162348073, 1568109416.2622595
15681094162939355, 1568109416.320409
15681094163523078, 1568109416.378582
15681094164125545, 1568109416.4370494
15681094164686725, 1568109416.4945798
1568109416528594, 1568109416.5689585
15681094166025634, 1568109416.628393
15681094166601925, 1568109416.6859462
15681094167172055, 1568109416.7434754
15681094167885978, 1568109416.8358514
15681094168688636, 1568109416.89501
15681094169315715, 1568109416.9583633
15681094169901106, 1568109417.0170624
15681094170496354, 1568109417.07536
15681094171090362, 1568109417.1508
15681094171672559, 1568109417.2113082
1568109417244719, 1568109417.2717588
15681094173052795, 1568109417.330966
15681094173656442, 1568109417.3891215
15681094174220278, 1568109417.4481382
1568109417480541, 1568109417.5207365
15681094175528178, 1568109417.5798366
1568109417612313, 1568109417.6393776
15681094176705084, 1568109417.698389
15681094177322087, 1568109417.7573864
1568109417789506, 1568109417.8159482
1568109417850535, 1568109417.8755853
1568109417910232, 1568109417.9353287
156810941796863, 1568109417.9945912
1568109418030924, 1568109418.056712
15681094180885484, 1568109418.1146727
156810941814689, 1568109418.1741433
15681094182069385, 1568109418.2355032
15681094182688282, 1568109418.2952616
15681094183280938, 1568109418.3541594
15681094183875225, 1568109418.4135845
15681094184478748, 1568109418.4897285
15681094185062704, 1568109418.548357
1568109418581315, 1568109418.6071908
15681094186424816, 1568109418.6667244
15681094187004635, 1568109418.7254677
15681094187594252, 1568109418.7845328
15681094188174052, 1568109418.841585
15681094188950264, 1568109418.9207673
15681094189544153, 1568109418.9764276
15681094190094945, 1568109419.0348656
1568109419063727, 1568109419.091035
15681094191205328, 1568109419.149001
15681094191775422, 1568109419.205978
1568109419235825, 1568109419.26581
15681094192971992, 1568109419.3236625
15681094193525763, 1568109419.3785257
1568109419407579, 1568109419.4506485
15681094194815192, 1568109419.5081782
15681094195379171, 1568109419.5635185
1568109419594899, 1568109419.6219978
15681094196505353, 1568109419.676238
15681094197067566, 1568109419.7337766
15681094197635412, 1568109419.7892451
15681094198190858, 1568109419.8474953
15681094198777483, 1568109419.9032614
15681094199335806, 1568109419.9596455
15681094199931743, 1568109420.0296931
15681094200603027, 1568109420.0869162
15681094201183074, 1568109420.1444871
15681094201739223, 1568109420.215968
1568109420232891, 1568109420.2722712
15681094203022978, 1568109420.3281796
1568109420358213, 1568109420.3963034
15681094204266977, 1568109420.4528275
15681094204865816, 1568109420.5102928
15681094205403256, 1568109420.5645123
15681094205949807, 1568109420.6320622
15681094206494694, 1568109420.6818552
15681094207127752, 1568109420.7381425
15681094207693357, 1568109420.794835
15681094208243237, 1568109420.862255
1568109420893176, 1568109420.9189415
15681094209490397, 1568109420.9742482
15681094210040812, 1568109421.0296159
15681094210587258, 1568109421.0858026
15681094211142466, 1568109421.1404989
1568109421170175, 1568109421.1954646
15681094212245193, 1568109421.2503495
1568109421280067, 1568109421.305606
15681094213360424, 1568109421.3607912
15681094213909166, 1568109421.4156194
1568109421445117, 1568109421.482422
15681094215134177, 1568109421.5402465
15681094215877209, 1568109421.6144638
15681094216432743, 1568109421.6685305
15681094216986477, 1568109421.7237775
15681094217526658, 1568109421.7784195
15681094218096144, 1568109421.835327
1568109421865658, 1568109421.9035177
15681094219367144, 1568109421.9623764
15681094219930737, 1568109422.0187023
15681094220484366, 1568109422.0732925
15681094221039798, 1568109422.1278577
