grab_timestamp, write_timestamp
15681103958449442, 1568110395.865616
1568110395897997, 1568110395.9711034
15681103959962995, 1568110396.0237706
15681103960493972, 1568110396.0797
1568110396109514, 1568110396.1352077
15681103961648386, 1568110396.1909993
15681103962204924, 1568110396.2478974
15681103962779047, 1568110396.3124027
1568110396350604, 1568110396.3762858
15681103964202533, 1568110396.4475935
15681103964945624, 1568110396.5397124
15681103965762773, 1568110396.6025565
1568110396634325, 1568110396.6617453
15681103966938071, 1568110396.7208817
15681103967506585, 1568110396.7771056
15681103968093529, 1568110396.839478
15681103968746216, 1568110396.903239
15681103969548433, 1568110397.0021918
15681103970521297, 1568110397.1359398
1568110397152607, 1568110397.2280488
15681103972798471, 1568110397.3210306
15681103973529446, 1568110397.3972805
15681103974447937, 1568110397.4823406
15681103975312185, 1568110397.556985
15681103976099184, 1568110397.6527302
15681103977088366, 1568110397.7536182
15681103978097887, 1568110397.885019
15681103979045742, 1568110397.9589286
15681103980110369, 1568110398.0536227
15681103980937452, 1568110398.1442294
15681103981904197, 1568110398.2350287
1568110398264811, 1568110398.3095782
15681103983619947, 1568110398.4071012
15681103984554994, 1568110398.4847617
15681103985173934, 1568110398.5602295
1568110398608547, 1568110398.6535718
15681103986874878, 1568110398.732492
15681103987853737, 1568110398.8231013
1568110398874538, 1568110398.9194343
1568110398968949, 1568110399.0414784
15681103990587463, 1568110399.1154633
15681103991569867, 1568110399.1857264
1568110399222265, 1568110399.2741005
1568110399305839, 1568110399.3770304
15681103994251432, 1568110399.4700184
15681103994994423, 1568110399.544706
1568110399593493, 1568110399.6380649
1568110399668579, 1568110399.7038186
1568110399752991, 1568110399.7966766
15681103998448615, 1568110399.8878264
15681103999386775, 1568110399.9821117
15681104000138147, 1568110400.0395663
15681104000720246, 1568110400.0969648
15681104001270354, 1568110400.154706
15681104001827333, 1568110400.2101908
15681104002442672, 1568110400.2809448
15681104002972643, 1568110400.3190258
15681104003482277, 1568110400.3927135
15681104004106092, 1568110400.4447455
1568110400479643, 1568110400.5065415
15681104005390596, 1568110400.5656078
1568110400593657, 1568110400.6211727
1568110400653439, 1568110400.678612
15681104007106535, 1568110400.7365708
1568110400789167, 1568110400.8183138
15681104008509216, 1568110400.877432
1568110400909627, 1568110400.936737
1568110400969831, 1568110400.9959788
15681104010289478, 1568110401.055299
1568110401087039, 1568110401.113549
15681104011463099, 1568110401.1725657
1568110401206923, 1568110401.2312741
1568110401264847, 1568110401.2915885
15681104013237617, 1568110401.3508582
1568110401382842, 1568110401.409209
156811040144567, 1568110401.4677756
15681104014989705, 1568110401.5259628
15681104015578759, 1568110401.5869112
15681104016216156, 1568110401.665963
15681104016828175, 1568110401.7265568
15681104017593951, 1568110401.7866004
15681104018203754, 1568110401.865315
15681104018982234, 1568110401.9269695
15681104019617581, 1568110401.9883227
15681104020231283, 1568110402.0476365
15681104020804684, 1568110402.1067832
156811040213838, 1568110402.1835444
1568110402219788, 1568110402.242468
1568110402276293, 1568110402.2999313
15681104023324687, 1568110402.3749611
15681104023915563, 1568110402.4293048
15681104024617712, 1568110402.4889572
15681104025235553, 1568110402.5483139
15681104025834193, 1568110402.6093967
15681104026498566, 1568110402.6733356
156811040270768, 1568110402.7331493
1568110402764928, 1568110402.7914808
15681104028245254, 1568110402.8490784
15681104028849745, 1568110402.908006
1568110402940092, 1568110402.9661908
15681104029980514, 1568110403.0417025
15681104030586793, 1568110403.0814047
1568110403113752, 1568110403.1577961
15681104031928005, 1568110403.2191184
1568110403251536, 1568110403.2783756
15681104033176122, 1568110403.339775
15681104033721154, 1568110403.396807
15681104034299138, 1568110403.4547136
15681104034865677, 1568110403.512684
15681104035493455, 1568110403.593311
15681104036284728, 1568110403.6567698
15681104036923282, 1568110403.718482
15681104037353437, 1568110403.7782943
15681104038142717, 1568110403.8400028
15681104038752167, 1568110403.90198
15681104039366384, 1568110403.9825428
15681104040030963, 1568110404.0466013
15681104040927596, 1568110404.118604
156811040414964, 1568110404.176095
15681104042146702, 1568110404.2405221
15681104042727957, 1568110404.3009806
15681104043327324, 1568110404.3606296
15681104044015226, 1568110404.4261642
1568110404481066, 1568110404.506465
15681104045427656, 1568110404.5712876
15681104045882914, 1568110404.6384935
15681104046724114, 1568110404.6993527
15681104047334604, 1568110404.7590706
15681104047920413, 1568110404.8350322
15681104048531883, 1568110404.875314
15681104049309678, 1568110404.9522905
1568110404985349, 1568110405.0091295
15681104050396304, 1568110405.0680394
15681104050981958, 1568110405.1254168
15681104051575866, 1568110405.2001653
15681104052334034, 1568110405.259744
15681104052948174, 1568110405.3175838
15681104053502638, 1568110405.37375
15681104054108458, 1568110405.4349322
1568110405464899, 1568110405.4926548
15681104055226755, 1568110405.5508955
15681104055815763, 1568110405.6077864
15681104056375687, 1568110405.6627223
15681104056944804, 1568110405.7212272
15681104057547946, 1568110405.7799506
15681104058081589, 1568110405.8502545
15681104058804011, 1568110405.9069195
15681104059377632, 1568110405.964629
15681104059960444, 1568110406.0218081
15681104060562153, 1568110406.080739
15681104061118968, 1568110406.149382
15681104061666493, 1568110406.2040281
1568110406222411, 1568110406.258922
15681104062945, 1568110406.3212762
15681104063533196, 1568110406.379288
15681104064102535, 1568110406.4566915
15681104064887106, 1568110406.5149422
15681104065446308, 1568110406.5839927
15681104066169045, 1568110406.6422367
15681104066715927, 1568110406.6975403
15681104067267876, 1568110406.75262
15681104067874653, 1568110406.8118966
1568110406842165, 1568110406.8677933
1568110406898334, 1568110406.923374
15681104069533143, 1568110406.9793587
15681104070100384, 1568110407.0364816
1568110407069197, 1568110407.110586
15681104071454592, 1568110407.1723628
15681104072037363, 1568110407.2293487
1568110407262119, 1568110407.2891312
15681104073212917, 1568110407.3472762
15681104073819404, 1568110407.4099548
1568110407444715, 1568110407.4714885
15681104075224786, 1568110407.550195
15681104075870948, 1568110407.614787
15681104076471157, 1568110407.6750672
15681104077077367, 1568110407.736783
15681104077699623, 1568110407.7958992
1568110407814022, 1568110407.8551812
15681104078847587, 1568110407.910894
156811040794159, 1568110407.9670177
15681104080164135, 1568110408.0435061
1568110408077309, 1568110408.1072123
1568110408141092, 1568110408.184669
15681104082156663, 1568110408.2414765
15681104082722301, 1568110408.2976003
15681104083266747, 1568110408.3552623
15681104083858457, 1568110408.4110096
15681104084421155, 1568110408.4808223
1568110408497975, 1568110408.530776
1568110408547403, 1568110408.5868478
15681104086167216, 1568110408.6414845
