EESchema Schematic File Version 4
LIBS:rc_car-cache
EELAYER 29 0
EELAYER END
$Descr A4 11693 8268
encoding utf-8
Sheet 1 1
Title "Toyota RC car hardware design"
Date "2019-07-15"
Rev "1"
Comp "CTU FEE"
Comment1 "Created by Dominik Filyo"
Comment2 ""
Comment3 ""
Comment4 ""
$EndDescr
$Comp
L rc_hardware:vesc U8
U 1 1 5D28CCBE
P 9050 4750
F 0 "U8" H 9050 6350 50  0000 C CNN
F 1 "VESC" H 9050 4750 50  0000 C CNN
F 2 "" H 9100 6400 50  0001 C CNN
F 3 "" H 9100 6400 50  0001 C CNN
	1    9050 4750
	1    0    0    -1  
$EndComp
$Comp
L rc_hardware:arduino-nano U7
U 1 1 5D28E31A
P 5850 4700
F 0 "U7" H 5650 3800 50  0000 C CNN
F 1 "ARDUINO NANO" V 5850 4600 50  0000 C CNN
F 2 "" H 5850 5500 50  0001 C CNN
F 3 "" H 5850 5500 50  0001 C CNN
	1    5850 4700
	-1   0    0    1   
$EndComp
$Comp
L rc_hardware:gy-mpu6050 U3
U 1 1 5D28F252
P 3650 6150
F 0 "U3" H 3600 5650 50  0000 L CNN
F 1 "MPU-6050" V 3750 5900 50  0000 L CNN
F 2 "" H 3650 6650 50  0001 C CNN
F 3 "" H 3650 6650 50  0001 C CNN
	1    3650 6150
	1    0    0    1   
$EndComp
$Comp
L rc_hardware:step-down U2
U 1 1 5D28F7F4
P 2100 1650
F 0 "U2" H 2100 1900 50  0000 C CNN
F 1 "STEP-DOWN" H 2100 1400 50  0000 C CNN
F 2 "" H 2100 1900 50  0001 C CNN
F 3 "" H 2100 1900 50  0001 C CNN
	1    2100 1650
	1    0    0    -1  
$EndComp
$Comp
L Device:R R1
U 1 1 5D2973AE
P 5050 3500
F 0 "R1" H 5120 3546 50  0000 L CNN
F 1 "2K" H 5120 3455 50  0000 L CNN
F 2 "" V 4980 3500 50  0001 C CNN
F 3 "~" H 5050 3500 50  0001 C CNN
	1    5050 3500
	0    -1   -1   0   
$EndComp
$Comp
L Device:R R2
U 1 1 5D297CC3
P 5450 3500
F 0 "R2" H 5520 3546 50  0000 L CNN
F 1 "1K" H 5520 3455 50  0000 L CNN
F 2 "" V 5380 3500 50  0001 C CNN
F 3 "~" H 5450 3500 50  0001 C CNN
	1    5450 3500
	0    -1   -1   0   
$EndComp
$Comp
L Device:Battery BT3
U 1 1 5D29B3BF
P 900 1650
F 0 "BT3" H 1008 1696 50  0000 L CNN
F 1 "Battery 3S1P" H 1008 1605 50  0000 L CNN
F 2 "" V 900 1710 50  0001 C CNN
F 3 "~" V 900 1710 50  0001 C CNN
	1    900  1650
	1    0    0    -1  
$EndComp
$Comp
L Device:Battery BT2
U 1 1 5D29EFFA
P 10100 4000
F 0 "BT2" H 10208 4046 50  0000 L CNN
F 1 "Battery 4S1P" H 10208 3955 50  0000 L CNN
F 2 "" V 10100 4060 50  0001 C CNN
F 3 "~" V 10100 4060 50  0001 C CNN
	1    10100 4000
	1    0    0    -1  
$EndComp
$Comp
L Device:Battery BT1
U 1 1 5D29F988
P 10100 3600
F 0 "BT1" H 10208 3646 50  0000 L CNN
F 1 "Battery 4S1P" H 10208 3555 50  0000 L CNN
F 2 "" V 10100 3660 50  0001 C CNN
F 3 "~" V 10100 3660 50  0001 C CNN
	1    10100 3600
	1    0    0    -1  
$EndComp
$Comp
L power:GND #PWR04
U 1 1 5D298E71
P 2600 1800
F 0 "#PWR04" H 2600 1550 50  0001 C CNN
F 1 "GND" H 2605 1627 50  0000 C CNN
F 2 "" H 2600 1800 50  0001 C CNN
F 3 "" H 2600 1800 50  0001 C CNN
	1    2600 1800
	1    0    0    -1  
$EndComp
$Comp
L power:GND #PWR03
U 1 1 5D2AF669
P 1250 3450
F 0 "#PWR03" H 1250 3200 50  0001 C CNN
F 1 "GND" H 1255 3277 50  0000 C CNN
F 2 "" H 1250 3450 50  0001 C CNN
F 3 "" H 1250 3450 50  0001 C CNN
	1    1250 3450
	1    0    0    -1  
$EndComp
Wire Wire Line
	10100 4200 9750 4200
Wire Wire Line
	10100 3400 9750 3400
$Comp
L rc_hardware:motor M3
U 1 1 5D35BFAB
P 10300 4600
F 0 "M3" H 10632 4665 50  0000 L CNN
F 1 "AC MOTOR" H 10632 4574 50  0000 L CNN
F 2 "" H 10300 4410 50  0001 C CNN
F 3 "http://forums.parallax.com/uploads/attachments/46831/74481.png" H 10300 4410 50  0001 C CNN
	1    10300 4600
	1    0    0    -1  
$EndComp
Wire Wire Line
	10000 4500 9750 4500
Wire Wire Line
	10000 4600 9750 4600
Wire Wire Line
	9750 4700 10000 4700
Wire Wire Line
	5200 3500 5250 3500
$Comp
L Device:R R4
U 1 1 5D397269
P 7000 4900
F 0 "R4" H 7070 4946 50  0000 L CNN
F 1 "2K" H 7070 4855 50  0000 L CNN
F 2 "" V 6930 4900 50  0001 C CNN
F 3 "~" H 7000 4900 50  0001 C CNN
	1    7000 4900
	1    0    0    -1  
$EndComp
$Comp
L rc_hardware:receiver U5
U 1 1 5D3147EE
P 4600 4500
F 0 "U5" V 4150 4650 50  0000 C CNN
F 1 "RECEIVER" H 4600 4750 50  0000 C CNN
F 2 "" H 4600 4750 50  0001 C CNN
F 3 "" H 4600 4750 50  0001 C CNN
	1    4600 4500
	0    1    1    0   
$EndComp
Wire Wire Line
	5400 4450 5100 4450
Wire Wire Line
	4700 3900 5100 3900
Wire Wire Line
	4700 5100 5100 5100
Wire Wire Line
	5100 4550 5400 4550
$Comp
L power:GND #PWR013
U 1 1 5D3D705F
P 7000 5100
F 0 "#PWR013" H 7000 4850 50  0001 C CNN
F 1 "GND" H 7005 4927 50  0000 C CNN
F 2 "" H 7000 5100 50  0001 C CNN
F 3 "" H 7000 5100 50  0001 C CNN
	1    7000 5100
	1    0    0    -1  
$EndComp
Wire Wire Line
	5250 3500 5250 3300
Connection ~ 5250 3500
Wire Wire Line
	5250 3500 5300 3500
Wire Wire Line
	7000 3500 7000 4150
$Comp
L power:GND #PWR011
U 1 1 5D3DEB8C
P 4850 3550
F 0 "#PWR011" H 4850 3300 50  0001 C CNN
F 1 "GND" H 4855 3377 50  0000 C CNN
F 2 "" H 4850 3550 50  0001 C CNN
F 3 "" H 4850 3550 50  0001 C CNN
	1    4850 3550
	1    0    0    -1  
$EndComp
Wire Wire Line
	4900 3500 4850 3500
Wire Wire Line
	7000 5050 7000 5100
NoConn ~ 8400 6050
NoConn ~ 8400 5950
Wire Wire Line
	7300 4700 7300 5550
Wire Wire Line
	7300 5550 8400 5550
$Comp
L power:GND #PWR015
U 1 1 5D41CAB7
P 8150 4800
F 0 "#PWR015" H 8150 4550 50  0001 C CNN
F 1 "GND" H 8155 4627 50  0000 C CNN
F 2 "" H 8150 4800 50  0001 C CNN
F 3 "" H 8150 4800 50  0001 C CNN
	1    8150 4800
	1    0    0    -1  
$EndComp
$Comp
L Relay:DIPxx-1Cxx-51x K1
U 1 1 5D2B74F4
P 7800 4950
F 0 "K1" V 7350 4900 50  0000 L CNN
F 1 "RADIO RELAY" V 8250 4700 50  0000 L CNN
F 2 "Relay_THT:Relay_StandexMeder_DIP_LowProfile" H 8250 4900 50  0001 L CNN
F 3 "https://standexelectronics.com/wp-content/uploads/datasheet_reed_relay_DIP.pdf" H 7800 4950 50  0001 C CNN
	1    7800 4950
	0    -1   1    0   
$EndComp
Wire Wire Line
	7500 5050 7400 5050
Wire Wire Line
	7400 5050 7400 5450
Wire Wire Line
	8250 5450 8250 5350
Wire Wire Line
	8250 5350 8400 5350
NoConn ~ 8400 5250
NoConn ~ 8400 5050
NoConn ~ 8400 4950
NoConn ~ 8400 4750
NoConn ~ 8400 4650
NoConn ~ 8400 4450
NoConn ~ 8400 4150
NoConn ~ 8400 4050
Wire Wire Line
	8150 4750 8100 4750
Wire Wire Line
	7500 4750 7400 4750
Wire Wire Line
	2550 1750 2600 1750
Wire Wire Line
	900  1450 1350 1450
Wire Wire Line
	1350 1450 1350 1550
Wire Wire Line
	1350 1550 1650 1550
Wire Wire Line
	900  1850 1350 1850
Wire Wire Line
	1350 1850 1350 1750
Wire Wire Line
	1350 1750 1650 1750
$Comp
L power:+BATT #PWR01
U 1 1 5D469516
P 900 1450
F 0 "#PWR01" H 900 1300 50  0001 C CNN
F 1 "+BATT" H 915 1623 50  0000 C CNN
F 2 "" H 900 1450 50  0001 C CNN
F 3 "" H 900 1450 50  0001 C CNN
	1    900  1450
	1    0    0    -1  
$EndComp
Connection ~ 900  1450
$Comp
L power:+BATT #PWR014
U 1 1 5D46D07E
P 7400 4700
F 0 "#PWR014" H 7400 4550 50  0001 C CNN
F 1 "+BATT" H 7415 4873 50  0000 C CNN
F 2 "" H 7400 4700 50  0001 C CNN
F 3 "" H 7400 4700 50  0001 C CNN
	1    7400 4700
	1    0    0    -1  
$EndComp
Wire Wire Line
	7400 4750 7400 4700
Wire Wire Line
	4850 3500 4850 3550
Wire Wire Line
	8150 4750 8150 4800
Wire Wire Line
	2600 1750 2600 1800
Wire Wire Line
	4700 5000 4700 5100
Connection ~ 4700 5100
Wire Wire Line
	5100 4550 5100 5100
Wire Wire Line
	4150 3900 4700 3900
Connection ~ 4700 3900
Wire Wire Line
	4700 3900 4700 4000
Wire Wire Line
	5100 4450 5100 3900
Wire Wire Line
	2550 5100 4700 5100
Wire Wire Line
	4150 3900 4150 5000
Wire Wire Line
	4150 5000 2550 5000
Wire Wire Line
	3350 6200 3050 6200
Wire Wire Line
	3050 6200 3050 5200
Wire Wire Line
	3050 5200 2550 5200
Wire Wire Line
	2550 5300 2950 5300
Wire Wire Line
	2950 5300 2950 6300
Wire Wire Line
	2950 6300 3350 6300
NoConn ~ 3350 6100
NoConn ~ 3350 6000
NoConn ~ 3350 5900
Wire Wire Line
	1250 3450 1250 3400
Wire Wire Line
	1250 3400 1500 3400
Wire Wire Line
	1500 3300 1500 3400
Connection ~ 1500 3400
$Comp
L power:GND #PWR07
U 1 1 5D4C5FC7
P 3100 6600
F 0 "#PWR07" H 3100 6350 50  0001 C CNN
F 1 "GND" H 3105 6427 50  0000 C CNN
F 2 "" H 3100 6600 50  0001 C CNN
F 3 "" H 3100 6600 50  0001 C CNN
	1    3100 6600
	1    0    0    -1  
$EndComp
Wire Wire Line
	3350 6400 3100 6400
$Comp
L power:+5V #PWR02
U 1 1 5D4C91A4
P 1250 3150
F 0 "#PWR02" H 1250 3000 50  0001 C CNN
F 1 "+5V" H 1265 3323 50  0000 C CNN
F 2 "" H 1250 3150 50  0001 C CNN
F 3 "" H 1250 3150 50  0001 C CNN
	1    1250 3150
	1    0    0    -1  
$EndComp
$Comp
L power:+5V #PWR05
U 1 1 5D4CCD99
P 2750 6400
F 0 "#PWR05" H 2750 6250 50  0001 C CNN
F 1 "+5V" H 2765 6573 50  0000 C CNN
F 2 "" H 2750 6400 50  0001 C CNN
F 3 "" H 2750 6400 50  0001 C CNN
	1    2750 6400
	1    0    0    -1  
$EndComp
Wire Wire Line
	3350 6500 2750 6500
Wire Wire Line
	2750 6500 2750 6400
Wire Wire Line
	3100 6400 3100 6600
$Comp
L Motor:Motor_Servo M1
U 1 1 5D30F787
P 4100 3400
F 0 "M1" H 4432 3465 50  0000 L CNN
F 1 "SERVO MOTOR" H 4432 3374 50  0000 L CNN
F 2 "" H 4100 3210 50  0001 C CNN
F 3 "http://forums.parallax.com/uploads/attachments/46831/74481.png" H 4100 3210 50  0001 C CNN
	1    4100 3400
	-1   0    0    -1  
$EndComp
Wire Wire Line
	5250 3300 4400 3300
Wire Wire Line
	4400 3400 4600 3400
Wire Wire Line
	4600 3400 4600 4000
Wire Wire Line
	4500 4000 4500 3500
Wire Wire Line
	4500 3500 4400 3500
Wire Wire Line
	7100 3050 7100 4250
Wire Wire Line
	7100 4250 8400 4250
Wire Wire Line
	8400 4350 7200 4350
NoConn ~ 2200 5500
NoConn ~ 2150 5500
NoConn ~ 2100 5500
NoConn ~ 2050 5500
NoConn ~ 2000 5500
NoConn ~ 1950 5500
NoConn ~ 1900 5500
NoConn ~ 6300 3950
NoConn ~ 6300 4050
NoConn ~ 6300 4350
NoConn ~ 6300 4450
NoConn ~ 6300 4550
NoConn ~ 6300 4650
NoConn ~ 6300 4750
NoConn ~ 6300 4850
NoConn ~ 6300 4950
NoConn ~ 6300 5050
NoConn ~ 6300 5250
NoConn ~ 6300 5350
NoConn ~ 5400 5350
NoConn ~ 5400 5150
NoConn ~ 5400 5050
NoConn ~ 5400 4950
NoConn ~ 5400 4850
NoConn ~ 5400 4750
NoConn ~ 5400 4650
NoConn ~ 5400 4350
NoConn ~ 5400 4250
NoConn ~ 5400 4150
NoConn ~ 5400 4050
NoConn ~ 5400 3950
$Comp
L rc_hardware:arduino-mega U1
U 1 1 5D28DC5F
P 2050 4050
F 0 "U1" H 1750 5350 50  0000 C CNN
F 1 "ARDUINO MEGA" H 2050 4000 50  0000 C CNN
F 2 "" H 2350 5350 50  0001 C CNN
F 3 "" H 2350 5350 50  0001 C CNN
	1    2050 4050
	1    0    0    -1  
$EndComp
Wire Bus Line
	6450 2650 2050 2650
Wire Wire Line
	1500 3200 1250 3200
Wire Wire Line
	1250 3200 1250 3150
NoConn ~ 1500 2900
NoConn ~ 1500 3500
Wire Wire Line
	6150 2200 6250 2200
NoConn ~ 1500 3100
$Comp
L Motor:Fan M2
U 1 1 5D2CB541
P 4600 950
F 0 "M2" V 4850 1050 50  0000 L CNN
F 1 "FAN" V 4750 1050 50  0000 L CNN
F 2 "" H 4600 960 50  0001 C CNN
F 3 "~" H 4600 960 50  0001 C CNN
	1    4600 950 
	0    -1   -1   0   
$EndComp
Wire Wire Line
	1350 3000 1500 3000
Wire Bus Line
	2550 1550 3200 1550
Wire Bus Line
	3200 1550 3200 1750
Wire Bus Line
	3200 1750 3850 1750
$Comp
L rc_hardware:jetson U6
U 1 1 5D29022F
P 5100 1750
F 0 "U6" V 5500 450 50  0000 C CNN
F 1 "NVIDIA JETSON" V 5100 1650 50  0000 C CNN
F 2 "" H 5100 2900 50  0001 C CNN
F 3 "" H 5100 2900 50  0001 C CNN
	1    5100 1750
	0    -1   -1   0   
$EndComp
Wire Wire Line
	3750 2850 3750 1200
Wire Wire Line
	3750 1200 4350 1200
Wire Wire Line
	4350 1200 4350 1300
Wire Wire Line
	3650 2750 3650 1100
Wire Wire Line
	3650 1100 4450 1100
Wire Wire Line
	4450 1100 4450 1300
Wire Bus Line
	6450 2650 6450 2200
Wire Bus Line
	6550 2750 6550 2200
Wire Bus Line
	5850 2750 6550 2750
Wire Bus Line
	5850 2750 5850 3750
Wire Bus Line
	2050 2650 2050 2700
Wire Wire Line
	4150 950  4300 950 
Wire Wire Line
	4150 950  4150 1300
Wire Wire Line
	4800 950  4950 950 
Wire Wire Line
	4950 950  4950 1300
Wire Wire Line
	4500 5750 4500 5000
Wire Wire Line
	4600 5650 4600 5000
Wire Wire Line
	7200 4350 7200 2950
Wire Wire Line
	7000 4650 7000 4700
$Comp
L Device:R R3
U 1 1 5D397263
P 7000 4500
F 0 "R3" H 7070 4546 50  0000 L CNN
F 1 "1K" H 7070 4455 50  0000 L CNN
F 2 "" V 6930 4500 50  0001 C CNN
F 3 "~" H 7000 4500 50  0001 C CNN
	1    7000 4500
	1    0    0    -1  
$EndComp
Wire Wire Line
	7300 4700 7000 4700
Connection ~ 7000 4700
Wire Wire Line
	7000 4700 7000 4750
Wire Wire Line
	7000 4350 7000 4250
NoConn ~ 8400 6150
NoConn ~ 8400 6250
NoConn ~ 8400 3750
NoConn ~ 8400 3650
NoConn ~ 8400 3550
NoConn ~ 8400 3450
Wire Wire Line
	3300 4600 3600 4600
Wire Wire Line
	3000 2950 3000 4600
Wire Wire Line
	2800 4300 2800 2750
Wire Wire Line
	2900 4400 2900 2850
Wire Wire Line
	3300 4600 3300 4900
Wire Wire Line
	3200 4500 3200 4800
Wire Wire Line
	3600 4500 3200 4500
Wire Wire Line
	3100 4700 3100 3050
Wire Wire Line
	3550 4400 3550 4350
Wire Wire Line
	3600 4400 3550 4400
$Comp
L power:+5V #PWR08
U 1 1 5D4E4D82
P 3550 4350
F 0 "#PWR08" H 3550 4200 50  0001 C CNN
F 1 "+5V" H 3565 4523 50  0000 C CNN
F 2 "" H 3550 4350 50  0001 C CNN
F 3 "" H 3550 4350 50  0001 C CNN
	1    3550 4350
	1    0    0    -1  
$EndComp
Wire Wire Line
	3550 4700 3550 4750
Wire Wire Line
	3600 4700 3550 4700
$Comp
L power:GND #PWR09
U 1 1 5D4E0F5B
P 3550 4750
F 0 "#PWR09" H 3550 4500 50  0001 C CNN
F 1 "GND" H 3555 4577 50  0000 C CNN
F 2 "" H 3550 4750 50  0001 C CNN
F 3 "" H 3550 4750 50  0001 C CNN
	1    3550 4750
	1    0    0    -1  
$EndComp
$Comp
L rc_hardware:gps-neo6m U4
U 1 1 5D28EE1D
P 3850 4550
F 0 "U4" H 3850 4250 50  0000 C CNN
F 1 "GPS" V 3750 4550 50  0000 C CNN
F 2 "" H 3850 4850 50  0001 C CNN
F 3 "" H 3850 4850 50  0001 C CNN
	1    3850 4550
	-1   0    0    1   
$EndComp
Wire Wire Line
	2800 2750 3650 2750
Wire Wire Line
	2900 2850 3750 2850
Wire Wire Line
	2550 4900 3300 4900
Wire Wire Line
	2550 4800 3200 4800
Wire Wire Line
	2550 4700 3100 4700
Wire Wire Line
	2550 4600 3000 4600
Wire Wire Line
	2550 4400 2900 4400
Wire Wire Line
	2550 4300 2800 4300
Wire Wire Line
	2550 4200 2700 4200
Wire Wire Line
	2700 4200 2700 5800
Wire Wire Line
	2700 5800 3350 5800
NoConn ~ 1500 5300
NoConn ~ 1500 5200
NoConn ~ 1500 5100
NoConn ~ 1500 5000
NoConn ~ 1500 4900
NoConn ~ 1500 4800
NoConn ~ 1500 4700
NoConn ~ 1500 4600
NoConn ~ 1500 4400
NoConn ~ 1500 4300
NoConn ~ 1500 4200
NoConn ~ 1500 4100
NoConn ~ 1500 4000
NoConn ~ 1500 3900
NoConn ~ 1500 3800
NoConn ~ 1500 3700
NoConn ~ 2550 2900
NoConn ~ 2550 3000
NoConn ~ 2550 3100
NoConn ~ 2550 3200
NoConn ~ 2550 3300
NoConn ~ 2550 3400
NoConn ~ 2550 3500
NoConn ~ 2550 3700
NoConn ~ 2550 3800
NoConn ~ 2550 3900
NoConn ~ 2550 4000
NoConn ~ 2550 4100
$Comp
L power:GND #PWR012
U 1 1 5D5D0A4F
P 5300 5300
F 0 "#PWR012" H 5300 5050 50  0001 C CNN
F 1 "GND" H 5305 5127 50  0000 C CNN
F 2 "" H 5300 5300 50  0001 C CNN
F 3 "" H 5300 5300 50  0001 C CNN
	1    5300 5300
	1    0    0    -1  
$EndComp
Wire Wire Line
	5400 5250 5300 5250
Wire Wire Line
	5300 5250 5300 5300
NoConn ~ 5850 2200
NoConn ~ 5750 2200
NoConn ~ 5650 2200
NoConn ~ 5950 2200
NoConn ~ 5350 2200
NoConn ~ 5250 2200
NoConn ~ 5150 2200
NoConn ~ 5050 2200
NoConn ~ 4950 2200
NoConn ~ 4850 2200
NoConn ~ 4750 2200
NoConn ~ 4650 2200
NoConn ~ 4550 2200
NoConn ~ 4350 2200
NoConn ~ 4250 2200
NoConn ~ 4150 2200
NoConn ~ 4050 2200
NoConn ~ 4050 1300
NoConn ~ 4250 1300
NoConn ~ 4550 1300
NoConn ~ 4650 1300
NoConn ~ 4750 1300
NoConn ~ 4850 1300
NoConn ~ 5050 1300
NoConn ~ 5150 1300
NoConn ~ 5250 1300
NoConn ~ 5350 1300
NoConn ~ 5450 1300
NoConn ~ 5550 1300
NoConn ~ 5650 1300
NoConn ~ 5750 1300
NoConn ~ 5850 1300
NoConn ~ 5950 1300
Wire Wire Line
	7400 5450 8250 5450
Wire Wire Line
	8100 5150 8400 5150
NoConn ~ 8400 3350
$Comp
L Device:Q_NPN_BCE Q2
U 1 1 5D2F363B
P 6550 5050
F 0 "Q2" H 6741 5096 50  0000 L CNN
F 1 "NPN" H 6741 5005 50  0000 L CNN
F 2 "" H 6750 5150 50  0001 C CNN
F 3 "~" H 6550 5050 50  0001 C CNN
	1    6550 5050
	0    -1   1    0   
$EndComp
$Comp
L power:GND #PWR?
U 1 1 5D2F3641
P 6800 5200
F 0 "#PWR?" H 6800 4950 50  0001 C CNN
F 1 "GND" H 6805 5027 50  0000 C CNN
F 2 "" H 6800 5200 50  0001 C CNN
F 3 "" H 6800 5200 50  0001 C CNN
	1    6800 5200
	1    0    0    -1  
$EndComp
Wire Wire Line
	6750 5150 6800 5150
Wire Wire Line
	6800 5150 6800 5200
Wire Wire Line
	6350 5150 6300 5150
Wire Wire Line
	4450 2200 4450 2250
$Comp
L power:GND #PWR010
U 1 1 5D5DB47A
P 4450 2250
F 0 "#PWR010" H 4450 2000 50  0001 C CNN
F 1 "GND" H 4455 2077 50  0000 C CNN
F 2 "" H 4450 2250 50  0001 C CNN
F 3 "" H 4450 2250 50  0001 C CNN
	1    4450 2250
	1    0    0    -1  
$EndComp
$Comp
L Device:Q_NPN_BCE Q1
U 1 1 5D296780
P 1450 2550
F 0 "Q1" H 1641 2596 50  0000 L CNN
F 1 "NPN" H 1641 2505 50  0000 L CNN
F 2 "" H 1650 2650 50  0001 C CNN
F 3 "~" H 1450 2550 50  0001 C CNN
	1    1450 2550
	-1   0    0    1   
$EndComp
Wire Wire Line
	1350 2750 1350 3000
Wire Wire Line
	1650 2550 5450 2550
$Comp
L power:GND #PWR06
U 1 1 5D351624
P 1650 2250
F 0 "#PWR06" H 1650 2000 50  0001 C CNN
F 1 "GND" H 1655 2077 50  0000 C CNN
F 2 "" H 1650 2250 50  0001 C CNN
F 3 "" H 1650 2250 50  0001 C CNN
	1    1650 2250
	1    0    0    -1  
$EndComp
Wire Wire Line
	1350 2200 1650 2200
Wire Wire Line
	1350 2200 1350 2350
Wire Wire Line
	5450 2200 5450 2550
Wire Wire Line
	6550 4850 6550 2850
Wire Wire Line
	6550 2850 5550 2850
Wire Wire Line
	5550 2850 5550 2200
Wire Wire Line
	5600 3500 7000 3500
Wire Wire Line
	6300 4250 7000 4250
Wire Wire Line
	6300 4150 7000 4150
Wire Wire Line
	4600 5650 8400 5650
Wire Wire Line
	4500 5750 8400 5750
Wire Wire Line
	3000 2950 7200 2950
Wire Wire Line
	3100 3050 7100 3050
Wire Wire Line
	1650 2250 1650 2200
NoConn ~ 8400 3850
NoConn ~ 8400 4550
$EndSCHEMATC
