Tx,Ty,Tz,Pitch,Roll,Yaw,Timestamp
0.0,0.0,-0.0,-0.0,-0.0,0.0,1568109549.0590827
0.0,0.0,-0.0,0.0,-0.0,0.0,1568109549.120492
-0.0,0.0,-0.0,-0.0,-0.0,-0.0,1568109549.1939971
-0.0,0.0,-0.0,-0.0,-0.0,0.0,1568109549.2224178
-0.0,0.0,-0.0,-0.0,-0.0,0.0,1568109549.2537522
-0.0,0.0,-0.0,-0.0,-0.0,0.0,1568109549.2880301
-0.0,0.0,-0.0,0.0,-0.0,0.0,1568109549.3051271
-0.0,0.0,-0.0,-0.0,-0.0,0.0,1568109549.3611913
-0.0,0.0,-0.0,0.0,-0.0,0.0,1568109549.4538326
-0.0,0.0,-0.0,0.0,-0.0,0.0,1568109549.5529156
0.0,0.0,-0.0,0.0,-0.0,0.0,1568109549.6458917
0.0,0.0,-0.001,0.0,0.0,0.0,1568109549.7442644
0.0,0.0,-0.001,0.0,0.0,0.0,1568109549.8280406
0.0,0.0,-0.001,0.0,-0.0,0.0,1568109549.9188664
0.0,0.0,-0.001,0.0,-0.0,0.0,1568109549.9767187
0.0,0.0,-0.001,0.0,0.0,0.0,1568109550.061272
0.0,0.0,-0.001,0.0,0.0,0.0,1568109550.1549535
0.0,0.0,-0.001,0.0,0.0,0.0,1568109550.2575328
0.0,0.0,-0.001,0.0,0.0,0.0,1568109550.3621202
0.0,-0.0,-0.001,0.0,0.0,0.0,1568109550.4590101
0.0,-0.0,-0.001,0.0,0.0,0.0,1568109550.5595734
0.0,-0.0,-0.001,0.0,0.0,0.0,1568109550.657585
0.001,-0.0,-0.001,0.0,0.0,0.0,1568109550.752807
0.001,-0.0,-0.001,0.0,0.0,0.0,1568109550.831565
0.001,-0.0,-0.001,0.0,0.0,0.0,1568109550.8813198
0.001,-0.0,-0.001,0.0,0.0,0.0,1568109550.9781199
0.001,-0.0,-0.001,0.0,0.0,0.0,1568109551.0637412
0.001,-0.0,-0.001,0.0,-0.0,0.0,1568109551.1468365
0.001,-0.0,-0.001,0.0,0.0,0.0,1568109551.2255385
0.001,-0.0,-0.001,0.0,0.0,0.0,1568109551.3317688
0.001,-0.0,-0.001,0.0,0.0,0.0,1568109551.4248424
0.001,-0.0,-0.001,0.0,0.0,0.0,1568109551.4848201
0.001,-0.0,-0.001,0.0,0.0,0.0,1568109551.5643904
0.001,-0.0,-0.001,0.0,0.0,0.0,1568109551.6674569
0.001,-0.0,-0.001,0.0,0.0,0.0,1568109551.7625735
0.001,-0.0,-0.001,0.0,0.0,0.0,1568109551.8457654
0.001,-0.0,-0.001,0.0,0.0,0.0,1568109551.8952334
0.001,-0.0,-0.001,0.0,0.0,0.0,1568109551.9957707
0.001,-0.0,-0.001,0.0,0.0,0.0,1568109552.068126
0.001,-0.0,-0.001,0.0,-0.0,0.0,1568109552.1334112
0.001,-0.0,-0.001,0.0,0.0,0.0,1568109552.2307692
0.001,-0.0,-0.001,0.0,0.0,0.0,1568109552.332484
0.001,-0.0,-0.001,0.0,0.0,0.0,1568109552.4264643
0.001,-0.0,-0.001,0.0,0.0,0.0,1568109552.5203993
0.001,-0.0,-0.001,0.0,0.0,0.0,1568109552.611206
0.001,-0.0,-0.001,0.0,0.0,0.0,1568109552.6834075
0.001,-0.0,-0.001,0.0,0.0,0.0,1568109552.7414057
0.001,-0.0,-0.001,0.0,0.0,0.0,1568109552.8407402
0.001,-0.0,-0.001,0.0,0.0,0.0,1568109552.9396105
0.001,-0.0,-0.001,0.0,0.0,0.0,1568109553.0337515
0.001,-0.0,-0.001,0.0,0.0,0.0,1568109553.1284237
0.001,-0.0,-0.001,0.0,0.0,0.0,1568109553.2255785
0.001,-0.0,-0.001,0.0,0.0,0.0,1568109553.3218
0.001,-0.0,-0.001,0.0,0.0,0.0,1568109553.4155564
0.001,-0.0,-0.001,0.0,0.0,0.0,1568109553.4478195
0.002,-0.002,0.004,0.06,0.0,-0.0,1568109553.5526023
0.013,-0.003,0.003,0.1,-0.0,-0.01,1568109553.6156268
0.071,-0.002,0.012,0.03,0.0,-0.01,1568109553.67699
0.134,-0.002,0.031,0.12,0.01,-0.01,1568109553.7322927
0.21,-0.008,0.031,0.12,0.01,-0.0,1568109553.78791
0.288,-0.006,0.055,0.06,0.01,0.01,1568109553.8443453
0.36,0.002,0.066,0.14,0.01,0.03,1568109553.9016979
0.482,-0.013,0.085,0.13,0.01,0.04,1568109553.9596007
0.584,-0.02,0.092,0.09,0.0,0.05,1568109553.9736826
0.726,-0.024,0.129,0.1,0.0,0.05,1568109554.0327582
0.834,-0.027,0.142,0.11,0.01,0.05,1568109554.0843432
0.949,-0.041,0.165,0.08,-0.0,0.04,1568109554.140677
1.07,-0.048,0.184,0.09,-0.0,0.04,1568109554.1978538
1.235,-0.043,0.217,0.11,-0.01,0.02,1568109554.2577648
1.277,-0.049,0.223,0.11,-0.0,0.02,1568109554.3141298
1.41,-0.043,0.241,0.09,0.01,-0.0,1568109554.3495302
1.592,-0.037,0.275,0.07,0.01,-0.01,1568109554.3842552
1.727,-0.036,0.298,0.08,0.01,-0.02,1568109554.4402328
1.819,-0.032,0.311,0.07,0.02,-0.01,1568109554.4981973
1.964,-0.028,0.339,0.07,0.01,-0.02,1568109554.555952
2.101,-0.028,0.358,0.07,0.02,-0.03,1568109554.6134586
2.25,-0.027,0.387,0.06,0.02,-0.03,1568109554.6740339
2.44,-0.008,0.418,0.08,0.01,-0.03,1568109554.7323031
2.595,-0.011,0.445,0.1,0.02,-0.04,1568109554.790556
2.817,0.001,0.468,0.1,0.02,-0.01,1568109554.8086274
2.999,0.006,0.504,0.03,0.01,-0.02,1568109554.8709671
3.171,0.005,0.538,0.12,0.01,-0.02,1568109554.915175
3.291,0.01,0.545,0.13,0.01,-0.02,1568109554.9685938
3.549,0.012,0.588,0.05,0.01,-0.02,1568109555.0070887
3.744,0.014,0.627,0.08,0.01,-0.02,1568109555.0647275
3.999,0.018,0.661,0.16,0.02,0.01,1568109555.122026
4.07,0.026,0.672,0.14,0.01,0.0,1568109555.1808896
4.295,0.023,0.713,0.09,0.0,0.01,1568109555.2399368
4.591,0.012,0.774,0.13,0.0,0.04,1568109555.2991986
4.818,0.004,0.81,0.14,0.01,0.05,1568109555.3439317
5.133,-0.005,0.871,0.1,-0.0,0.05,1568109555.397824
5.38,-0.017,0.918,0.13,0.0,0.05,1568109555.4362044
5.712,-0.034,0.973,0.11,0.01,0.05,1568109555.495796
5.883,-0.039,1.011,0.1,0.01,0.05,1568109555.5542505
6.144,-0.061,1.059,0.14,0.01,0.05,1568109555.6127727
6.411,-0.071,1.098,0.15,0.01,0.06,1568109555.6712344
6.785,-0.086,1.176,0.11,0.01,0.07,1568109555.7150772
7.065,-0.108,1.23,0.17,-0.0,0.07,1568109555.7472034
7.438,-0.124,1.295,0.14,-0.0,0.07,1568109555.8104885
7.638,-0.135,1.33,0.11,-0.0,0.08,1568109555.8695593
7.848,-0.158,1.364,0.08,0.01,0.07,1568109555.912434
8.233,-0.173,1.454,0.13,0.02,0.06,1568109555.9458365
8.543,-0.198,1.507,0.17,0.0,0.04,1568109556.00131
8.85,-0.206,1.562,0.14,0.01,0.04,1568109556.060648
9.068,-0.221,1.61,0.12,0.0,0.05,1568109556.119333
9.383,-0.22,1.668,0.15,0.03,0.04,1568109556.1575098
9.842,-0.239,1.753,0.11,0.04,0.0,1568109556.2395391
10.169,-0.24,1.819,0.13,0.02,-0.04,1568109556.2987092
10.579,-0.22,1.892,0.15,0.04,-0.05,1568109556.357888
11.044,-0.215,1.993,0.1,0.04,-0.06,1568109556.402567
11.415,-0.202,2.06,0.15,0.04,-0.05,1568109556.4367979
11.909,-0.204,2.142,0.15,0.03,-0.04,1568109556.497395
12.291,-0.196,2.208,0.16,0.02,-0.02,1568109556.5565176
12.759,-0.181,2.284,0.14,0.02,0.0,1568109556.6134682
13.158,-0.185,2.352,0.08,0.01,0.01,1568109556.6705058
13.428,-0.182,2.41,0.09,0.01,0.03,1568109556.731374
13.81,-0.179,2.473,0.16,0.0,0.07,1568109556.7700646
14.295,-0.199,2.557,0.16,0.01,0.05,1568109556.8070893
14.667,-0.201,2.618,0.14,0.0,0.03,1568109556.867823
15.245,-0.199,2.73,0.08,0.0,0.04,1568109556.9284904
15.39,-0.195,2.755,0.1,0.01,0.04,1568109556.9736667
15.817,-0.206,2.831,0.16,0.01,0.03,1568109557.0263383
16.262,-0.216,2.905,0.12,0.02,0.03,1568109557.067402
16.802,-0.214,3.018,0.14,0.03,0.02,1568109557.1247466
17.248,-0.244,3.086,0.14,0.03,0.01,1568109557.1779883
17.685,-0.258,3.172,0.12,0.03,0.03,1568109557.2354758
17.979,-0.266,3.225,0.12,0.02,0.03,1568109557.2942276
18.432,-0.296,3.301,0.11,0.02,0.05,1568109557.3539367
18.826,-0.317,3.366,-0.0,-0.0,0.06,1568109557.3901548
19.35,-0.338,3.475,-0.03,-0.0,0.08,1568109557.4485097
19.714,-0.355,3.538,-0.02,0.01,0.08,1568109557.487309
20.051,-0.373,3.583,-0.02,0.01,0.08,1568109557.5497818
20.402,-0.387,3.649,-0.02,0.01,0.09,1568109557.5944152
20.772,-0.387,3.709,-0.03,0.02,0.07,1568109557.646032
21.114,-0.406,3.778,-0.04,0.03,0.05,1568109557.6881077
21.538,-0.427,3.847,-0.02,0.03,0.01,1568109557.7425263
21.724,-0.424,3.883,-0.03,0.03,-0.0,1568109557.7996576
22.01,-0.426,3.933,-0.01,0.03,-0.02,1568109557.8590615
22.284,-0.413,3.989,-0.03,0.05,-0.04,1568109557.8966908
22.526,-0.409,4.03,-0.03,0.06,-0.08,1568109557.9371152
22.684,-0.408,4.061,-0.02,0.06,-0.1,1568109557.9985456
22.988,-0.392,4.12,-0.02,0.07,-0.13,1568109558.0588753
23.136,-0.381,4.149,-0.03,0.07,-0.14,1568109558.0778546
23.395,-0.356,4.203,-0.03,0.09,-0.18,1568109558.1404047
23.631,-0.338,4.239,-0.03,0.09,-0.22,1568109558.2054057
23.79,-0.309,4.277,-0.01,0.09,-0.25,1568109558.26462
23.894,-0.293,4.29,-0.04,0.11,-0.28,1568109558.3242428
24.029,-0.264,4.321,-0.04,0.13,-0.31,1568109558.3865738
24.188,-0.234,4.348,-0.04,0.14,-0.36,1568109558.450248
24.331,-0.201,4.372,-0.05,0.13,-0.42,1568109558.4890532
24.446,-0.143,4.387,-0.04,0.15,-0.47,1568109558.5451694
24.527,-0.108,4.404,-0.05,0.16,-0.52,1568109558.5794995
24.606,-0.069,4.411,-0.04,0.18,-0.56,1568109558.6355414
24.654,-0.037,4.421,-0.05,0.16,-0.59,1568109558.6908844
24.667,-0.029,4.423,-0.04,0.16,-0.61,1568109558.746905
24.7,0.01,4.422,-0.05,0.18,-0.63,1568109558.8036737
24.749,0.094,4.425,-0.05,0.21,-0.69,1568109558.8603826
24.758,0.105,4.425,-0.05,0.21,-0.7,1568109558.918201
24.776,0.138,4.426,-0.04,0.21,-0.73,1568109558.9745884
24.798,0.181,4.425,-0.06,0.23,-0.76,1568109558.988575
24.805,0.193,4.427,-0.04,0.22,-0.78,1568109559.0512033
24.815,0.218,4.426,-0.04,0.22,-0.8,1568109559.1091797
24.825,0.242,4.429,-0.04,0.23,-0.82,1568109559.1657739
24.833,0.264,4.427,-0.04,0.24,-0.84,1568109559.1977658
24.844,0.293,4.427,-0.04,0.24,-0.86,1568109559.2391274
24.853,0.313,4.426,-0.05,0.25,-0.88,1568109559.2957814
24.86,0.33,4.425,-0.04,0.24,-0.89,1568109559.3507142
24.865,0.342,4.425,-0.04,0.25,-0.9,1568109559.41053
24.871,0.361,4.424,-0.04,0.24,-0.92,1568109559.464728
24.88,0.378,4.422,-0.05,0.25,-0.93,1568109559.522108
24.884,0.392,4.422,-0.04,0.25,-0.95,1568109559.5801165
24.888,0.412,4.423,-0.04,0.25,-0.96,1568109559.6193848
24.89,0.423,4.421,-0.04,0.25,-0.97,1568109559.6498678
24.894,0.436,4.421,-0.03,0.25,-0.98,1568109559.7058067
24.897,0.446,4.421,-0.04,0.25,-0.99,1568109559.763371
24.898,0.448,4.42,-0.04,0.25,-1.0,1568109559.8174925
24.9,0.456,4.42,-0.04,0.26,-1.0,1568109559.8721933
24.902,0.461,4.42,-0.04,0.25,-1.01,1568109559.9269552
24.902,0.463,4.42,-0.04,0.25,-1.01,1568109559.981343
24.902,0.464,4.42,-0.04,0.25,-1.01,1568109560.0211513
24.903,0.465,4.42,-0.04,0.25,-1.01,1568109560.092798
24.903,0.464,4.42,-0.03,0.25,-1.01,1568109560.1062717
24.903,0.463,4.42,-0.03,0.26,-1.01,1568109560.1623926
24.902,0.46,4.42,-0.03,0.26,-1.0,1568109560.215894
24.902,0.458,4.42,-0.03,0.26,-1.0,1568109560.2709923
24.901,0.455,4.42,-0.03,0.26,-1.0,1568109560.3268516
24.901,0.455,4.42,-0.03,0.26,-1.0,1568109560.383418
24.9,0.453,4.42,-0.03,0.26,-1.0,1568109560.4408133
24.899,0.452,4.42,-0.03,0.26,-1.0,1568109560.497903
24.899,0.452,4.42,-0.03,0.26,-1.0,1568109560.5314534
24.898,0.451,4.42,-0.03,0.26,-1.0,1568109560.6107793
24.898,0.451,4.42,-0.03,0.26,-1.0,1568109560.6504574
24.898,0.451,4.42,-0.03,0.26,-1.0,1568109560.6801789
24.898,0.451,4.42,-0.03,0.26,-1.0,1568109560.7366304
24.898,0.452,4.42,-0.03,0.26,-1.0,1568109560.7901762
24.899,0.452,4.42,-0.03,0.26,-1.0,1568109560.8455832
24.899,0.452,4.42,-0.03,0.26,-1.0,1568109560.9084055
24.899,0.452,4.42,-0.03,0.26,-1.0,1568109560.963986
24.899,0.453,4.42,-0.03,0.26,-1.0,1568109561.026142
24.899,0.453,4.42,-0.03,0.26,-1.0,1568109561.0421772
24.899,0.453,4.42,-0.03,0.26,-1.0,1568109561.1019216
24.899,0.452,4.42,-0.03,0.26,-1.0,1568109561.1531827
24.899,0.452,4.42,-0.03,0.26,-1.0,1568109561.2074225
24.899,0.452,4.42,-0.03,0.26,-1.0,1568109561.2630293
24.899,0.452,4.42,-0.03,0.26,-1.0,1568109561.2954624
24.899,0.452,4.42,-0.03,0.26,-1.0,1568109561.3329208
24.899,0.452,4.42,-0.03,0.26,-1.0,1568109561.3898425
24.899,0.452,4.42,-0.03,0.26,-1.0,1568109561.4424121
24.899,0.452,4.42,-0.03,0.26,-1.0,1568109561.497613
24.899,0.452,4.42,-0.03,0.26,-1.0,1568109561.5575483
24.899,0.452,4.42,-0.03,0.26,-1.0,1568109561.6154404
24.899,0.452,4.42,-0.03,0.26,-1.0,1568109561.6560717
24.899,0.452,4.42,-0.03,0.26,-1.0,1568109561.728587
24.899,0.452,4.42,-0.03,0.26,-1.0,1568109561.742698
24.899,0.452,4.42,-0.03,0.26,-1.0,1568109561.8036263
24.899,0.452,4.42,-0.03,0.26,-1.0,1568109561.8606384
24.899,0.452,4.42,-0.03,0.26,-1.0,1568109561.9162695
24.899,0.452,4.42,-0.03,0.26,-1.0,1568109561.9342296
24.899,0.452,4.42,-0.03,0.26,-1.0,1568109561.989564
24.899,0.452,4.42,-0.03,0.26,-1.0,1568109562.0459402
24.899,0.452,4.42,-0.03,0.26,-1.0,1568109562.0598965
24.899,0.452,4.42,-0.03,0.26,-1.0,1568109562.1144836
