Tx,Ty,Tz,Pitch,Roll,Yaw,Timestamp
-0.001,0.001,0.001,-0.0,0.0,0.0,1568110467.5692623
-0.001,0.001,0.001,-0.0,0.0,0.0,1568110467.598296
-0.002,0.003,0.001,-0.0,0.0,0.01,1568110467.6614182
-0.003,0.003,0.001,-0.0,0.0,0.01,1568110467.6868396
-0.003,0.003,0.001,-0.0,0.0,0.01,1568110467.7185001
-0.003,0.003,0.001,-0.0,0.0,0.01,1568110467.753098
-0.003,0.004,0.001,-0.0,0.0,0.01,1568110467.7682974
-0.003,0.004,0.001,-0.0,0.0,0.01,1568110467.8285384
-0.003,0.004,0.001,-0.0,0.0,0.01,1568110467.8463852
-0.003,0.004,0.002,-0.0,0.0,0.01,1568110467.9039648
-0.003,0.004,0.002,-0.0,0.0,0.01,1568110467.9590018
-0.003,0.004,0.002,-0.0,0.0,0.01,1568110468.0170312
-0.003,0.004,0.002,-0.0,0.0,0.01,1568110468.080549
-0.003,0.004,0.002,-0.0,0.0,0.01,1568110468.1470885
-0.003,0.004,0.002,-0.0,0.0,0.01,1568110468.2199266
-0.003,0.004,0.002,-0.0,0.0,0.01,1568110468.2919724
-0.003,0.004,0.002,-0.0,0.0,0.01,1568110468.332064
-0.003,0.004,0.002,-0.0,0.0,0.01,1568110468.4044552
-0.003,0.004,0.002,-0.0,0.0,0.01,1568110468.4364257
-0.003,0.004,0.002,-0.0,0.0,0.01,1568110468.5158846
-0.003,0.004,0.002,-0.0,0.0,0.01,1568110468.5478408
-0.003,0.004,0.002,-0.0,0.0,0.01,1568110468.585254
-0.004,0.004,0.001,-0.0,0.0,0.01,1568110468.6515853
-0.004,0.004,0.001,-0.0,0.0,0.01,1568110468.7102902
-0.004,0.004,0.001,-0.0,0.0,0.01,1568110468.7769966
-0.004,0.004,0.001,-0.0,0.0,0.01,1568110468.8226764
-0.003,0.004,0.001,-0.0,0.0,0.01,1568110468.9045815
-0.003,0.004,0.001,-0.0,0.0,0.01,1568110468.970997
-0.003,0.004,0.001,-0.0,0.0,0.01,1568110469.0523758
-0.003,0.004,0.001,-0.0,0.0,0.01,1568110469.127899
-0.003,0.004,0.001,-0.0,0.0,0.01,1568110469.2096283
-0.003,0.004,0.001,-0.0,0.0,0.01,1568110469.2907443
-0.003,0.004,0.001,-0.0,0.0,0.01,1568110469.3202066
-0.003,0.004,0.001,-0.0,0.0,0.01,1568110469.3978765
-0.003,0.004,0.001,-0.0,0.0,0.01,1568110469.471008
-0.003,0.004,0.001,-0.0,0.0,0.01,1568110469.554174
-0.003,0.004,0.001,-0.0,0.0,0.01,1568110469.6109114
-0.003,0.004,0.001,-0.0,0.0,0.01,1568110469.6857076
-0.003,0.004,0.001,-0.0,0.0,0.01,1568110469.7655747
-0.003,0.004,0.001,-0.0,0.0,0.01,1568110469.8135314
-0.003,0.004,0.001,-0.0,0.0,0.01,1568110469.89828
-0.003,0.004,0.001,-0.0,0.0,0.01,1568110469.9680552
-0.003,0.004,0.001,-0.0,0.0,0.01,1568110470.0493526
-0.003,0.004,0.001,-0.0,0.0,0.01,1568110470.1288772
-0.003,0.004,0.001,-0.0,0.0,0.01,1568110470.2129824
-0.003,0.004,0.001,-0.0,0.0,0.01,1568110470.291873
-0.003,0.004,0.001,-0.0,0.0,0.01,1568110470.3726435
-0.003,0.004,0.001,-0.0,0.0,0.01,1568110470.4215107
-0.003,0.004,0.001,-0.0,0.0,0.01,1568110470.4708042
-0.003,0.004,0.001,-0.0,0.0,0.01,1568110470.5530393
-0.003,0.004,0.001,-0.0,0.0,0.01,1568110470.619909
-0.003,0.004,0.001,-0.0,0.0,0.01,1568110470.7022545
-0.003,0.004,0.001,-0.0,0.0,0.01,1568110470.7572603
-0.003,0.004,0.001,-0.0,0.0,0.01,1568110470.7999573
-0.003,0.004,0.001,-0.0,0.0,0.01,1568110470.8793638
-0.003,0.004,0.001,-0.0,0.0,0.01,1568110470.9509857
-0.003,0.004,0.001,-0.0,0.0,0.01,1568110471.033035
-0.003,0.004,0.001,-0.0,0.0,0.01,1568110471.091494
-0.003,0.004,0.001,-0.0,0.0,0.01,1568110471.1724894
-0.003,0.004,0.001,-0.0,0.0,0.01,1568110471.2018912
-0.003,0.004,0.001,-0.0,0.0,0.01,1568110471.2744875
-0.003,0.004,0.001,-0.0,0.0,0.01,1568110471.3544
-0.003,0.004,0.001,-0.0,0.0,0.01,1568110471.368117
-0.003,0.004,0.001,-0.0,0.0,0.01,1568110471.452638
-0.003,0.004,0.001,-0.0,0.0,0.01,1568110471.5328808
-0.003,0.004,0.001,-0.0,0.0,0.01,1568110471.614311
-0.003,0.004,0.001,-0.0,0.0,0.01,1568110471.692628
-0.003,0.004,0.001,-0.0,0.0,0.01,1568110471.7703996
-0.003,0.004,0.001,-0.0,0.0,0.01,1568110471.8363447
-0.003,0.004,0.001,-0.0,0.0,0.01,1568110471.9135108
-0.003,0.004,0.001,-0.0,0.0,0.01,1568110471.9938023
-0.003,0.004,0.001,-0.0,0.0,0.01,1568110472.0765235
-0.003,0.004,0.001,-0.0,0.0,0.01,1568110472.1656919
-0.003,0.005,0.009,0.02,0.0,0.01,1568110472.2363424
0.021,0.006,0.004,0.01,0.01,0.02,1568110472.294637
0.104,0.004,0.008,-0.05,0.0,0.03,1568110472.351244
0.156,0.003,0.009,-0.07,-0.0,0.03,1568110472.408861
0.226,0.0,0.015,-0.04,-0.0,0.03,1568110472.4656596
0.285,-0.004,0.019,-0.01,0.0,0.03,1568110472.5218856
0.383,-0.003,0.019,-0.01,-0.01,0.02,1568110472.5399857
0.468,0.003,0.021,-0.07,-0.01,0.0,1568110472.599042
0.549,0.01,0.03,-0.06,-0.01,-0.01,1568110472.6577587
0.601,0.011,0.031,-0.04,-0.01,-0.02,1568110472.701856
0.687,0.018,0.033,-0.04,-0.01,-0.04,1568110472.7535388
0.808,0.025,0.04,-0.05,-0.01,-0.05,1568110472.8175578
0.906,0.03,0.05,-0.02,-0.0,-0.05,1568110472.8470614
1.044,0.041,0.047,-0.04,-0.01,-0.06,1568110472.9114935
1.121,0.048,0.054,-0.08,0.0,-0.05,1568110472.9681652
1.194,0.048,0.061,-0.05,0.0,-0.06,1568110473.026791
1.344,0.061,0.068,-0.03,0.0,-0.06,1568110473.086048
1.464,0.066,0.073,-0.01,0.0,-0.06,1568110473.143189
1.637,0.094,0.084,-0.04,0.02,-0.05,1568110473.2033617
1.774,0.094,0.089,-0.02,0.0,-0.06,1568110473.2395427
1.963,0.103,0.103,0.03,0.0,-0.04,1568110473.2747724
2.122,0.11,0.107,0.03,0.02,-0.04,1568110473.3364778
2.237,0.12,0.107,-0.02,-0.0,-0.06,1568110473.3968384
2.416,0.134,0.127,-0.05,0.0,-0.06,1568110473.4561217
2.588,0.146,0.135,0.01,-0.01,-0.06,1568110473.4974806
2.832,0.157,0.142,-0.03,-0.0,-0.05,1568110473.5305083
3.022,0.172,0.153,-0.04,0.01,-0.03,1568110473.5889823
3.282,0.177,0.173,0.01,0.01,-0.06,1568110473.6483884
3.342,0.194,0.173,0.02,0.01,-0.04,1568110473.6942542
3.547,0.202,0.178,-0.02,0.01,-0.06,1568110473.7485926
3.832,0.223,0.192,-0.08,0.01,-0.09,1568110473.7894928
3.968,0.235,0.208,-0.05,0.02,-0.07,1568110473.8476675
4.239,0.245,0.215,-0.02,0.01,-0.06,1568110473.8922098
4.383,0.257,0.221,-0.02,0.01,-0.06,1568110473.9448373
4.677,0.279,0.229,-0.06,0.0,-0.06,1568110473.9861655
4.898,0.294,0.239,-0.06,0.02,-0.04,1568110474.0486937
5.119,0.303,0.245,-0.08,0.01,-0.03,1568110474.10848
5.265,0.317,0.253,-0.08,0.01,-0.03,1568110474.1662383
5.559,0.333,0.263,-0.03,0.02,-0.04,1568110474.2249417
5.789,0.352,0.273,-0.03,0.02,-0.04,1568110474.2832534
6.111,0.378,0.284,-0.04,0.02,-0.06,1568110474.3422055
6.356,0.392,0.302,-0.04,0.02,-0.07,1568110474.3612957
6.681,0.403,0.316,-0.01,0.03,-0.08,1568110474.4214277
6.988,0.426,0.334,-0.03,0.02,-0.07,1568110474.4787917
7.073,0.438,0.341,-0.04,0.03,-0.06,1568110474.5376148
7.333,0.46,0.36,-0.02,0.03,-0.07,1568110474.5999887
7.684,0.49,0.377,0.01,0.02,-0.1,1568110474.6594949
7.957,0.512,0.389,-0.02,0.02,-0.1,1568110474.6789684
8.327,0.548,0.414,-0.02,0.02,-0.11,1568110474.7379665
8.605,0.579,0.425,0.02,0.02,-0.1,1568110474.793363
8.994,0.616,0.448,-0.01,0.02,-0.11,1568110474.8485866
9.092,0.629,0.454,-0.0,0.02,-0.1,1568110474.9063392
9.488,0.672,0.477,0.04,0.02,-0.11,1568110474.9646573
9.79,0.704,0.486,0.01,0.02,-0.11,1568110474.982896
10.113,0.736,0.502,-0.07,0.03,-0.11,1568110475.0441313
10.51,0.786,0.539,0.01,0.03,-0.11,1568110475.1051338
10.619,0.79,0.543,0.03,0.03,-0.12,1568110475.1638234
10.937,0.829,0.547,0.03,0.03,-0.11,1568110475.2092128
11.382,0.872,0.591,-0.02,0.03,-0.11,1568110475.2609375
11.818,0.921,0.598,0.06,0.01,-0.14,1568110475.3002002
12.168,0.987,0.631,-0.01,0.06,-0.13,1568110475.36356
12.502,1.03,0.648,0.04,0.03,-0.15,1568110475.3814688
12.75,1.074,0.662,0.05,0.05,-0.15,1568110475.443084
13.002,1.119,0.671,0.04,0.04,-0.16,1568110475.502429
13.399,1.171,0.692,0.0,0.05,-0.18,1568110475.5626192
13.781,1.234,0.712,0.01,0.04,-0.19,1568110475.599071
14.296,1.316,0.742,0.04,0.04,-0.2,1568110475.657613
14.825,1.418,0.749,0.01,0.03,-0.2,1568110475.6970565
15.242,1.477,0.768,-0.04,0.05,-0.19,1568110475.754288
15.524,1.514,0.79,-0.04,0.04,-0.17,1568110475.8125198
15.917,1.589,0.807,0.04,0.04,-0.11,1568110475.871972
16.289,1.62,0.812,0.04,0.05,-0.05,1568110475.9318285
16.862,1.675,0.849,-0.03,0.04,0.03,1568110475.9523811
17.282,1.708,0.87,0.01,0.03,0.07,1568110476.010884
17.861,1.754,0.894,0.02,0.03,0.11,1568110476.0697625
18.281,1.773,0.917,0.02,0.02,0.11,1568110476.1272388
18.606,1.749,0.936,-0.0,0.03,0.11,1568110476.1854582
18.76,1.746,0.944,0.0,0.03,0.1,1568110476.243855
19.177,1.735,0.963,0.05,0.03,0.07,1568110476.3012636
19.79,1.716,0.995,-0.02,0.01,0.05,1568110476.3189063
20.264,1.698,1.025,0.02,0.01,0.04,1568110476.3801003
20.891,1.664,1.056,0.06,0.0,0.05,1568110476.436453
21.205,1.65,1.072,0.04,-0.01,0.04,1568110476.495796
21.672,1.628,1.092,0.02,-0.01,0.05,1568110476.5554667
22.139,1.615,1.116,-0.03,0.01,0.07,1568110476.624575
22.604,1.609,1.151,-0.0,0.04,0.07,1568110476.6788018
23.11,1.58,1.186,0.03,0.03,0.04,1568110476.7119665
23.775,1.528,1.208,-0.14,0.02,0.02,1568110476.781252
24.238,1.512,1.237,-0.12,0.01,-0.02,1568110476.8489144
24.535,1.507,1.269,-0.16,0.02,-0.02,1568110476.9159687
24.988,1.47,1.289,-0.1,0.03,-0.07,1568110476.9539073
25.036,1.469,1.285,-0.16,0.07,-0.1,1568110476.9934409
24.649,1.541,1.331,-0.17,0.11,-0.11,1568110477.0550766
24.634,1.532,1.335,-0.15,0.12,-0.13,1568110477.1111138
24.627,1.512,1.343,-0.12,0.13,-0.14,1568110477.125466
24.811,1.508,1.341,-0.15,0.11,-0.18,1568110477.1901321
25.113,1.524,1.374,-0.12,0.1,-0.23,1568110477.25368
25.388,1.546,1.382,-0.14,0.14,-0.25,1568110477.3171563
25.456,1.537,1.401,-0.14,0.14,-0.26,1568110477.3752942
25.458,1.524,1.398,-0.13,0.13,-0.31,1568110477.4925296
25.489,1.55,1.384,-0.16,0.11,-0.34,1568110477.5524635
25.636,1.588,1.395,-0.15,0.09,-0.36,1568110477.5732427
26.056,1.681,1.409,-0.17,0.13,-0.37,1568110477.6413498
26.216,1.714,1.416,-0.18,0.12,-0.39,1568110477.6651678
26.31,1.74,1.422,-0.15,0.12,-0.38,1568110477.7196693
26.497,1.783,1.419,-0.16,0.09,-0.4,1568110477.78942
26.656,1.847,1.426,-0.17,0.1,-0.39,1568110477.8524134
26.69,1.863,1.428,-0.16,0.11,-0.39,1568110477.8989897
26.819,1.921,1.43,-0.16,0.12,-0.38,1568110477.9322274
26.93,1.961,1.434,-0.16,0.11,-0.41,1568110478.000123
26.969,1.993,1.436,-0.13,0.1,-0.42,1568110478.0665677
27.034,2.039,1.434,-0.15,0.11,-0.45,1568110478.13018
27.107,2.101,1.432,-0.15,0.13,-0.5,1568110478.1900191
27.164,2.154,1.434,-0.16,0.14,-0.55,1568110478.2505796
27.196,2.19,1.436,-0.14,0.13,-0.59,1568110478.314402
27.234,2.243,1.434,-0.17,0.15,-0.63,1568110478.3787777
27.257,2.283,1.43,-0.14,0.16,-0.67,1568110478.397273
27.282,2.325,1.433,-0.13,0.16,-0.71,1568110478.456012
27.302,2.352,1.426,-0.16,0.17,-0.73,1568110478.5119956
27.313,2.383,1.431,-0.12,0.16,-0.76,1568110478.5704648
27.319,2.389,1.429,-0.13,0.16,-0.77,1568110478.6326544
27.332,2.415,1.427,-0.15,0.18,-0.79,1568110478.6652894
27.345,2.44,1.425,-0.14,0.17,-0.81,1568110478.7134042
27.351,2.454,1.425,-0.15,0.18,-0.82,1568110478.782287
27.361,2.478,1.424,-0.15,0.18,-0.84,1568110478.8381138
27.367,2.494,1.423,-0.14,0.17,-0.86,1568110478.899345
27.375,2.511,1.422,-0.15,0.18,-0.87,1568110478.960382
27.383,2.529,1.42,-0.14,0.18,-0.89,1568110478.97455
27.388,2.542,1.42,-0.14,0.18,-0.9,1568110479.037221
27.394,2.558,1.418,-0.15,0.19,-0.91,1568110479.0960934
27.395,2.562,1.418,-0.14,0.19,-0.91,1568110479.1573293
27.398,2.576,1.417,-0.14,0.19,-0.92,1568110479.2198715
27.401,2.586,1.416,-0.14,0.19,-0.93,1568110479.2625473
27.404,2.597,1.415,-0.14,0.2,-0.94,1568110479.304718
27.405,2.602,1.415,-0.14,0.2,-0.94,1568110479.3655467
27.406,2.608,1.414,-0.14,0.2,-0.95,1568110479.4309802
27.409,2.615,1.414,-0.14,0.2,-0.95,1568110479.4903522
27.41,2.619,1.413,-0.14,0.2,-0.96,1568110479.5503943
27.411,2.623,1.413,-0.14,0.2,-0.96,1568110479.6104474
27.413,2.625,1.413,-0.14,0.2,-0.96,1568110479.644616
27.413,2.626,1.413,-0.14,0.2,-0.96,1568110479.704286
27.414,2.626,1.413,-0.14,0.2,-0.96,1568110479.7465897
27.414,2.627,1.412,-0.14,0.2,-0.96,1568110479.813121
27.414,2.626,1.412,-0.14,0.2,-0.96,1568110479.873426
27.414,2.625,1.412,-0.14,0.2,-0.96,1568110479.930396
27.414,2.625,1.412,-0.14,0.2,-0.96,1568110479.985963
27.413,2.624,1.412,-0.14,0.2,-0.96,1568110480.0433793
27.413,2.622,1.412,-0.14,0.2,-0.96,1568110480.1020222
27.413,2.621,1.412,-0.14,0.2,-0.96,1568110480.143902
27.412,2.62,1.412,-0.14,0.2,-0.96,1568110480.204865
27.412,2.619,1.412,-0.14,0.2,-0.95,1568110480.2892578
27.412,2.618,1.413,-0.14,0.2,-0.95,1568110480.305623
27.411,2.617,1.413,-0.14,0.2,-0.95,1568110480.3691704
27.411,2.616,1.413,-0.14,0.2,-0.95,1568110480.4391046
27.411,2.616,1.413,-0.14,0.2,-0.95,1568110480.5032437
27.411,2.616,1.413,-0.14,0.2,-0.95,1568110480.568129
27.411,2.616,1.413,-0.14,0.2,-0.95,1568110480.5844426
27.411,2.615,1.413,-0.14,0.2,-0.95,1568110480.6572046
27.411,2.615,1.413,-0.14,0.2,-0.95,1568110480.6728642
27.411,2.615,1.413,-0.14,0.2,-0.95,1568110480.7402368
27.411,2.616,1.413,-0.14,0.2,-0.95,1568110480.8076925
27.411,2.616,1.413,-0.14,0.2,-0.95,1568110480.8495212
27.411,2.616,1.413,-0.14,0.2,-0.95,1568110480.9328177
27.411,2.616,1.413,-0.14,0.2,-0.95,1568110480.9963818
27.411,2.616,1.413,-0.14,0.2,-0.95,1568110481.0616612
27.411,2.616,1.413,-0.14,0.2,-0.95,1568110481.123017
