{
    "labels": {
        "other": {
            "color": [
                200,
                20,
                20
            ],
            "id": 1,
            "name": "other",
            "category": "other"
        },
        "grass": {
            "color": [
                107,
                142,
                35
            ],
            "id": 2,
            "name": "grass",
            "category": "vegetation"
        },
        
        "interlocking_pavement": {
            "color": [
                96,
                96,
                96
            ],
            "id": 3,
            "name": "interlocking_pavement",
            "category": "hard_surfaces"
        },
        "cobble_stone": {
            "color": [
                64,
                64,
                64
            ],
            "id": 4,
            "name": "cobble_stone",
            "category": "hard_surfaces"
        },
        "asphalt": {
            "color": [
                80,
                90,
                10
            ],
            "id": 5,
            "name": "asphalt",
            "category": "hard_surfaces"
        },
        
        "concrete": {
            "color": [
                60,
                0,
                70
            ],
            "id": 6,
            "name": "concrete",
            "category": "hard_surfaces"
        },
        "grass_pavement": {
            "color": [
                0,
                70,
                70
            ],
            "id": 7,
            "name": "grass_pavement",
            "category": "hard_surfaces"
        },
        "grass_wet": {
            "color": [
                107,
                162,
                35
            ],
            "id": 8,
            "name": "grass_wet",
            "category": "vegetation"
        },
        "interlocking_pavement_wet": {
            "color": [
                96,
                96,
                76
            ],
            "id": 9,
            "name": "interlocking_pavement_wet",
            "category": "hard_surfaces"
        },
        "cobble_stone_wet": {
            "color": [
                44,
                64,
                64
            ],
            "id": 10,
            "name": "cobble_stone_wet",
            "category": "hard_surfaces"
        },
        "asphalt_wet": {
            "color": [
                60,
                90,
                10
            ],
            "id": 11,
            "name": "asphalt_wet",
            "category": "hard_surfaces"
        },        
        "concrete_wet": {
            "color": [
                60,
                20,
                70
            ],
            "id": 12,
            "name": "concrete_wet",
            "category": "hard_surfaces"
        },        
        "gravel": {
            "color": [
                100,
                0,
                90
            ],
            "id": 13,
            "name": "gravel",
            "category": "soft_surfaces"
        }
    }
}