Tx,Ty,Tz,Pitch,Roll,Yaw,Timestamp
-0.0,0.0,0.0,0.0,-0.0,0.0,1565176757.1653347
-0.0,0.0,0.0,0.0,0.0,0.0,1565176757.3012502
-0.0,0.0,-0.0,0.0,0.0,0.0,1565176757.3221314
-0.054,0.075,-0.018,0.0,-0.0,0.0,1565176757.4875202
-0.055,0.078,-0.019,0.0,-0.0,0.0,1565176757.6047752
-0.055,0.078,-0.02,0.0,-0.0,0.0,1565176757.6685421
-0.055,0.078,-0.02,0.0,-0.0,0.0,1565176757.8381984
-0.056,0.078,-0.02,0.0,-0.0,0.0,1565176757.9750109
-0.056,0.078,-0.02,0.0,-0.0,0.0,1565176758.0988
-0.056,0.078,-0.02,0.0,-0.0,0.0,1565176758.2104578
-0.056,0.078,-0.02,0.0,-0.0,0.0,1565176758.3289979
-0.056,0.078,-0.02,0.0,-0.0,0.0,1565176758.387303
-0.056,0.078,-0.02,0.0,-0.0,0.0,1565176758.4712274
-0.056,0.078,-0.02,0.0,-0.0,0.0,1565176758.496093
-0.056,0.078,-0.02,0.0,-0.0,0.0,1565176758.6092942
-0.056,0.078,-0.02,0.0,-0.0,0.0,1565176758.7304096
-0.056,0.078,-0.02,0.0,-0.0,0.0,1565176758.8511062
-0.056,0.078,-0.02,0.0,-0.0,0.0,1565176758.9676456
-0.056,0.078,-0.02,0.0,-0.0,0.0,1565176759.0860322
-0.056,0.078,-0.02,0.0,-0.0,0.0,1565176759.2053823
-0.056,0.078,-0.02,0.0,-0.0,0.0,1565176759.2273622
-0.056,0.078,-0.021,0.0,-0.0,0.0,1565176759.3544693
-0.056,0.078,-0.021,0.0,-0.0,0.0,1565176759.4685037
-0.056,0.078,-0.021,0.0,-0.0,0.0,1565176759.4914865
-0.056,0.078,-0.021,0.0,-0.0,0.0,1565176759.6072042
-0.056,0.078,-0.021,0.0,-0.0,0.0,1565176759.7173076
-0.056,0.078,-0.021,0.0,-0.0,0.0,1565176759.7730467
-0.056,0.078,-0.021,0.0,-0.0,0.0,1565176759.9472573
-0.056,0.078,-0.021,0.0,-0.0,0.0,1565176760.0596154
-0.056,0.078,-0.021,0.0,-0.0,0.0,1565176760.0821667
-0.056,0.078,-0.021,0.0,-0.0,0.0,1565176760.106536
-0.056,0.078,-0.021,0.0,-0.0,0.0,1565176760.1316137
-0.056,0.078,-0.021,0.0,-0.0,0.0,1565176760.1561625
-0.056,0.078,-0.021,0.0,-0.0,0.0,1565176760.1832411
-0.056,0.078,-0.021,0.0,-0.0,0.0,1565176760.2075365
-0.056,0.078,-0.021,0.0,-0.0,0.0,1565176760.233518
-0.056,0.078,-0.021,0.0,-0.0,0.0,1565176760.2580452
-0.056,0.078,-0.021,0.0,-0.0,0.0,1565176760.2818575
-0.056,0.078,-0.021,0.0,-0.0,0.0,1565176760.3082492
-0.056,0.078,-0.021,0.0,-0.0,0.0,1565176760.3351996
-0.056,0.078,-0.021,0.0,-0.0,0.0,1565176760.3589442
-0.056,0.078,-0.021,0.0,-0.0,0.0,1565176760.3833594
-0.056,0.078,-0.021,0.0,-0.0,0.0,1565176760.410928
-0.056,0.078,-0.021,0.0,-0.0,0.0,1565176760.4351132
-0.056,0.078,-0.021,0.0,-0.0,0.0,1565176760.4606657
-0.056,0.078,-0.021,0.0,-0.0,0.0,1565176760.4856124
-0.056,0.078,-0.021,0.0,-0.0,0.0,1565176760.5102715
-0.056,0.078,-0.021,0.0,-0.0,0.0,1565176760.5350292
-0.056,0.078,-0.021,0.0,-0.0,0.0,1565176760.5604632
-0.056,0.078,-0.021,0.0,-0.0,0.0,1565176760.5853267
-0.056,0.078,-0.021,0.0,-0.0,0.0,1565176760.6106126
-0.056,0.078,-0.021,0.0,-0.0,0.0,1565176760.6354752
-0.056,0.078,-0.021,0.0,-0.0,0.0,1565176760.660211
-0.056,0.078,-0.021,0.0,-0.0,0.0,1565176760.6864166
-0.056,0.078,-0.021,0.0,-0.0,0.0,1565176760.7111905
-0.056,0.078,-0.021,0.0,-0.0,0.0,1565176760.735921
-0.056,0.078,-0.021,0.0,-0.0,0.0,1565176760.761817
-0.056,0.078,-0.021,0.0,-0.0,0.0,1565176760.7862816
-0.056,0.078,-0.021,0.0,-0.0,0.0,1565176760.8120973
-0.056,0.078,-0.021,0.0,-0.0,0.0,1565176760.8358722
-0.056,0.078,-0.021,0.0,-0.0,0.0,1565176760.8595831
-0.056,0.078,-0.021,0.0,-0.0,0.0,1565176760.8834956
-0.056,0.078,-0.021,0.0,-0.0,0.0,1565176760.908645
-0.056,0.078,-0.021,0.0,-0.0,0.0,1565176760.9331121
-0.056,0.078,-0.021,0.0,-0.0,0.0,1565176760.9569585
-0.056,0.078,-0.021,0.0,-0.0,0.0,1565176760.9819586
-0.056,0.078,-0.021,0.0,-0.0,0.0,1565176761.0068913
-0.056,0.078,-0.021,0.0,-0.0,0.0,1565176761.0331383
-0.056,0.078,-0.021,0.0,-0.0,0.0,1565176761.0588124
-0.056,0.078,-0.021,0.0,-0.0,0.0,1565176761.0822875
-0.056,0.078,-0.021,0.0,-0.0,0.0,1565176761.1080859
-0.056,0.078,-0.021,0.0,-0.0,0.0,1565176761.1788948
-0.056,0.078,-0.021,0.0,-0.0,0.0,1565176761.2900465
-0.056,0.078,-0.021,0.0,-0.0,0.0,1565176761.470783
-0.056,0.078,-0.021,0.0,-0.0,0.0,1565176761.5166447
-0.056,0.078,-0.021,0.0,-0.0,0.0,1565176761.6380892
-0.04,0.078,-0.011,0.05,0.01,0.01,1565176761.754625
-0.046,0.108,-0.012,0.06,0.01,0.02,1565176761.8402588
-0.044,0.107,-0.011,0.06,0.01,0.02,1565176761.9043562
-0.003,0.134,-0.021,0.06,0.0,0.03,1565176761.9805102
0.042,0.134,-0.021,0.06,0.0,0.03,1565176762.046317
0.395,0.117,0.009,0.06,0.01,0.03,1565176762.12717
0.519,0.114,0.026,0.06,-0.0,0.03,1565176762.2464073
0.777,0.12,0.04,0.06,0.0,0.03,1565176762.358206
0.991,0.11,0.052,0.06,-0.0,0.03,1565176762.3868465
1.468,0.052,0.124,0.07,0.01,0.03,1565176762.500671
1.539,0.097,0.11,0.07,0.0,0.03,1565176762.6153927
1.669,0.103,0.117,0.06,0.0,0.04,1565176762.6734688
2.167,0.054,0.182,0.06,0.0,0.05,1565176762.8448312
2.705,-0.049,0.25,0.06,0.0,0.05,1565176762.8656
2.685,-0.025,0.239,0.06,-0.0,0.06,1565176762.9957917
2.871,-0.076,0.274,0.04,-0.01,0.06,1565176763.118005
3.083,-0.096,0.289,0.05,0.0,0.06,1565176763.2357335
3.761,-0.215,0.375,0.06,0.0,0.06,1565176763.3551688
3.876,-0.225,0.383,0.05,0.01,0.07,1565176763.4670095
4.661,-0.418,0.487,0.02,0.0,0.06,1565176763.5284095
5.246,-0.52,0.525,0.03,0.01,0.06,1565176763.6992412
6.053,-0.642,0.593,0.04,0.01,0.06,1565176763.7568648
6.158,-0.666,0.599,0.03,0.02,0.06,1565176763.8505454
6.924,-0.78,0.698,-0.05,-0.01,0.05,1565176763.9739747
7.507,-0.857,0.752,-0.06,-0.02,0.0,1565176764.0888257
8.057,-0.913,0.816,-0.05,-0.01,-0.05,1565176764.201949
8.202,-0.924,0.826,-0.04,-0.01,-0.07,1565176764.321414
8.552,-0.894,0.856,-0.05,-0.01,-0.09,1565176764.3747952
8.759,-0.793,0.84,-0.05,-0.02,-0.07,1565176764.4642627
8.968,-0.795,0.866,-0.06,-0.01,-0.05,1565176764.4909627
9.039,-0.796,0.871,-0.06,-0.01,-0.05,1565176764.5185256
9.182,-0.794,0.889,-0.06,-0.01,-0.06,1565176764.5477302
9.222,-0.788,0.895,-0.05,-0.01,-0.07,1565176764.5722632
9.252,-0.787,0.9,-0.05,-0.01,-0.09,1565176764.6921835
9.299,-0.776,0.905,-0.05,-0.01,-0.13,1565176764.8101923
9.31,-0.769,0.909,-0.04,-0.0,-0.15,1565176764.9342687
9.333,-0.758,0.914,-0.04,0.01,-0.17,1565176765.0568357
9.33,-0.765,0.915,-0.03,0.01,-0.17,1565176765.107884
9.312,-0.769,0.915,-0.02,0.01,-0.16,1565176765.287192
9.307,-0.769,0.915,-0.02,0.01,-0.16,1565176765.3986306
9.307,-0.766,0.914,-0.01,0.01,-0.16,1565176765.5101192
9.309,-0.765,0.914,-0.01,0.01,-0.16,1565176765.6185803
9.313,-0.76,0.913,-0.01,0.01,-0.17,1565176765.760863
9.315,-0.76,0.914,-0.01,0.01,-0.17,1565176765.8659463
9.316,-0.76,0.914,-0.01,0.01,-0.17,1565176765.955435
9.316,-0.76,0.914,-0.01,0.01,-0.17,1565176766.0749109
9.315,-0.761,0.914,-0.01,0.01,-0.17,1565176766.1804426
9.315,-0.761,0.914,-0.01,0.01,-0.17,1565176766.3147137
9.314,-0.761,0.914,-0.01,0.01,-0.17,1565176766.4123304
9.272,-0.743,0.923,-0.01,0.01,-0.17,1565176766.5029786
9.27,-0.743,0.924,-0.01,0.01,-0.17,1565176766.6333516
9.269,-0.743,0.924,-0.01,0.01,-0.17,1565176766.7516463
9.269,-0.742,0.925,-0.01,0.01,-0.17,1565176766.86336
9.269,-0.742,0.925,-0.01,0.01,-0.17,1565176766.978298
9.27,-0.743,0.925,-0.01,0.01,-0.17,1565176767.0510523
9.273,-0.744,0.923,-0.01,0.01,-0.17,1565176767.1744466
9.275,-0.745,0.923,-0.01,0.01,-0.17,1565176767.285382
9.273,-0.745,0.923,-0.01,0.01,-0.17,1565176767.397084
9.272,-0.744,0.924,-0.01,0.01,-0.17,1565176767.505939
9.271,-0.744,0.924,-0.01,0.01,-0.17,1565176767.6192355
9.272,-0.744,0.924,-0.01,0.01,-0.17,1565176767.730024
9.27,-0.743,0.924,-0.01,0.01,-0.17,1565176767.8388255
9.269,-0.743,0.925,-0.01,0.01,-0.17,1565176767.9507687
9.269,-0.743,0.925,-0.01,0.01,-0.17,1565176767.9927576
9.269,-0.742,0.925,-0.01,0.01,-0.17,1565176768.0830812
9.269,-0.742,0.925,-0.01,0.01,-0.17,1565176768.213857
9.269,-0.742,0.925,-0.01,0.01,-0.17,1565176768.3889768
9.269,-0.742,0.925,-0.01,0.01,-0.17,1565176768.4978373
9.268,-0.742,0.925,-0.01,0.01,-0.17,1565176768.5541673
9.268,-0.742,0.925,-0.01,0.01,-0.17,1565176768.662271
9.268,-0.742,0.925,-0.01,0.01,-0.17,1565176768.8269923
9.268,-0.742,0.925,-0.01,0.01,-0.17,1565176768.9372687
9.268,-0.742,0.925,-0.01,0.01,-0.17,1565176769.0494878
9.268,-0.742,0.925,-0.01,0.01,-0.17,1565176769.1592133
9.268,-0.742,0.925,-0.01,0.01,-0.17,1565176769.2674892
9.268,-0.742,0.925,-0.01,0.01,-0.17,1565176769.323592
9.268,-0.742,0.925,-0.01,0.01,-0.17,1565176769.4850445
9.268,-0.742,0.925,-0.01,0.01,-0.17,1565176769.5933082
9.268,-0.742,0.925,-0.01,0.01,-0.17,1565176769.634808
9.268,-0.742,0.925,-0.01,0.01,-0.17,1565176769.717028
9.268,-0.742,0.925,-0.01,0.01,-0.17,1565176769.8233202
9.268,-0.742,0.925,-0.01,0.01,-0.17,1565176769.8416812
9.268,-0.742,0.925,-0.01,0.01,-0.17,1565176769.8657765
9.268,-0.742,0.925,-0.01,0.01,-0.17,1565176769.8887837
9.268,-0.742,0.925,-0.01,0.01,-0.17,1565176769.9129202
9.268,-0.742,0.925,-0.01,0.01,-0.17,1565176769.936467
9.268,-0.742,0.925,-0.01,0.01,-0.17,1565176769.9666455
9.268,-0.742,0.925,-0.01,0.01,-0.17,1565176769.9901345
9.268,-0.742,0.925,-0.01,0.01,-0.17,1565176770.0139875
9.268,-0.742,0.925,-0.01,0.01,-0.17,1565176770.0371006
9.268,-0.742,0.925,-0.01,0.01,-0.17,1565176770.061512
9.268,-0.742,0.925,-0.01,0.01,-0.17,1565176770.0835497
9.268,-0.742,0.925,-0.01,0.01,-0.17,1565176770.107618
9.268,-0.742,0.925,-0.01,0.01,-0.17,1565176770.1327748
9.268,-0.742,0.925,-0.01,0.01,-0.17,1565176770.1587646
9.268,-0.742,0.925,-0.01,0.01,-0.17,1565176770.1828382
9.268,-0.742,0.925,-0.01,0.01,-0.17,1565176770.2073305
9.268,-0.742,0.925,-0.01,0.01,-0.17,1565176770.2308252
9.268,-0.742,0.925,-0.01,0.01,-0.17,1565176770.2540581
9.268,-0.742,0.925,-0.01,0.01,-0.17,1565176770.2781448
9.268,-0.742,0.925,-0.01,0.01,-0.17,1565176770.3008952
9.268,-0.742,0.925,-0.01,0.01,-0.17,1565176770.3323176
9.268,-0.742,0.925,-0.01,0.01,-0.17,1565176770.3569355
9.268,-0.742,0.925,-0.01,0.01,-0.17,1565176770.3815074
9.268,-0.742,0.925,-0.01,0.01,-0.17,1565176770.4052093
9.268,-0.742,0.925,-0.01,0.01,-0.17,1565176770.4309895
9.268,-0.742,0.925,-0.01,0.01,-0.17,1565176770.453042
9.268,-0.742,0.925,-0.01,0.01,-0.17,1565176770.4808688
9.268,-0.742,0.925,-0.01,0.01,-0.17,1565176770.5043685
9.268,-0.742,0.925,-0.01,0.01,-0.17,1565176770.527163
9.269,-0.742,0.925,-0.01,0.01,-0.17,1565176770.5508037
9.269,-0.742,0.925,-0.01,0.01,-0.17,1565176770.5744524
9.268,-0.742,0.925,-0.01,0.01,-0.17,1565176770.5981429
9.269,-0.742,0.925,-0.01,0.01,-0.17,1565176770.6215713
9.269,-0.742,0.925,-0.01,0.01,-0.17,1565176770.6450706
9.269,-0.742,0.925,-0.01,0.01,-0.17,1565176770.6683526
9.269,-0.742,0.925,-0.01,0.01,-0.17,1565176770.6919632
9.269,-0.742,0.925,-0.01,0.01,-0.17,1565176770.7159157
9.269,-0.742,0.925,-0.01,0.01,-0.17,1565176770.7465794
9.269,-0.742,0.925,-0.01,0.01,-0.17,1565176770.773333
9.269,-0.742,0.925,-0.01,0.01,-0.17,1565176770.7976632
9.269,-0.742,0.925,-0.01,0.01,-0.17,1565176770.824
9.269,-0.742,0.925,-0.01,0.01,-0.17,1565176770.849079
9.269,-0.742,0.925,-0.01,0.01,-0.17,1565176770.8724308
9.269,-0.742,0.925,-0.01,0.01,-0.17,1565176770.8988705
9.269,-0.742,0.925,-0.01,0.01,-0.17,1565176770.924289
9.269,-0.742,0.925,-0.01,0.01,-0.17,1565176770.9486668
9.269,-0.742,0.925,-0.01,0.01,-0.17,1565176770.9721334
9.269,-0.742,0.925,-0.01,0.01,-0.17,1565176770.9977484
9.269,-0.742,0.925,-0.01,0.01,-0.17,1565176771.0212047
9.269,-0.742,0.925,-0.01,0.01,-0.17,1565176771.044972
9.269,-0.742,0.925,-0.01,0.01,-0.17,1565176771.0681615
9.269,-0.742,0.925,-0.01,0.01,-0.17,1565176771.0918002
9.268,-0.742,0.925,-0.01,0.01,-0.17,1565176771.1149845
9.268,-0.742,0.925,-0.01,0.01,-0.17,1565176771.1437142
9.269,-0.742,0.925,-0.01,0.01,-0.17,1565176771.2637668
9.268,-0.742,0.925,-0.01,0.01,-0.17,1565176771.3116546
9.268,-0.742,0.925,-0.01,0.01,-0.17,1565176771.4483929
9.268,-0.742,0.925,-0.01,0.01,-0.17,1565176771.618478
9.268,-0.742,0.925,-0.01,0.01,-0.17,1565176771.6750684
