grab_timestamp, write_timestamp
15681093278092744, 1568109327.8297787
15681093278637, 1568109327.8913338
15681093279462628, 1568109328.0101225
15681093280535705, 1568109328.0816507
15681093281109214, 1568109328.136927
15681093281660135, 1568109328.192082
1568109328237056, 1568109328.263623
1568109328309064, 1568109328.3498967
15681093283940713, 1568109328.4360101
15681093284807043, 1568109328.5220883
15681093285682828, 1568109328.6103673
15681093286423452, 1568109328.6803555
15681093286986895, 1568109328.7312698
15681093287672725, 1568109328.7931538
15681093288368351, 1568109328.8765688
156810932892115, 1568109328.9598775
15681093290025067, 1568109329.070409
15681093291180973, 1568109329.1605785
1568109329204633, 1568109329.2465925
1568109329291367, 1568109329.3316996
15681093293794315, 1568109329.4202187
15681093294664555, 1568109329.5068438
1568109329549519, 1568109329.5893517
15681093296354845, 1568109329.6760995
15681093297262537, 1568109329.7924025
15681093298100858, 1568109329.8777146
15681093299239333, 1568109329.9660344
1568109330010757, 1568109330.0510545
156810933009501, 1568109330.1352553
1568109330180221, 1568109330.2212367
1568109330266896, 1568109330.3070238
15681093303530705, 1568109330.4205916
15681093304657035, 1568109330.5075848
15681093305495398, 1568109330.5903683
15681093306367967, 1568109330.6773727
15681093307234168, 1568109330.7647736
15681093308439803, 1568109330.8847623
15681093309295132, 1568109330.9712508
1568109331016139, 1568109331.0569956
15681093310995846, 1568109331.1397028
15681093311844797, 1568109331.2256336
15681093312711751, 1568109331.3102832
15681093313566191, 1568109331.398168
15681093314426465, 1568109331.4844773
1568109331528038, 1568109331.5703642
15681093316077218, 1568109331.6754594
15681093317204766, 1568109331.763693
15681093318067818, 1568109331.8742785
15681093319189134, 1568109331.9603102
15681093320049086, 1568109332.0462887
15681093320902789, 1568109332.1309192
1568109332174777, 1568109332.214493
1568109332258435, 1568109332.2972727
15681093323411536, 1568109332.38368
15681093324275274, 1568109332.4684217
15681093325126777, 1568109332.553166
15681093325962155, 1568109332.6382747
15681093326812885, 1568109332.723839
15681093327708714, 1568109332.8379142
15681093328829744, 1568109332.9245074
1568109332968942, 1568109333.0082247
15681093330526242, 1568109333.0926256
15681093331355822, 1568109333.176266
15681093332188718, 1568109333.2849813
15681093333023465, 1568109333.3662343
15681093334116204, 1568109333.4534848
1568109333497985, 1568109333.539476
15681093335851033, 1568109333.6249743
15681093336680872, 1568109333.707756
1568109333750443, 1568109333.7919958
15681093338683708, 1568109333.9091108
15681093339574602, 1568109333.9984248
15681093340434282, 1568109334.1099863
15681093341291873, 1568109334.1988523
15681093342439475, 1568109334.286208
15681093343301015, 1568109334.3945298
15681093344126937, 1568109334.4805727
1568109334529539, 1568109334.5998697
1568109334628455, 1568109334.6592135
15681093346876009, 1568109334.7153473
15681093347438915, 1568109334.7714171
1568109334800033, 1568109334.8274376
15681093348567736, 1568109334.884089
15681093349123228, 1568109334.9517856
1568109334983579, 1568109335.0081663
15681093350407367, 1568109335.0676093
1568109335095412, 1568109335.1228724
1568109335151513, 1568109335.1792967
15681093352076716, 1568109335.2347336
15681093352637527, 1568109335.2903233
15681093353182173, 1568109335.364334
1568109335395873, 1568109335.422935
1568109335455078, 1568109335.4823685
1568109335515274, 1568109335.5398111
15681093355718923, 1568109335.597849
15681093356297188, 1568109335.6714559
15681093357043538, 1568109335.731312
1568109335763792, 1568109335.7901883
1568109335821959, 1568109335.8485417
15681093358828208, 1568109335.9245186
15681093359558222, 1568109335.9828079
1568109336014176, 1568109336.0410733
15681093360727985, 1568109336.099105
15681093361313987, 1568109336.1581082
15681093361897519, 1568109336.2316232
15681093362642128, 1568109336.2908318
15681093363228624, 1568109336.3486614
1568109336382456, 1568109336.4082491
15681093364400473, 1568109336.4661412
15681093364980745, 1568109336.5396497
15681093365557618, 1568109336.594556
15681093366281376, 1568109336.653728
15681093366867948, 1568109336.7123516
15681093367447608, 1568109336.7708123
1568109336803354, 1568109336.845165
15681093368785665, 1568109336.9058845
1568109336938692, 1568109336.9640617
1568109336995562, 1568109337.0385816
1568109337071679, 1568109337.0982063
15681093371293638, 1568109337.1561985
15681093371889067, 1568109337.2151487
15681093372466998, 1568109337.2734513
15681093373058524, 1568109337.3322926
15681093373635616, 1568109337.38994
15681093374221544, 1568109337.44832
15681093374761872, 1568109337.504733
15681093375375302, 1568109337.5627637
15681093375948853, 1568109337.6201234
15681093376530292, 1568109337.6793635
15681093377120025, 1568109337.739825
156810933777434, 1568109337.8001742
1568109337833863, 1568109337.876052
15681093379097905, 1568109337.936307
1568109337971235, 1568109337.9956071
15681093380290918, 1568109338.055861
15681093380907922, 1568109338.1163974
15681093381488795, 1568109338.1759446
15681093382077172, 1568109338.2504706
15681093382677946, 1568109338.3069456
15681093383399177, 1568109338.3668847
1568109338400845, 1568109338.4257522
15681093384595587, 1568109338.4854794
156810933851666, 1568109338.5584495
15681093385906606, 1568109338.6165712
15681093386477396, 1568109338.6742315
1568109338706038, 1568109338.7326279
15681093387659185, 1568109338.791946
15681093388249905, 1568109338.8501205
15681093388824086, 1568109338.9085011
1568109338942515, 1568109338.9846387
15681093390202246, 1568109339.0439343
15681093390781035, 1568109339.1044626
15681093391387498, 1568109339.1641822
1568109339196809, 1568109339.2250273
1568109339257629, 1568109339.2833602
15681093393173234, 1568109339.3408206
15681093393737395, 1568109339.399898
15681093394320774, 1568109339.4578931
15681093394936361, 1568109339.5162833
15681093395485945, 1568109339.5751002
15681093396065156, 1568109339.648826
15681093396824195, 1568109339.7061975
15681093397415318, 1568109339.7652497
1568109339794736, 1568109339.8259237
1568109339855708, 1568109339.8821394
15681093399118419, 1568109339.938373
1568109339968502, 1568109339.9941475
15681093400249434, 1568109340.0515125
1568109340081295, 1568109340.1081128
15681093401375096, 1568109340.1767285
15681093402062457, 1568109340.2344642
15681093402639954, 1568109340.289833
15681093403243296, 1568109340.348311
15681093403777728, 1568109340.4028056
15681093404518986, 1568109340.4780061
15681093405085034, 1568109340.533282
15681093405627658, 1568109340.5905406
15681093406200395, 1568109340.64542
1568109340676823, 1568109340.702285
15681093407314308, 1568109340.7568429
15681093407867966, 1568109340.8125782
1568109340843331, 1568109340.886934
15681093409171247, 1568109340.9431112
15681093409741752, 1568109340.9996781
15681093410304937, 1568109341.0789273
15681093411096416, 1568109341.1357985
15681093411654444, 1568109341.1912582
15681093412205732, 1568109341.2464414
15681093412798653, 1568109341.3049483
15681093413345282, 1568109341.3603477
15681093413895621, 1568109341.4160068
15681093414467447, 1568109341.472377
1568109341502149, 1568109341.5279086
15681093415572114, 1568109341.5822315
15681093416120749, 1568109341.649898
15681093416725357, 1568109341.7131326
1568109341745041, 1568109341.7708025
15681093418006835, 1568109341.8268533
15681093418576035, 1568109341.8850663
1568109341915065, 1568109341.9410453
1568109341970731, 1568109342.014855
15681093420335715, 1568109342.0736752
15681093421022482, 1568109342.1281154
1568109342157439, 1568109342.18312
15681093422123497, 1568109342.238469
15681093422675705, 1568109342.305792
15681093423393552, 1568109342.3650389
15681093423975463, 1568109342.4226727
