Tx,Ty,Tz,Pitch,Roll,Yaw,Timestamp
-0.005,-0.001,-0.003,-0.0,-0.0,0.0,1568109327.8552077
-0.026,-0.031,-0.02,0.0,-0.0,-0.0,1568109327.9166837
-0.027,-0.033,-0.022,0.0,-0.0,-0.0,1568109327.946136
-0.027,-0.033,-0.022,0.0,-0.0,-0.0,1568109327.9955788
-0.027,-0.033,-0.023,0.0,-0.0,-0.0,1568109328.037508
-0.027,-0.033,-0.023,0.0,-0.0,-0.0,1568109328.096961
-0.027,-0.033,-0.023,0.0,-0.0,-0.0,1568109328.152528
-0.027,-0.033,-0.023,0.0,-0.0,-0.0,1568109328.208123
-0.027,-0.033,-0.023,0.0,-0.0,-0.0,1568109328.279122
-0.028,-0.033,-0.023,0.0,-0.0,-0.0,1568109328.3652642
-0.028,-0.033,-0.023,0.0,-0.0,-0.0,1568109328.4519172
-0.028,-0.034,-0.023,0.0,-0.0,-0.0,1568109328.5380435
-0.028,-0.034,-0.024,0.0,-0.0,-0.0,1568109328.6257577
-0.028,-0.034,-0.024,0.0,-0.0,-0.0,1568109328.6422555
-0.028,-0.034,-0.024,0.0,-0.0,-0.0,1568109328.6985745
-0.028,-0.034,-0.024,0.0,-0.0,-0.0,1568109328.750868
-0.028,-0.034,-0.024,0.0,-0.0,-0.0,1568109328.809258
-0.027,-0.034,-0.024,0.0,-0.0,-0.0,1568109328.8939855
-0.027,-0.034,-0.024,0.0,-0.0,-0.0,1568109328.959759
-0.027,-0.034,-0.024,0.0,-0.0,-0.0,1568109329.0023847
-0.027,-0.034,-0.024,0.0,0.0,-0.0,1568109329.0889409
-0.027,-0.034,-0.024,0.0,0.0,-0.0,1568109329.1760087
-0.027,-0.034,-0.024,0.0,0.0,-0.0,1568109329.2621346
-0.027,-0.034,-0.024,0.0,0.0,-0.0,1568109329.3484495
-0.027,-0.034,-0.025,0.0,0.0,-0.0,1568109329.437717
-0.027,-0.034,-0.024,0.0,0.0,-0.0,1568109329.5224297
-0.027,-0.034,-0.025,0.0,0.0,-0.0,1568109329.6050704
-0.027,-0.034,-0.025,0.0,0.0,-0.0,1568109329.6759505
-0.027,-0.033,-0.025,0.0,-0.0,-0.0,1568109329.7260666
-0.027,-0.034,-0.025,0.0,0.0,-0.0,1568109329.8098197
-0.027,-0.034,-0.025,0.0,-0.0,-0.0,1568109329.8937814
-0.027,-0.034,-0.025,0.0,0.0,-0.0,1568109329.9812088
-0.027,-0.034,-0.025,0.0,0.0,-0.0,1568109330.0663981
-0.027,-0.034,-0.025,0.0,0.0,-0.0,1568109330.1506975
-0.027,-0.034,-0.025,0.0,0.0,-0.0,1568109330.2375429
-0.027,-0.034,-0.025,0.0,0.0,-0.0,1568109330.322169
-0.027,-0.034,-0.025,0.0,0.0,-0.0,1568109330.3529491
-0.027,-0.034,-0.025,0.0,0.0,-0.0,1568109330.4374604
-0.027,-0.034,-0.025,0.0,0.0,-0.0,1568109330.5225751
-0.027,-0.034,-0.025,0.0,0.0,-0.0,1568109330.6067376
-0.027,-0.034,-0.025,0.0,0.0,-0.0,1568109330.6937065
-0.027,-0.034,-0.025,0.0,0.0,-0.0,1568109330.7568846
-0.027,-0.034,-0.025,0.0,0.0,-0.0,1568109330.8090365
-0.027,-0.034,-0.025,0.0,0.0,-0.0,1568109330.9007683
-0.027,-0.034,-0.025,0.0,0.0,-0.0,1568109330.9864056
-0.027,-0.034,-0.025,0.0,0.0,-0.0,1568109331.0722613
-0.027,-0.034,-0.025,0.0,0.0,-0.0,1568109331.1558876
-0.027,-0.034,-0.025,0.0,0.0,-0.0,1568109331.240796
-0.027,-0.034,-0.025,0.0,0.0,-0.0,1568109331.3288417
-0.027,-0.034,-0.025,0.0,0.0,-0.0,1568109331.4142373
-0.027,-0.034,-0.025,0.0,0.0,-0.0,1568109331.4995766
-0.027,-0.034,-0.025,0.0,0.0,-0.0,1568109331.586117
-0.027,-0.034,-0.025,0.0,0.0,-0.0,1568109331.607652
-0.027,-0.034,-0.025,0.0,0.0,-0.0,1568109331.6923156
-0.027,-0.034,-0.025,0.0,0.0,-0.0,1568109331.7788398
-0.027,-0.034,-0.025,0.0,0.0,-0.0,1568109331.8066936
-0.027,-0.034,-0.025,0.0,0.0,-0.0,1568109331.8903413
-0.027,-0.034,-0.025,0.0,-0.0,-0.0,1568109331.976807
-0.027,-0.034,-0.025,0.0,0.0,-0.0,1568109332.0622215
-0.027,-0.034,-0.025,0.0,0.0,-0.0,1568109332.146056
-0.027,-0.034,-0.025,0.0,0.0,-0.0,1568109332.2306285
-0.027,-0.034,-0.025,0.0,0.0,-0.0,1568109332.3134758
-0.027,-0.034,-0.025,0.0,0.0,-0.0,1568109332.3985791
-0.027,-0.034,-0.025,0.0,0.0,-0.0,1568109332.4848785
-0.026,-0.034,-0.025,0.0,0.0,-0.0,1568109332.5681248
-0.027,-0.034,-0.025,0.0,0.0,-0.0,1568109332.6532526
-0.027,-0.034,-0.025,0.0,0.0,-0.0,1568109332.739736
-0.027,-0.034,-0.025,0.0,0.0,-0.0,1568109332.7707791
-0.027,-0.034,-0.025,0.0,0.0,-0.0,1568109332.8546908
-0.027,-0.034,-0.025,0.0,0.0,-0.0,1568109332.9401278
-0.027,-0.034,-0.025,0.0,0.0,-0.0,1568109333.0233705
-0.027,-0.034,-0.025,0.0,-0.0,-0.0,1568109333.0925055
-0.027,-0.034,-0.025,0.0,0.0,-0.0,1568109333.1681569
-0.027,-0.034,-0.025,0.0,0.0,-0.0,1568109333.2188122
-0.027,-0.034,-0.025,0.0,0.0,-0.0,1568109333.3022232
-0.027,-0.034,-0.025,0.0,0.0,-0.0,1568109333.3830214
-0.026,-0.034,-0.025,0.0,0.0,-0.0,1568109333.4695034
-0.026,-0.034,-0.025,0.0,0.0,-0.0,1568109333.555235
-0.027,-0.034,-0.025,0.0,-0.0,-0.0,1568109333.6402411
-0.027,-0.034,-0.025,0.0,0.0,-0.0,1568109333.7227201
-0.027,-0.034,-0.025,0.0,0.0,-0.0,1568109333.783968
-0.027,-0.034,-0.025,0.0,0.0,-0.0,1568109333.8364742
-0.027,-0.034,-0.025,0.0,0.0,-0.0,1568109333.9267242
-0.027,-0.034,-0.025,0.0,0.0,-0.0,1568109334.0146165
-0.027,-0.034,-0.025,0.0,0.0,-0.0,1568109334.04336
-0.027,-0.034,-0.025,0.0,0.0,-0.0,1568109334.128872
-0.027,-0.034,-0.025,0.0,-0.0,-0.0,1568109334.2153382
-0.027,-0.034,-0.025,0.0,0.0,-0.0,1568109334.3022497
-0.027,-0.034,-0.025,0.0,0.0,-0.0,1568109334.3300326
-0.027,-0.034,-0.025,0.0,0.0,-0.0,1568109334.412502
-0.027,-0.034,-0.025,0.0,0.0,-0.0,1568109334.4988844
-0.027,-0.034,-0.025,0.0,0.0,-0.0,1568109334.5294726
-0.026,-0.034,-0.013,0.1,0.01,0.0,1568109334.6160173
0.024,-0.035,-0.014,0.07,0.0,0.0,1568109334.674606
0.056,-0.034,-0.007,0.04,0.02,0.01,1568109334.7305121
0.122,-0.035,0.01,0.08,0.0,-0.0,1568109334.7866075
0.201,-0.034,0.008,0.08,0.01,0.01,1568109334.8429217
0.277,-0.034,0.024,0.02,0.01,0.0,1568109334.8839548
0.344,-0.035,0.04,0.07,0.01,0.01,1568109334.9122548
0.447,-0.033,0.042,0.07,0.01,0.0,1568109334.9674308
0.538,-0.032,0.059,0.03,0.01,0.0,1568109335.0242302
0.567,-0.031,0.065,0.04,0.02,0.01,1568109335.0818675
0.66,-0.022,0.082,0.1,0.01,-0.0,1568109335.1170936
0.8,-0.023,0.088,0.07,0.01,-0.01,1568109335.1726582
0.917,-0.019,0.109,0.04,0.01,-0.01,1568109335.2285478
1.035,-0.023,0.125,0.05,0.01,-0.02,1568109335.2901263
1.202,-0.02,0.147,0.06,0.01,-0.01,1568109335.3180068
1.334,-0.012,0.159,0.08,0.01,-0.02,1568109335.3789616
1.429,-0.011,0.167,0.05,0.01,0.01,1568109335.4378579
1.576,-0.011,0.195,0.04,0.01,0.01,1568109335.4822443
1.728,-0.01,0.215,0.06,0.01,0.01,1568109335.554376
1.941,-0.014,0.228,0.06,0.02,0.01,1568109335.6121342
2.11,-0.015,0.264,0.04,0.02,0.02,1568109335.6296458
2.314,-0.008,0.288,0.1,0.01,0.01,1568109335.686993
2.437,-0.004,0.301,0.06,0.03,0.03,1568109335.7466712
2.564,-0.007,0.32,0.03,0.03,0.01,1568109335.8051276
2.81,-0.008,0.359,0.06,0.02,-0.01,1568109335.8647819
2.999,-0.002,0.383,0.06,0.02,-0.02,1568109335.8825881
3.258,0.002,0.42,0.05,0.01,-0.03,1568109335.9400115
3.456,0.006,0.455,0.05,0.02,-0.03,1568109335.997722
3.519,0.01,0.464,0.06,0.02,-0.02,1568109336.0558352
3.787,0.013,0.505,0.09,0.02,-0.03,1568109336.1139815
3.994,0.02,0.535,0.08,0.02,-0.03,1568109336.157988
4.28,0.037,0.573,0.06,0.03,-0.03,1568109336.1896608
4.502,0.037,0.613,0.07,0.02,-0.04,1568109336.2477844
4.645,0.05,0.63,0.08,0.01,-0.05,1568109336.3054385
4.875,0.058,0.661,0.08,0.03,-0.04,1568109336.3653502
5.108,0.061,0.693,0.04,0.02,-0.04,1568109336.422979
5.413,0.075,0.747,0.06,0.02,-0.02,1568109336.4660192
5.639,0.088,0.777,0.1,0.02,-0.03,1568109336.4979832
5.959,0.093,0.819,0.07,0.02,-0.01,1568109336.5555696
6.202,0.105,0.857,0.04,0.02,-0.02,1568109336.610248
6.445,0.113,0.894,0.05,0.03,-0.03,1568109336.6693943
6.61,0.116,0.92,0.06,0.03,-0.02,1568109336.7273047
6.86,0.135,0.954,0.08,0.04,-0.03,1568109336.7641685
7.119,0.136,0.992,0.07,0.03,-0.04,1568109336.8031728
7.46,0.148,1.042,0.06,0.04,-0.03,1568109336.8624885
7.73,0.153,1.093,0.08,0.03,-0.06,1568109336.920479
7.895,0.173,1.115,0.12,0.05,-0.07,1568109336.9785402
8.173,0.189,1.149,0.1,0.03,-0.09,1568109336.9954867
8.406,0.21,1.195,0.05,0.05,-0.1,1568109337.0552235
8.779,0.254,1.252,0.13,0.05,-0.1,1568109337.1126068
8.88,0.26,1.265,0.13,0.04,-0.12,1568109337.171628
9.18,0.292,1.311,0.1,0.06,-0.12,1568109337.2300286
9.58,0.338,1.371,0.1,0.06,-0.13,1568109337.2893035
9.888,0.371,1.423,0.1,0.05,-0.14,1568109337.3468242
10.287,0.427,1.468,0.11,0.05,-0.12,1568109337.4049087
10.621,0.473,1.525,0.09,0.05,-0.12,1568109337.4630194
10.993,0.518,1.571,0.13,0.05,-0.13,1568109337.5198567
11.331,0.56,1.609,0.06,0.06,-0.11,1568109337.5779738
11.801,0.624,1.692,0.09,0.05,-0.1,1568109337.6354918
12.467,0.695,1.77,0.1,0.05,-0.04,1568109337.6947255
12.874,0.737,1.839,0.07,0.05,-0.03,1568109337.7556596
13.003,0.758,1.852,0.1,0.06,-0.02,1568109337.8162677
13.485,0.792,1.909,0.12,0.06,-0.02,1568109337.8337939
13.883,0.821,1.974,0.08,0.05,-0.02,1568109337.8929677
14.273,0.85,2.028,0.12,0.05,-0.01,1568109337.9517543
14.544,0.87,2.058,0.13,0.06,-0.01,1568109338.0103137
15.103,0.9,2.138,0.09,0.06,-0.0,1568109338.0722518
15.511,0.924,2.205,0.12,0.06,-0.0,1568109338.116257
16.049,0.945,2.277,0.13,0.06,-0.0,1568109338.1694
16.492,0.946,2.351,0.1,0.06,-0.01,1568109338.2076454
16.995,0.965,2.437,0.13,0.06,-0.02,1568109338.2676651
17.44,0.978,2.501,0.15,0.07,-0.01,1568109338.3234243
18.061,0.989,2.588,0.1,0.08,0.01,1568109338.3822372
18.22,0.987,2.61,0.08,0.07,-0.01,1568109338.4411347
18.67,0.994,2.683,0.05,0.07,0.02,1568109338.4852772
19.256,0.984,2.763,0.12,0.07,0.05,1568109338.516526
19.818,0.975,2.837,0.08,0.05,0.08,1568109338.5738678
20.122,0.972,2.869,-0.0,0.04,0.09,1568109338.630868
20.434,0.958,2.928,-0.04,0.03,0.1,1568109338.689048
20.844,0.957,2.987,-0.05,0.02,0.14,1568109338.7482724
21.362,0.952,3.068,-0.05,0.01,0.14,1568109338.8067596
21.732,0.953,3.147,-0.01,0.04,0.16,1568109338.8650088
22.209,0.957,3.21,-0.02,0.04,0.16,1568109338.9016013
22.562,0.954,3.28,-0.03,0.03,0.14,1568109338.9424446
22.997,0.96,3.358,-0.04,0.05,0.12,1568109339.0007904
23.205,0.967,3.38,-0.03,0.06,0.12,1568109339.060549
23.507,0.97,3.442,-0.01,0.07,0.1,1568109339.104264
23.795,0.976,3.478,-0.04,0.07,0.08,1568109339.1794245
24.151,0.981,3.55,-0.02,0.07,0.04,1568109339.2405808
24.406,0.989,3.579,-0.04,0.06,0.0,1568109339.2786746
24.715,1.007,3.634,-0.05,0.07,-0.03,1568109339.3566546
24.928,1.014,3.671,-0.03,0.07,-0.07,1568109339.4152384
25.19,1.036,3.709,-0.06,0.08,-0.11,1568109339.4736264
25.373,1.05,3.74,-0.06,0.09,-0.15,1568109339.4935625
25.586,1.075,3.77,-0.05,0.1,-0.21,1568109339.5484514
25.73,1.101,3.792,-0.06,0.11,-0.25,1568109339.6064394
25.902,1.136,3.815,-0.07,0.12,-0.32,1568109339.6657598
25.979,1.157,3.829,-0.07,0.13,-0.35,1568109339.7227485
26.081,1.176,3.839,-0.07,0.13,-0.39,1568109339.7812698
26.172,1.209,3.856,-0.07,0.13,-0.44,1568109339.8418214
26.25,1.241,3.859,-0.07,0.14,-0.49,1568109339.8985074
26.332,1.291,3.87,-0.06,0.15,-0.55,1568109339.9542797
26.383,1.331,3.88,-0.07,0.16,-0.58,1568109340.0102348
26.429,1.383,3.884,-0.06,0.16,-0.63,1568109340.0681775
26.459,1.425,3.883,-0.07,0.18,-0.67,1568109340.1047835
26.483,1.466,3.888,-0.05,0.18,-0.7,1568109340.1373832
26.519,1.516,3.89,-0.06,0.18,-0.75,1568109340.193584
26.532,1.538,3.89,-0.05,0.17,-0.77,1568109340.250558
26.545,1.562,3.891,-0.05,0.17,-0.79,1568109340.3060045
26.561,1.595,3.89,-0.06,0.19,-0.81,1568109340.348191
26.573,1.628,3.892,-0.04,0.19,-0.83,1568109340.3945343
26.581,1.65,3.891,-0.05,0.2,-0.85,1568109340.4374652
26.586,1.661,3.892,-0.05,0.2,-0.87,1568109340.4942698
26.591,1.681,3.893,-0.04,0.21,-0.88,1568109340.54937
26.593,1.69,3.892,-0.03,0.21,-0.89,1568109340.6063461
26.596,1.702,3.892,-0.03,0.22,-0.9,1568109340.662135
26.6,1.713,3.892,-0.03,0.22,-0.91,1568109340.7021601
26.603,1.719,3.891,-0.03,0.22,-0.91,1568109340.7486386
26.605,1.724,3.891,-0.03,0.22,-0.92,1568109340.804299
26.606,1.727,3.891,-0.03,0.22,-0.92,1568109340.8429346
26.606,1.727,3.891,-0.03,0.22,-0.92,1568109340.9035218
26.606,1.727,3.89,-0.03,0.22,-0.92,1568109340.960493
26.607,1.727,3.89,-0.03,0.22,-0.92,1568109341.016315
26.606,1.726,3.89,-0.03,0.22,-0.92,1568109341.0296845
26.606,1.725,3.89,-0.03,0.22,-0.92,1568109341.0962064
26.606,1.725,3.89,-0.03,0.22,-0.92,1568109341.1521544
26.606,1.724,3.89,-0.03,0.22,-0.92,1568109341.2069259
26.606,1.723,3.89,-0.03,0.22,-0.91,1568109341.2642415
26.605,1.723,3.89,-0.03,0.22,-0.92,1568109341.321066
26.605,1.722,3.89,-0.03,0.22,-0.91,1568109341.3766816
26.605,1.722,3.89,-0.03,0.22,-0.92,1568109341.4336033
26.605,1.722,3.89,-0.03,0.22,-0.92,1568109341.4888403
26.605,1.722,3.89,-0.03,0.22,-0.92,1568109341.519829
26.605,1.722,3.89,-0.03,0.22,-0.92,1568109341.5741403
26.605,1.722,3.892,-0.01,0.21,-0.92,1568109341.6120098
26.604,1.724,3.89,-0.02,0.22,-0.92,1568109341.6723232
26.605,1.726,3.891,-0.02,0.22,-0.92,1568109341.7314026
26.605,1.726,3.89,-0.02,0.21,-0.92,1568109341.7875893
26.605,1.726,3.89,-0.02,0.22,-0.92,1568109341.8438778
26.604,1.724,3.89,-0.02,0.22,-0.92,1568109341.90077
26.601,1.725,3.898,0.07,0.17,-0.93,1568109341.932635
26.608,1.73,3.885,0.02,0.2,-0.93,1568109341.9706197
26.611,1.739,3.895,0.03,0.19,-0.94,1568109342.0330486
26.611,1.737,3.89,0.02,0.2,-0.93,1568109342.0892274
26.611,1.737,3.889,-0.0,0.21,-0.93,1568109342.1442142
26.609,1.734,3.893,0.01,0.2,-0.93,1568109342.198575
26.607,1.731,3.891,0.0,0.21,-0.93,1568109342.2539768
26.604,1.728,3.892,0.0,0.21,-0.92,1568109342.267505
26.602,1.724,3.891,0.01,0.21,-0.92,1568109342.3259177
26.601,1.722,3.891,0.01,0.21,-0.92,1568109342.3821104
26.6,1.721,3.891,0.01,0.21,-0.92,1568109342.438619
